$MeshFormat
2 0 8
$EndMeshFormat
$Nodes
362
1 0.850650808352040 0.525731112119134 0.000000000000000
2 -0.850650808352040 0.525731112119134 0.000000000000000
3 0.850650808352040 -0.525731112119134 0.000000000000000
4 -0.850650808352040 -0.525731112119134 0.000000000000000
5 0.525731112119134 0.000000000000000 0.850650808352040
6 0.525731112119134 0.000000000000000 -0.850650808352040
7 -0.525731112119134 0.000000000000000 0.850650808352040
8 -0.525731112119134 0.000000000000000 -0.850650808352040
9 0.000000000000000 0.850650808352040 0.525731112119134
10 0.000000000000000 -0.850650808352040 0.525731112119134
11 0.000000000000000 0.850650808352040 -0.525731112119134
12 0.000000000000000 -0.850650808352040 -0.525731112119134
13 0.758171327092219 0.643074936024869 0.107846490122920
14 0.639949735967775 0.738584505504462 0.212031279917622
15 0.500000000000000 0.809016994374947 0.309016994374947
16 0.343073817584856 0.851981015885397 0.395510687919606
17 0.174499286586264 0.866017817215139 0.468575649438606
18 0.866017817215139 0.468575649438606 0.174499286586264
19 0.851981015885397 0.395510687919606 0.343073817584856
20 0.809016994374947 0.309016994374947 0.500000000000000
21 0.738584505504462 0.212031279917622 0.639949735967775
22 0.643074936024869 0.107846490122920 0.758171327092219
23 0.468575649438606 0.174499286586264 0.866017817215139
24 0.395510687919606 0.343073817584856 0.851981015885397
25 0.309016994374947 0.500000000000000 0.809016994374947
26 0.212031279917622 0.639949735967775 0.738584505504462
27 0.107846490122920 0.758171327092219 0.643074936024869
28 0.866017817215139 0.468575649438606 -0.174499286586264
29 0.851981015885397 0.395510687919606 -0.343073817584856
30 0.809016994374947 0.309016994374947 -0.500000000000000
31 0.738584505504462 0.212031279917622 -0.639949735967775
32 0.643074936024869 0.107846490122920 -0.758171327092219
33 0.758171327092219 0.643074936024869 -0.107846490122920
34 0.639949735967775 0.738584505504462 -0.212031279917622
35 0.500000000000000 0.809016994374947 -0.309016994374947
36 0.343073817584856 0.851981015885397 -0.395510687919606
37 0.174499286586264 0.866017817215139 -0.468575649438606
38 0.468575649438606 0.174499286586264 -0.866017817215139
39 0.395510687919606 0.343073817584856 -0.851981015885397
40 0.309016994374947 0.500000000000000 -0.809016994374947
41 0.212031279917622 0.639949735967775 -0.738584505504462
42 0.107846490122920 0.758171327092219 -0.643074936024869
43 0.866017817215139 -0.468575649438606 0.174499286586264
44 0.851981015885397 -0.395510687919606 0.343073817584856
45 0.809016994374947 -0.309016994374947 0.500000000000000
46 0.738584505504462 -0.212031279917622 0.639949735967775
47 0.643074936024869 -0.107846490122920 0.758171327092219
48 0.758171327092219 -0.643074936024869 0.107846490122920
49 0.639949735967775 -0.738584505504462 0.212031279917622
50 0.500000000000000 -0.809016994374947 0.309016994374947
51 0.343073817584856 -0.851981015885397 0.395510687919606
52 0.174499286586264 -0.866017817215139 0.468575649438606
53 0.468575649438606 -0.174499286586264 0.866017817215139
54 0.395510687919606 -0.343073817584856 0.851981015885397
55 0.309016994374947 -0.500000000000000 0.809016994374947
56 0.212031279917622 -0.639949735967775 0.738584505504462
57 0.107846490122920 -0.758171327092219 0.643074936024869
58 0.758171327092219 -0.643074936024869 -0.107846490122920
59 0.639949735967775 -0.738584505504462 -0.212031279917622
60 0.500000000000000 -0.809016994374947 -0.309016994374947
61 0.343073817584856 -0.851981015885397 -0.395510687919606
62 0.174499286586264 -0.866017817215139 -0.468575649438606
63 0.866017817215139 -0.468575649438606 -0.174499286586264
64 0.851981015885397 -0.395510687919606 -0.343073817584856
65 0.809016994374947 -0.309016994374947 -0.500000000000000
66 0.738584505504462 -0.212031279917622 -0.639949735967775
67 0.643074936024869 -0.107846490122920 -0.758171327092219
68 0.468575649438606 -0.174499286586264 -0.866017817215139
69 0.395510687919606 -0.343073817584856 -0.851981015885397
70 0.309016994374947 -0.500000000000000 -0.809016994374947
71 0.212031279917622 -0.639949735967775 -0.738584505504462
72 0.107846490122920 -0.758171327092219 -0.643074936024869
73 -0.866017817215139 0.468575649438606 0.174499286586264
74 -0.851981015885397 0.395510687919606 0.343073817584856
75 -0.809016994374947 0.309016994374947 0.500000000000000
76 -0.738584505504462 0.212031279917622 0.639949735967775
77 -0.643074936024869 0.107846490122920 0.758171327092219
78 -0.758171327092219 0.643074936024869 0.107846490122920
79 -0.639949735967775 0.738584505504462 0.212031279917622
80 -0.500000000000000 0.809016994374947 0.309016994374947
81 -0.343073817584856 0.851981015885397 0.395510687919606
82 -0.174499286586264 0.866017817215139 0.468575649438606
83 -0.468575649438606 0.174499286586264 0.866017817215139
84 -0.395510687919606 0.343073817584856 0.851981015885397
85 -0.309016994374947 0.500000000000000 0.809016994374947
86 -0.212031279917622 0.639949735967775 0.738584505504462
87 -0.107846490122920 0.758171327092219 0.643074936024869
88 -0.758171327092219 0.643074936024869 -0.107846490122920
89 -0.639949735967775 0.738584505504462 -0.212031279917622
90 -0.500000000000000 0.809016994374947 -0.309016994374947
91 -0.343073817584856 0.851981015885397 -0.395510687919606
92 -0.174499286586264 0.866017817215139 -0.468575649438606
93 -0.866017817215139 0.468575649438606 -0.174499286586264
94 -0.851981015885397 0.395510687919606 -0.343073817584856
95 -0.809016994374947 0.309016994374947 -0.500000000000000
96 -0.738584505504462 0.212031279917622 -0.639949735967775
97 -0.643074936024869 0.107846490122920 -0.758171327092219
98 -0.468575649438606 0.174499286586264 -0.866017817215139
99 -0.395510687919606 0.343073817584856 -0.851981015885397
100 -0.309016994374947 0.500000000000000 -0.809016994374947
101 -0.212031279917622 0.639949735967775 -0.738584505504462
102 -0.107846490122920 0.758171327092219 -0.643074936024869
103 -0.758171327092219 -0.643074936024869 0.107846490122920
104 -0.639949735967775 -0.738584505504462 0.212031279917622
105 -0.500000000000000 -0.809016994374947 0.309016994374947
106 -0.343073817584856 -0.851981015885397 0.395510687919606
107 -0.174499286586264 -0.866017817215139 0.468575649438606
108 -0.866017817215139 -0.468575649438606 0.174499286586264
109 -0.851981015885397 -0.395510687919606 0.343073817584856
110 -0.809016994374947 -0.309016994374947 0.500000000000000
111 -0.738584505504462 -0.212031279917622 0.639949735967775
112 -0.643074936024869 -0.107846490122920 0.758171327092219
113 -0.468575649438606 -0.174499286586264 0.866017817215139
114 -0.395510687919606 -0.343073817584856 0.851981015885397
115 -0.309016994374947 -0.500000000000000 0.809016994374947
116 -0.212031279917622 -0.639949735967775 0.738584505504462
117 -0.107846490122920 -0.758171327092219 0.643074936024869
118 -0.866017817215139 -0.468575649438606 -0.174499286586264
119 -0.851981015885397 -0.395510687919606 -0.343073817584856
120 -0.809016994374947 -0.309016994374947 -0.500000000000000
121 -0.738584505504462 -0.212031279917622 -0.639949735967775
122 -0.643074936024869 -0.107846490122920 -0.758171327092219
123 -0.758171327092219 -0.643074936024869 -0.107846490122920
124 -0.639949735967775 -0.738584505504462 -0.212031279917622
125 -0.500000000000000 -0.809016994374947 -0.309016994374947
126 -0.343073817584856 -0.851981015885397 -0.395510687919606
127 -0.174499286586264 -0.866017817215139 -0.468575649438606
128 -0.468575649438606 -0.174499286586264 -0.866017817215139
129 -0.395510687919606 -0.343073817584856 -0.851981015885397
130 -0.309016994374947 -0.500000000000000 -0.809016994374947
131 -0.212031279917622 -0.639949735967775 -0.738584505504462
132 -0.107846490122920 -0.758171327092219 -0.643074936024869
133 0.000000000000000 0.932670613678483 0.360729159315686
134 0.000000000000000 0.983023553552631 0.183479408001984
135 0.000000000000000 1.000000000000000 0.000000000000000
136 0.000000000000000 0.983023553552631 -0.183479408001984
137 0.000000000000000 0.932670613678483 -0.360729159315686
138 0.000000000000000 -0.932670613678483 0.360729159315686
139 0.000000000000000 -0.983023553552631 0.183479408001984
140 0.000000000000000 -1.000000000000000 0.000000000000000
141 0.000000000000000 -0.983023553552631 -0.183479408001984
142 0.000000000000000 -0.932670613678483 -0.360729159315686
143 0.932670613678483 0.360729159315686 0.000000000000000
144 0.983023553552631 0.183479408001984 0.000000000000000
145 1.000000000000000 0.000000000000000 0.000000000000000
146 0.983023553552631 -0.183479408001984 0.000000000000000
147 0.932670613678483 -0.360729159315686 0.000000000000000
148 -0.932670613678483 0.360729159315686 0.000000000000000
149 -0.983023553552631 0.183479408001984 0.000000000000000
150 -1.000000000000000 0.000000000000000 0.000000000000000
151 -0.983023553552631 -0.183479408001984 0.000000000000000
152 -0.932670613678483 -0.360729159315686 0.000000000000000
153 0.360729159315686 0.000000000000000 0.932670613678483
154 0.183479408001984 0.000000000000000 0.983023553552631
155 0.000000000000000 0.000000000000000 1.000000000000000
156 -0.183479408001984 0.000000000000000 0.983023553552631
157 -0.360729159315686 0.000000000000000 0.932670613678483
158 0.360729159315686 0.000000000000000 -0.932670613678483
159 0.183479408001984 0.000000000000000 -0.983023553552631
160 0.000000000000000 0.000000000000000 -1.000000000000000
161 -0.183479408001984 0.000000000000000 -0.983023553552631
162 -0.360729159315686 0.000000000000000 -0.932670613678483
163 0.759785049788970 0.581024273487251 0.291783261575753
164 0.624906213537848 0.669319040552062 0.401875909002092
165 0.466677320414909 0.729757099722750 0.499666742954343
166 0.291783261575753 0.759785049788970 0.581024273487251
167 0.729757099722750 0.499666742954343 0.466677320414909
168 0.577350269189626 0.577350269189626 0.577350269189626
169 0.401875909002092 0.624906213537847 0.669319040552061
170 0.669319040552061 0.401875909002092 0.624906213537847
171 0.499666742954343 0.466677320414909 0.729757099722750
172 0.581024273487251 0.291783261575753 0.759785049788970
173 0.759785049788970 0.581024273487251 -0.291783261575753
174 0.729757099722750 0.499666742954343 -0.466677320414909
175 0.669319040552061 0.401875909002092 -0.624906213537847
176 0.581024273487251 0.291783261575753 -0.759785049788970
177 0.624906213537847 0.669319040552061 -0.401875909002092
178 0.577350269189626 0.577350269189626 -0.577350269189626
179 0.499666742954343 0.466677320414909 -0.729757099722750
180 0.466677320414909 0.729757099722750 -0.499666742954343
181 0.401875909002092 0.624906213537847 -0.669319040552061
182 0.291783261575753 0.759785049788970 -0.581024273487251
183 0.759785049788970 -0.581024273487251 0.291783261575753
184 0.729757099722750 -0.499666742954343 0.466677320414909
185 0.669319040552061 -0.401875909002092 0.624906213537847
186 0.581024273487251 -0.291783261575753 0.759785049788970
187 0.624906213537847 -0.669319040552061 0.401875909002092
188 0.577350269189626 -0.577350269189626 0.577350269189626
189 0.499666742954343 -0.466677320414909 0.729757099722750
190 0.466677320414909 -0.729757099722750 0.499666742954343
191 0.401875909002092 -0.624906213537847 0.669319040552061
192 0.291783261575753 -0.759785049788970 0.581024273487251
193 0.759785049788970 -0.581024273487251 -0.291783261575753
194 0.624906213537848 -0.669319040552062 -0.401875909002092
195 0.466677320414909 -0.729757099722750 -0.499666742954343
196 0.291783261575753 -0.759785049788970 -0.581024273487251
197 0.729757099722750 -0.499666742954343 -0.466677320414909
198 0.577350269189626 -0.577350269189626 -0.577350269189626
199 0.401875909002092 -0.624906213537847 -0.669319040552061
200 0.669319040552061 -0.401875909002092 -0.624906213537847
201 0.499666742954343 -0.466677320414909 -0.729757099722750
202 0.581024273487251 -0.291783261575753 -0.759785049788970
203 -0.759785049788970 0.581024273487251 0.291783261575753
204 -0.729757099722750 0.499666742954343 0.466677320414909
205 -0.669319040552061 0.401875909002092 0.624906213537847
206 -0.581024273487251 0.291783261575753 0.759785049788970
207 -0.624906213537847 0.669319040552061 0.401875909002092
208 -0.577350269189626 0.577350269189626 0.577350269189626
209 -0.499666742954343 0.466677320414909 0.729757099722750
210 -0.466677320414909 0.729757099722750 0.499666742954343
211 -0.401875909002092 0.624906213537847 0.669319040552061
212 -0.291783261575753 0.759785049788970 0.581024273487251
213 -0.759785049788970 0.581024273487251 -0.291783261575753
214 -0.624906213537848 0.669319040552062 -0.401875909002092
215 -0.466677320414909 0.729757099722750 -0.499666742954343
216 -0.291783261575753 0.759785049788970 -0.581024273487251
217 -0.729757099722750 0.499666742954343 -0.466677320414909
218 -0.577350269189626 0.577350269189626 -0.577350269189626
219 -0.401875909002092 0.624906213537847 -0.669319040552061
220 -0.669319040552061 0.401875909002092 -0.624906213537847
221 -0.499666742954343 0.466677320414909 -0.729757099722750
222 -0.581024273487251 0.291783261575753 -0.759785049788970
223 -0.759785049788970 -0.581024273487251 0.291783261575753
224 -0.624906213537848 -0.669319040552062 0.401875909002092
225 -0.466677320414909 -0.729757099722750 0.499666742954343
226 -0.291783261575753 -0.759785049788970 0.581024273487251
227 -0.729757099722750 -0.499666742954343 0.466677320414909
228 -0.577350269189626 -0.577350269189626 0.577350269189626
229 -0.401875909002092 -0.624906213537847 0.669319040552061
230 -0.669319040552061 -0.401875909002092 0.624906213537847
231 -0.499666742954343 -0.466677320414909 0.729757099722750
232 -0.581024273487251 -0.291783261575753 0.759785049788970
233 -0.759785049788970 -0.581024273487251 -0.291783261575753
234 -0.729757099722750 -0.499666742954343 -0.466677320414909
235 -0.669319040552061 -0.401875909002092 -0.624906213537847
236 -0.581024273487251 -0.291783261575753 -0.759785049788970
237 -0.624906213537847 -0.669319040552061 -0.401875909002092
238 -0.577350269189626 -0.577350269189626 -0.577350269189626
239 -0.499666742954343 -0.466677320414909 -0.729757099722750
240 -0.466677320414909 -0.729757099722750 -0.499666742954343
241 -0.401875909002092 -0.624906213537847 -0.669319040552061
242 -0.291783261575753 -0.759785049788970 -0.581024273487251
243 0.648333761215334 0.761356246489368 0.000000000000000
244 0.511452750330894 0.852890600162298 -0.104850886184902
245 0.353223857207955 0.913328659332986 -0.202641720137153
246 0.180331973002117 0.940117022791087 -0.289241011911498
247 0.511452750330894 0.852890600162298 0.104850886184902
248 0.356822089773090 0.934172358962716 0.000000000000000
249 0.183571559610236 0.978130070745803 -0.097790833952251
250 0.353223857207955 0.913328659332986 0.202641720137153
251 0.183571559610236 0.978130070745803 0.097790833952251
252 0.180331973002116 0.940117022791087 0.289241011911498
253 -0.648333761215334 0.761356246489368 0.000000000000000
254 -0.511452750330894 0.852890600162298 0.104850886184902
255 -0.353223857207955 0.913328659332986 0.202641720137153
256 -0.180331973002117 0.940117022791087 0.289241011911498
257 -0.511452750330894 0.852890600162298 -0.104850886184902
258 -0.356822089773090 0.934172358962716 0.000000000000000
259 -0.183571559610236 0.978130070745803 0.097790833952251
260 -0.353223857207955 0.913328659332986 -0.202641720137153
261 -0.183571559610236 0.978130070745803 -0.097790833952251
262 -0.180331973002116 0.940117022791087 -0.289241011911498
263 0.648333761215334 -0.761356246489368 0.000000000000000
264 0.511452750330894 -0.852890600162298 0.104850886184902
265 0.353223857207955 -0.913328659332986 0.202641720137153
266 0.180331973002117 -0.940117022791087 0.289241011911498
267 0.511452750330894 -0.852890600162298 -0.104850886184902
268 0.356822089773090 -0.934172358962716 0.000000000000000
269 0.183571559610236 -0.978130070745803 0.097790833952251
270 0.353223857207955 -0.913328659332986 -0.202641720137153
271 0.183571559610236 -0.978130070745803 -0.097790833952251
272 0.180331973002116 -0.940117022791087 -0.289241011911498
273 -0.648333761215334 -0.761356246489368 0.000000000000000
274 -0.511452750330894 -0.852890600162298 0.104850886184902
275 -0.353223857207955 -0.913328659332986 0.202641720137153
276 -0.180331973002117 -0.940117022791087 0.289241011911498
277 -0.511452750330894 -0.852890600162298 -0.104850886184902
278 -0.356822089773090 -0.934172358962716 0.000000000000000
279 -0.183571559610236 -0.978130070745803 0.097790833952251
280 -0.353223857207955 -0.913328659332986 -0.202641720137153
281 -0.183571559610236 -0.978130070745803 -0.097790833952251
282 -0.180331973002116 -0.940117022791087 -0.289241011911498
283 0.761356246489368 0.000000000000000 0.648333761215334
284 0.852890600162298 -0.104850886184902 0.511452750330894
285 0.913328659332986 -0.202641720137153 0.353223857207955
286 0.940117022791087 -0.289241011911498 0.180331973002117
287 0.852890600162298 0.104850886184902 0.511452750330894
288 0.934172358962716 0.000000000000000 0.356822089773090
289 0.978130070745803 -0.097790833952251 0.183571559610236
290 0.913328659332986 0.202641720137153 0.353223857207955
291 0.978130070745803 0.097790833952251 0.183571559610236
292 0.940117022791087 0.289241011911498 0.180331973002116
293 0.761356246489368 0.000000000000000 -0.648333761215334
294 0.852890600162298 0.104850886184902 -0.511452750330894
295 0.913328659332986 0.202641720137153 -0.353223857207955
296 0.940117022791087 0.289241011911498 -0.180331973002117
297 0.852890600162298 -0.104850886184902 -0.511452750330894
298 0.934172358962716 0.000000000000000 -0.356822089773090
299 0.978130070745803 0.097790833952251 -0.183571559610236
300 0.913328659332986 -0.202641720137153 -0.353223857207955
301 0.978130070745803 -0.097790833952251 -0.183571559610236
302 0.940117022791087 -0.289241011911498 -0.180331973002116
303 -0.761356246489368 0.000000000000000 0.648333761215334
304 -0.852890600162298 0.104850886184902 0.511452750330894
305 -0.913328659332986 0.202641720137153 0.353223857207955
306 -0.940117022791087 0.289241011911498 0.180331973002117
307 -0.852890600162298 -0.104850886184902 0.511452750330894
308 -0.934172358962716 0.000000000000000 0.356822089773090
309 -0.978130070745803 0.097790833952251 0.183571559610236
310 -0.913328659332986 -0.202641720137153 0.353223857207955
311 -0.978130070745803 -0.097790833952251 0.183571559610236
312 -0.940117022791087 -0.289241011911498 0.180331973002116
313 -0.761356246489368 0.000000000000000 -0.648333761215334
314 -0.852890600162298 -0.104850886184902 -0.511452750330894
315 -0.913328659332986 -0.202641720137153 -0.353223857207955
316 -0.940117022791087 -0.289241011911498 -0.180331973002117
317 -0.852890600162298 0.104850886184902 -0.511452750330894
318 -0.934172358962716 0.000000000000000 -0.356822089773090
319 -0.978130070745803 -0.097790833952251 -0.183571559610236
320 -0.913328659332986 0.202641720137153 -0.353223857207955
321 -0.978130070745803 0.097790833952251 -0.183571559610236
322 -0.940117022791087 0.289241011911498 -0.180331973002116
323 0.000000000000000 0.648333761215334 0.761356246489368
324 -0.104850886184902 0.511452750330894 0.852890600162298
325 -0.202641720137153 0.353223857207955 0.913328659332986
326 -0.289241011911498 0.180331973002117 0.940117022791087
327 0.104850886184902 0.511452750330894 0.852890600162298
328 0.000000000000000 0.356822089773090 0.934172358962716
329 -0.097790833952251 0.183571559610236 0.978130070745803
330 0.202641720137153 0.353223857207955 0.913328659332986
331 0.097790833952251 0.183571559610236 0.978130070745803
332 0.289241011911498 0.180331973002116 0.940117022791087
333 0.000000000000000 -0.648333761215334 0.761356246489368
334 0.104850886184902 -0.511452750330894 0.852890600162298
335 0.202641720137153 -0.353223857207955 0.913328659332986
336 0.289241011911498 -0.180331973002117 0.940117022791087
337 -0.104850886184902 -0.511452750330894 0.852890600162298
338 0.000000000000000 -0.356822089773090 0.934172358962716
339 0.097790833952251 -0.183571559610236 0.978130070745803
340 -0.202641720137153 -0.353223857207955 0.913328659332986
341 -0.097790833952251 -0.183571559610236 0.978130070745803
342 -0.289241011911498 -0.180331973002116 0.940117022791087
343 0.000000000000000 0.648333761215334 -0.761356246489368
344 0.104850886184902 0.511452750330894 -0.852890600162298
345 0.202641720137153 0.353223857207955 -0.913328659332986
346 0.289241011911498 0.180331973002117 -0.940117022791087
347 -0.104850886184902 0.511452750330894 -0.852890600162298
348 0.000000000000000 0.356822089773090 -0.934172358962716
349 0.097790833952251 0.183571559610236 -0.978130070745803
350 -0.202641720137153 0.353223857207955 -0.913328659332986
351 -0.097790833952251 0.183571559610236 -0.978130070745803
352 -0.289241011911498 0.180331973002116 -0.940117022791087
353 0.000000000000000 -0.648333761215334 -0.761356246489368
354 -0.104850886184902 -0.511452750330894 -0.852890600162298
355 -0.202641720137153 -0.353223857207955 -0.913328659332986
356 -0.289241011911498 -0.180331973002117 -0.940117022791087
357 0.104850886184902 -0.511452750330894 -0.852890600162298
358 0.000000000000000 -0.356822089773090 -0.934172358962716
359 -0.097790833952251 -0.183571559610236 -0.978130070745803
360 0.202641720137153 -0.353223857207955 -0.913328659332986
361 0.097790833952251 -0.183571559610236 -0.978130070745803
362 0.289241011911498 -0.180331973002116 -0.940117022791087
$EndNodes
$Elements
720
1 2 3 0 1 0 1 13 18
2 2 3 0 1 0 13 14 163
3 2 3 0 1 0 14 15 164
4 2 3 0 1 0 15 16 165
5 2 3 0 1 0 16 17 166
6 2 3 0 1 0 17 9 27
7 2 3 0 1 0 18 163 19
8 2 3 0 1 0 163 164 167
9 2 3 0 1 0 164 165 168
10 2 3 0 1 0 165 166 169
11 2 3 0 1 0 166 27 26
12 2 3 0 1 0 19 167 20
13 2 3 0 1 0 167 168 170
14 2 3 0 1 0 168 169 171
15 2 3 0 1 0 169 26 25
16 2 3 0 1 0 20 170 21
17 2 3 0 1 0 170 171 172
18 2 3 0 1 0 171 25 24
19 2 3 0 1 0 21 172 22
20 2 3 0 1 0 172 24 23
21 2 3 0 1 0 22 23 5
22 2 3 0 1 0 18 13 163
23 2 3 0 1 0 163 14 164
24 2 3 0 1 0 164 15 165
25 2 3 0 1 0 165 16 166
26 2 3 0 1 0 166 17 27
27 2 3 0 1 0 19 163 167
28 2 3 0 1 0 167 164 168
29 2 3 0 1 0 168 165 169
30 2 3 0 1 0 169 166 26
31 2 3 0 1 0 20 167 170
32 2 3 0 1 0 170 168 171
33 2 3 0 1 0 171 169 25
34 2 3 0 1 0 21 170 172
35 2 3 0 1 0 172 171 24
36 2 3 0 1 0 22 172 23
37 2 3 0 1 0 1 28 33
38 2 3 0 1 0 28 29 173
39 2 3 0 1 0 29 30 174
40 2 3 0 1 0 30 31 175
41 2 3 0 1 0 31 32 176
42 2 3 0 1 0 32 6 38
43 2 3 0 1 0 33 173 34
44 2 3 0 1 0 173 174 177
45 2 3 0 1 0 174 175 178
46 2 3 0 1 0 175 176 179
47 2 3 0 1 0 176 38 39
48 2 3 0 1 0 34 177 35
49 2 3 0 1 0 177 178 180
50 2 3 0 1 0 178 179 181
51 2 3 0 1 0 179 39 40
52 2 3 0 1 0 35 180 36
53 2 3 0 1 0 180 181 182
54 2 3 0 1 0 181 40 41
55 2 3 0 1 0 36 182 37
56 2 3 0 1 0 182 41 42
57 2 3 0 1 0 37 42 11
58 2 3 0 1 0 33 28 173
59 2 3 0 1 0 173 29 174
60 2 3 0 1 0 174 30 175
61 2 3 0 1 0 175 31 176
62 2 3 0 1 0 176 32 38
63 2 3 0 1 0 34 173 177
64 2 3 0 1 0 177 174 178
65 2 3 0 1 0 178 175 179
66 2 3 0 1 0 179 176 39
67 2 3 0 1 0 35 177 180
68 2 3 0 1 0 180 178 181
69 2 3 0 1 0 181 179 40
70 2 3 0 1 0 36 180 182
71 2 3 0 1 0 182 181 41
72 2 3 0 1 0 37 182 42
73 2 3 0 1 0 3 43 48
74 2 3 0 1 0 43 44 183
75 2 3 0 1 0 44 45 184
76 2 3 0 1 0 45 46 185
77 2 3 0 1 0 46 47 186
78 2 3 0 1 0 47 5 53
79 2 3 0 1 0 48 183 49
80 2 3 0 1 0 183 184 187
81 2 3 0 1 0 184 185 188
82 2 3 0 1 0 185 186 189
83 2 3 0 1 0 186 53 54
84 2 3 0 1 0 49 187 50
85 2 3 0 1 0 187 188 190
86 2 3 0 1 0 188 189 191
87 2 3 0 1 0 189 54 55
88 2 3 0 1 0 50 190 51
89 2 3 0 1 0 190 191 192
90 2 3 0 1 0 191 55 56
91 2 3 0 1 0 51 192 52
92 2 3 0 1 0 192 56 57
93 2 3 0 1 0 52 57 10
94 2 3 0 1 0 48 43 183
95 2 3 0 1 0 183 44 184
96 2 3 0 1 0 184 45 185
97 2 3 0 1 0 185 46 186
98 2 3 0 1 0 186 47 53
99 2 3 0 1 0 49 183 187
100 2 3 0 1 0 187 184 188
101 2 3 0 1 0 188 185 189
102 2 3 0 1 0 189 186 54
103 2 3 0 1 0 50 187 190
104 2 3 0 1 0 190 188 191
105 2 3 0 1 0 191 189 55
106 2 3 0 1 0 51 190 192
107 2 3 0 1 0 192 191 56
108 2 3 0 1 0 52 192 57
109 2 3 0 1 0 3 58 63
110 2 3 0 1 0 58 59 193
111 2 3 0 1 0 59 60 194
112 2 3 0 1 0 60 61 195
113 2 3 0 1 0 61 62 196
114 2 3 0 1 0 62 12 72
115 2 3 0 1 0 63 193 64
116 2 3 0 1 0 193 194 197
117 2 3 0 1 0 194 195 198
118 2 3 0 1 0 195 196 199
119 2 3 0 1 0 196 72 71
120 2 3 0 1 0 64 197 65
121 2 3 0 1 0 197 198 200
122 2 3 0 1 0 198 199 201
123 2 3 0 1 0 199 71 70
124 2 3 0 1 0 65 200 66
125 2 3 0 1 0 200 201 202
126 2 3 0 1 0 201 70 69
127 2 3 0 1 0 66 202 67
128 2 3 0 1 0 202 69 68
129 2 3 0 1 0 67 68 6
130 2 3 0 1 0 63 58 193
131 2 3 0 1 0 193 59 194
132 2 3 0 1 0 194 60 195
133 2 3 0 1 0 195 61 196
134 2 3 0 1 0 196 62 72
135 2 3 0 1 0 64 193 197
136 2 3 0 1 0 197 194 198
137 2 3 0 1 0 198 195 199
138 2 3 0 1 0 199 196 71
139 2 3 0 1 0 65 197 200
140 2 3 0 1 0 200 198 201
141 2 3 0 1 0 201 199 70
142 2 3 0 1 0 66 200 202
143 2 3 0 1 0 202 201 69
144 2 3 0 1 0 67 202 68
145 2 3 0 1 0 2 73 78
146 2 3 0 1 0 73 74 203
147 2 3 0 1 0 74 75 204
148 2 3 0 1 0 75 76 205
149 2 3 0 1 0 76 77 206
150 2 3 0 1 0 77 7 83
151 2 3 0 1 0 78 203 79
152 2 3 0 1 0 203 204 207
153 2 3 0 1 0 204 205 208
154 2 3 0 1 0 205 206 209
155 2 3 0 1 0 206 83 84
156 2 3 0 1 0 79 207 80
157 2 3 0 1 0 207 208 210
158 2 3 0 1 0 208 209 211
159 2 3 0 1 0 209 84 85
160 2 3 0 1 0 80 210 81
161 2 3 0 1 0 210 211 212
162 2 3 0 1 0 211 85 86
163 2 3 0 1 0 81 212 82
164 2 3 0 1 0 212 86 87
165 2 3 0 1 0 82 87 9
166 2 3 0 1 0 78 73 203
167 2 3 0 1 0 203 74 204
168 2 3 0 1 0 204 75 205
169 2 3 0 1 0 205 76 206
170 2 3 0 1 0 206 77 83
171 2 3 0 1 0 79 203 207
172 2 3 0 1 0 207 204 208
173 2 3 0 1 0 208 205 209
174 2 3 0 1 0 209 206 84
175 2 3 0 1 0 80 207 210
176 2 3 0 1 0 210 208 211
177 2 3 0 1 0 211 209 85
178 2 3 0 1 0 81 210 212
179 2 3 0 1 0 212 211 86
180 2 3 0 1 0 82 212 87
181 2 3 0 1 0 2 88 93
182 2 3 0 1 0 88 89 213
183 2 3 0 1 0 89 90 214
184 2 3 0 1 0 90 91 215
185 2 3 0 1 0 91 92 216
186 2 3 0 1 0 92 11 102
187 2 3 0 1 0 93 213 94
188 2 3 0 1 0 213 214 217
189 2 3 0 1 0 214 215 218
190 2 3 0 1 0 215 216 219
191 2 3 0 1 0 216 102 101
192 2 3 0 1 0 94 217 95
193 2 3 0 1 0 217 218 220
194 2 3 0 1 0 218 219 221
195 2 3 0 1 0 219 101 100
196 2 3 0 1 0 95 220 96
197 2 3 0 1 0 220 221 222
198 2 3 0 1 0 221 100 99
199 2 3 0 1 0 96 222 97
200 2 3 0 1 0 222 99 98
201 2 3 0 1 0 97 98 8
202 2 3 0 1 0 93 88 213
203 2 3 0 1 0 213 89 214
204 2 3 0 1 0 214 90 215
205 2 3 0 1 0 215 91 216
206 2 3 0 1 0 216 92 102
207 2 3 0 1 0 94 213 217
208 2 3 0 1 0 217 214 218
209 2 3 0 1 0 218 215 219
210 2 3 0 1 0 219 216 101
211 2 3 0 1 0 95 217 220
212 2 3 0 1 0 220 218 221
213 2 3 0 1 0 221 219 100
214 2 3 0 1 0 96 220 222
215 2 3 0 1 0 222 221 99
216 2 3 0 1 0 97 222 98
217 2 3 0 1 0 4 103 108
218 2 3 0 1 0 103 104 223
219 2 3 0 1 0 104 105 224
220 2 3 0 1 0 105 106 225
221 2 3 0 1 0 106 107 226
222 2 3 0 1 0 107 10 117
223 2 3 0 1 0 108 223 109
224 2 3 0 1 0 223 224 227
225 2 3 0 1 0 224 225 228
226 2 3 0 1 0 225 226 229
227 2 3 0 1 0 226 117 116
228 2 3 0 1 0 109 227 110
229 2 3 0 1 0 227 228 230
230 2 3 0 1 0 228 229 231
231 2 3 0 1 0 229 116 115
232 2 3 0 1 0 110 230 111
233 2 3 0 1 0 230 231 232
234 2 3 0 1 0 231 115 114
235 2 3 0 1 0 111 232 112
236 2 3 0 1 0 232 114 113
237 2 3 0 1 0 112 113 7
238 2 3 0 1 0 108 103 223
239 2 3 0 1 0 223 104 224
240 2 3 0 1 0 224 105 225
241 2 3 0 1 0 225 106 226
242 2 3 0 1 0 226 107 117
243 2 3 0 1 0 109 223 227
244 2 3 0 1 0 227 224 228
245 2 3 0 1 0 228 225 229
246 2 3 0 1 0 229 226 116
247 2 3 0 1 0 110 227 230
248 2 3 0 1 0 230 228 231
249 2 3 0 1 0 231 229 115
250 2 3 0 1 0 111 230 232
251 2 3 0 1 0 232 231 114
252 2 3 0 1 0 112 232 113
253 2 3 0 1 0 4 118 123
254 2 3 0 1 0 118 119 233
255 2 3 0 1 0 119 120 234
256 2 3 0 1 0 120 121 235
257 2 3 0 1 0 121 122 236
258 2 3 0 1 0 122 8 128
259 2 3 0 1 0 123 233 124
260 2 3 0 1 0 233 234 237
261 2 3 0 1 0 234 235 238
262 2 3 0 1 0 235 236 239
263 2 3 0 1 0 236 128 129
264 2 3 0 1 0 124 237 125
265 2 3 0 1 0 237 238 240
266 2 3 0 1 0 238 239 241
267 2 3 0 1 0 239 129 130
268 2 3 0 1 0 125 240 126
269 2 3 0 1 0 240 241 242
270 2 3 0 1 0 241 130 131
271 2 3 0 1 0 126 242 127
272 2 3 0 1 0 242 131 132
273 2 3 0 1 0 127 132 12
274 2 3 0 1 0 123 118 233
275 2 3 0 1 0 233 119 234
276 2 3 0 1 0 234 120 235
277 2 3 0 1 0 235 121 236
278 2 3 0 1 0 236 122 128
279 2 3 0 1 0 124 233 237
280 2 3 0 1 0 237 234 238
281 2 3 0 1 0 238 235 239
282 2 3 0 1 0 239 236 129
283 2 3 0 1 0 125 237 240
284 2 3 0 1 0 240 238 241
285 2 3 0 1 0 241 239 130
286 2 3 0 1 0 126 240 242
287 2 3 0 1 0 242 241 131
288 2 3 0 1 0 127 242 132
289 2 3 0 1 0 1 33 13
290 2 3 0 1 0 33 34 243
291 2 3 0 1 0 34 35 244
292 2 3 0 1 0 35 36 245
293 2 3 0 1 0 36 37 246
294 2 3 0 1 0 37 11 137
295 2 3 0 1 0 13 243 14
296 2 3 0 1 0 243 244 247
297 2 3 0 1 0 244 245 248
298 2 3 0 1 0 245 246 249
299 2 3 0 1 0 246 137 136
300 2 3 0 1 0 14 247 15
301 2 3 0 1 0 247 248 250
302 2 3 0 1 0 248 249 251
303 2 3 0 1 0 249 136 135
304 2 3 0 1 0 15 250 16
305 2 3 0 1 0 250 251 252
306 2 3 0 1 0 251 135 134
307 2 3 0 1 0 16 252 17
308 2 3 0 1 0 252 134 133
309 2 3 0 1 0 17 133 9
310 2 3 0 1 0 13 33 243
311 2 3 0 1 0 243 34 244
312 2 3 0 1 0 244 35 245
313 2 3 0 1 0 245 36 246
314 2 3 0 1 0 246 37 137
315 2 3 0 1 0 14 243 247
316 2 3 0 1 0 247 244 248
317 2 3 0 1 0 248 245 249
318 2 3 0 1 0 249 246 136
319 2 3 0 1 0 15 247 250
320 2 3 0 1 0 250 248 251
321 2 3 0 1 0 251 249 135
322 2 3 0 1 0 16 250 252
323 2 3 0 1 0 252 251 134
324 2 3 0 1 0 17 252 133
325 2 3 0 1 0 2 78 88
326 2 3 0 1 0 78 79 253
327 2 3 0 1 0 79 80 254
328 2 3 0 1 0 80 81 255
329 2 3 0 1 0 81 82 256
330 2 3 0 1 0 82 9 133
331 2 3 0 1 0 88 253 89
332 2 3 0 1 0 253 254 257
333 2 3 0 1 0 254 255 258
334 2 3 0 1 0 255 256 259
335 2 3 0 1 0 256 133 134
336 2 3 0 1 0 89 257 90
337 2 3 0 1 0 257 258 260
338 2 3 0 1 0 258 259 261
339 2 3 0 1 0 259 134 135
340 2 3 0 1 0 90 260 91
341 2 3 0 1 0 260 261 262
342 2 3 0 1 0 261 135 136
343 2 3 0 1 0 91 262 92
344 2 3 0 1 0 262 136 137
345 2 3 0 1 0 92 137 11
346 2 3 0 1 0 88 78 253
347 2 3 0 1 0 253 79 254
348 2 3 0 1 0 254 80 255
349 2 3 0 1 0 255 81 256
350 2 3 0 1 0 256 82 133
351 2 3 0 1 0 89 253 257
352 2 3 0 1 0 257 254 258
353 2 3 0 1 0 258 255 259
354 2 3 0 1 0 259 256 134
355 2 3 0 1 0 90 257 260
356 2 3 0 1 0 260 258 261
357 2 3 0 1 0 261 259 135
358 2 3 0 1 0 91 260 262
359 2 3 0 1 0 262 261 136
360 2 3 0 1 0 92 262 137
361 2 3 0 1 0 3 48 58
362 2 3 0 1 0 48 49 263
363 2 3 0 1 0 49 50 264
364 2 3 0 1 0 50 51 265
365 2 3 0 1 0 51 52 266
366 2 3 0 1 0 52 10 138
367 2 3 0 1 0 58 263 59
368 2 3 0 1 0 263 264 267
369 2 3 0 1 0 264 265 268
370 2 3 0 1 0 265 266 269
371 2 3 0 1 0 266 138 139
372 2 3 0 1 0 59 267 60
373 2 3 0 1 0 267 268 270
374 2 3 0 1 0 268 269 271
375 2 3 0 1 0 269 139 140
376 2 3 0 1 0 60 270 61
377 2 3 0 1 0 270 271 272
378 2 3 0 1 0 271 140 141
379 2 3 0 1 0 61 272 62
380 2 3 0 1 0 272 141 142
381 2 3 0 1 0 62 142 12
382 2 3 0 1 0 58 48 263
383 2 3 0 1 0 263 49 264
384 2 3 0 1 0 264 50 265
385 2 3 0 1 0 265 51 266
386 2 3 0 1 0 266 52 138
387 2 3 0 1 0 59 263 267
388 2 3 0 1 0 267 264 268
389 2 3 0 1 0 268 265 269
390 2 3 0 1 0 269 266 139
391 2 3 0 1 0 60 267 270
392 2 3 0 1 0 270 268 271
393 2 3 0 1 0 271 269 140
394 2 3 0 1 0 61 270 272
395 2 3 0 1 0 272 271 141
396 2 3 0 1 0 62 272 142
397 2 3 0 1 0 4 103 123
398 2 3 0 1 0 103 104 273
399 2 3 0 1 0 104 105 274
400 2 3 0 1 0 105 106 275
401 2 3 0 1 0 106 107 276
402 2 3 0 1 0 107 10 138
403 2 3 0 1 0 123 273 124
404 2 3 0 1 0 273 274 277
405 2 3 0 1 0 274 275 278
406 2 3 0 1 0 275 276 279
407 2 3 0 1 0 276 138 139
408 2 3 0 1 0 124 277 125
409 2 3 0 1 0 277 278 280
410 2 3 0 1 0 278 279 281
411 2 3 0 1 0 279 139 140
412 2 3 0 1 0 125 280 126
413 2 3 0 1 0 280 281 282
414 2 3 0 1 0 281 140 141
415 2 3 0 1 0 126 282 127
416 2 3 0 1 0 282 141 142
417 2 3 0 1 0 127 142 12
418 2 3 0 1 0 123 103 273
419 2 3 0 1 0 273 104 274
420 2 3 0 1 0 274 105 275
421 2 3 0 1 0 275 106 276
422 2 3 0 1 0 276 107 138
423 2 3 0 1 0 124 273 277
424 2 3 0 1 0 277 274 278
425 2 3 0 1 0 278 275 279
426 2 3 0 1 0 279 276 139
427 2 3 0 1 0 125 277 280
428 2 3 0 1 0 280 278 281
429 2 3 0 1 0 281 279 140
430 2 3 0 1 0 126 280 282
431 2 3 0 1 0 282 281 141
432 2 3 0 1 0 127 282 142
433 2 3 0 1 0 5 47 22
434 2 3 0 1 0 47 46 283
435 2 3 0 1 0 46 45 284
436 2 3 0 1 0 45 44 285
437 2 3 0 1 0 44 43 286
438 2 3 0 1 0 43 3 147
439 2 3 0 1 0 22 283 21
440 2 3 0 1 0 283 284 287
441 2 3 0 1 0 284 285 288
442 2 3 0 1 0 285 286 289
443 2 3 0 1 0 286 147 146
444 2 3 0 1 0 21 287 20
445 2 3 0 1 0 287 288 290
446 2 3 0 1 0 288 289 291
447 2 3 0 1 0 289 146 145
448 2 3 0 1 0 20 290 19
449 2 3 0 1 0 290 291 292
450 2 3 0 1 0 291 145 144
451 2 3 0 1 0 19 292 18
452 2 3 0 1 0 292 144 143
453 2 3 0 1 0 18 143 1
454 2 3 0 1 0 22 47 283
455 2 3 0 1 0 283 46 284
456 2 3 0 1 0 284 45 285
457 2 3 0 1 0 285 44 286
458 2 3 0 1 0 286 43 147
459 2 3 0 1 0 21 283 287
460 2 3 0 1 0 287 284 288
461 2 3 0 1 0 288 285 289
462 2 3 0 1 0 289 286 146
463 2 3 0 1 0 20 287 290
464 2 3 0 1 0 290 288 291
465 2 3 0 1 0 291 289 145
466 2 3 0 1 0 19 290 292
467 2 3 0 1 0 292 291 144
468 2 3 0 1 0 18 292 143
469 2 3 0 1 0 6 32 67
470 2 3 0 1 0 32 31 293
471 2 3 0 1 0 31 30 294
472 2 3 0 1 0 30 29 295
473 2 3 0 1 0 29 28 296
474 2 3 0 1 0 28 1 143
475 2 3 0 1 0 67 293 66
476 2 3 0 1 0 293 294 297
477 2 3 0 1 0 294 295 298
478 2 3 0 1 0 295 296 299
479 2 3 0 1 0 296 143 144
480 2 3 0 1 0 66 297 65
481 2 3 0 1 0 297 298 300
482 2 3 0 1 0 298 299 301
483 2 3 0 1 0 299 144 145
484 2 3 0 1 0 65 300 64
485 2 3 0 1 0 300 301 302
486 2 3 0 1 0 301 145 146
487 2 3 0 1 0 64 302 63
488 2 3 0 1 0 302 146 147
489 2 3 0 1 0 63 147 3
490 2 3 0 1 0 67 32 293
491 2 3 0 1 0 293 31 294
492 2 3 0 1 0 294 30 295
493 2 3 0 1 0 295 29 296
494 2 3 0 1 0 296 28 143
495 2 3 0 1 0 66 293 297
496 2 3 0 1 0 297 294 298
497 2 3 0 1 0 298 295 299
498 2 3 0 1 0 299 296 144
499 2 3 0 1 0 65 297 300
500 2 3 0 1 0 300 298 301
501 2 3 0 1 0 301 299 145
502 2 3 0 1 0 64 300 302
503 2 3 0 1 0 302 301 146
504 2 3 0 1 0 63 302 147
505 2 3 0 1 0 7 77 112
506 2 3 0 1 0 77 76 303
507 2 3 0 1 0 76 75 304
508 2 3 0 1 0 75 74 305
509 2 3 0 1 0 74 73 306
510 2 3 0 1 0 73 2 148
511 2 3 0 1 0 112 303 111
512 2 3 0 1 0 303 304 307
513 2 3 0 1 0 304 305 308
514 2 3 0 1 0 305 306 309
515 2 3 0 1 0 306 148 149
516 2 3 0 1 0 111 307 110
517 2 3 0 1 0 307 308 310
518 2 3 0 1 0 308 309 311
519 2 3 0 1 0 309 149 150
520 2 3 0 1 0 110 310 109
521 2 3 0 1 0 310 311 312
522 2 3 0 1 0 311 150 151
523 2 3 0 1 0 109 312 108
524 2 3 0 1 0 312 151 152
525 2 3 0 1 0 108 152 4
526 2 3 0 1 0 112 77 303
527 2 3 0 1 0 303 76 304
528 2 3 0 1 0 304 75 305
529 2 3 0 1 0 305 74 306
530 2 3 0 1 0 306 73 148
531 2 3 0 1 0 111 303 307
532 2 3 0 1 0 307 304 308
533 2 3 0 1 0 308 305 309
534 2 3 0 1 0 309 306 149
535 2 3 0 1 0 110 307 310
536 2 3 0 1 0 310 308 311
537 2 3 0 1 0 311 309 150
538 2 3 0 1 0 109 310 312
539 2 3 0 1 0 312 311 151
540 2 3 0 1 0 108 312 152
541 2 3 0 1 0 8 122 97
542 2 3 0 1 0 122 121 313
543 2 3 0 1 0 121 120 314
544 2 3 0 1 0 120 119 315
545 2 3 0 1 0 119 118 316
546 2 3 0 1 0 118 4 152
547 2 3 0 1 0 97 313 96
548 2 3 0 1 0 313 314 317
549 2 3 0 1 0 314 315 318
550 2 3 0 1 0 315 316 319
551 2 3 0 1 0 316 152 151
552 2 3 0 1 0 96 317 95
553 2 3 0 1 0 317 318 320
554 2 3 0 1 0 318 319 321
555 2 3 0 1 0 319 151 150
556 2 3 0 1 0 95 320 94
557 2 3 0 1 0 320 321 322
558 2 3 0 1 0 321 150 149
559 2 3 0 1 0 94 322 93
560 2 3 0 1 0 322 149 148
561 2 3 0 1 0 93 148 2
562 2 3 0 1 0 97 122 313
563 2 3 0 1 0 313 121 314
564 2 3 0 1 0 314 120 315
565 2 3 0 1 0 315 119 316
566 2 3 0 1 0 316 118 152
567 2 3 0 1 0 96 313 317
568 2 3 0 1 0 317 314 318
569 2 3 0 1 0 318 315 319
570 2 3 0 1 0 319 316 151
571 2 3 0 1 0 95 317 320
572 2 3 0 1 0 320 318 321
573 2 3 0 1 0 321 319 150
574 2 3 0 1 0 94 320 322
575 2 3 0 1 0 322 321 149
576 2 3 0 1 0 93 322 148
577 2 3 0 1 0 9 87 27
578 2 3 0 1 0 87 86 323
579 2 3 0 1 0 86 85 324
580 2 3 0 1 0 85 84 325
581 2 3 0 1 0 84 83 326
582 2 3 0 1 0 83 7 157
583 2 3 0 1 0 27 323 26
584 2 3 0 1 0 323 324 327
585 2 3 0 1 0 324 325 328
586 2 3 0 1 0 325 326 329
587 2 3 0 1 0 326 157 156
588 2 3 0 1 0 26 327 25
589 2 3 0 1 0 327 328 330
590 2 3 0 1 0 328 329 331
591 2 3 0 1 0 329 156 155
592 2 3 0 1 0 25 330 24
593 2 3 0 1 0 330 331 332
594 2 3 0 1 0 331 155 154
595 2 3 0 1 0 24 332 23
596 2 3 0 1 0 332 154 153
597 2 3 0 1 0 23 153 5
598 2 3 0 1 0 27 87 323
599 2 3 0 1 0 323 86 324
600 2 3 0 1 0 324 85 325
601 2 3 0 1 0 325 84 326
602 2 3 0 1 0 326 83 157
603 2 3 0 1 0 26 323 327
604 2 3 0 1 0 327 324 328
605 2 3 0 1 0 328 325 329
606 2 3 0 1 0 329 326 156
607 2 3 0 1 0 25 327 330
608 2 3 0 1 0 330 328 331
609 2 3 0 1 0 331 329 155
610 2 3 0 1 0 24 330 332
611 2 3 0 1 0 332 331 154
612 2 3 0 1 0 23 332 153
613 2 3 0 1 0 10 57 117
614 2 3 0 1 0 57 56 333
615 2 3 0 1 0 56 55 334
616 2 3 0 1 0 55 54 335
617 2 3 0 1 0 54 53 336
618 2 3 0 1 0 53 5 153
619 2 3 0 1 0 117 333 116
620 2 3 0 1 0 333 334 337
621 2 3 0 1 0 334 335 338
622 2 3 0 1 0 335 336 339
623 2 3 0 1 0 336 153 154
624 2 3 0 1 0 116 337 115
625 2 3 0 1 0 337 338 340
626 2 3 0 1 0 338 339 341
627 2 3 0 1 0 339 154 155
628 2 3 0 1 0 115 340 114
629 2 3 0 1 0 340 341 342
630 2 3 0 1 0 341 155 156
631 2 3 0 1 0 114 342 113
632 2 3 0 1 0 342 156 157
633 2 3 0 1 0 113 157 7
634 2 3 0 1 0 117 57 333
635 2 3 0 1 0 333 56 334
636 2 3 0 1 0 334 55 335
637 2 3 0 1 0 335 54 336
638 2 3 0 1 0 336 53 153
639 2 3 0 1 0 116 333 337
640 2 3 0 1 0 337 334 338
641 2 3 0 1 0 338 335 339
642 2 3 0 1 0 339 336 154
643 2 3 0 1 0 115 337 340
644 2 3 0 1 0 340 338 341
645 2 3 0 1 0 341 339 155
646 2 3 0 1 0 114 340 342
647 2 3 0 1 0 342 341 156
648 2 3 0 1 0 113 342 157
649 2 3 0 1 0 11 42 102
650 2 3 0 1 0 42 41 343
651 2 3 0 1 0 41 40 344
652 2 3 0 1 0 40 39 345
653 2 3 0 1 0 39 38 346
654 2 3 0 1 0 38 6 158
655 2 3 0 1 0 102 343 101
656 2 3 0 1 0 343 344 347
657 2 3 0 1 0 344 345 348
658 2 3 0 1 0 345 346 349
659 2 3 0 1 0 346 158 159
660 2 3 0 1 0 101 347 100
661 2 3 0 1 0 347 348 350
662 2 3 0 1 0 348 349 351
663 2 3 0 1 0 349 159 160
664 2 3 0 1 0 100 350 99
665 2 3 0 1 0 350 351 352
666 2 3 0 1 0 351 160 161
667 2 3 0 1 0 99 352 98
668 2 3 0 1 0 352 161 162
669 2 3 0 1 0 98 162 8
670 2 3 0 1 0 102 42 343
671 2 3 0 1 0 343 41 344
672 2 3 0 1 0 344 40 345
673 2 3 0 1 0 345 39 346
674 2 3 0 1 0 346 38 158
675 2 3 0 1 0 101 343 347
676 2 3 0 1 0 347 344 348
677 2 3 0 1 0 348 345 349
678 2 3 0 1 0 349 346 159
679 2 3 0 1 0 100 347 350
680 2 3 0 1 0 350 348 351
681 2 3 0 1 0 351 349 160
682 2 3 0 1 0 99 350 352
683 2 3 0 1 0 352 351 161
684 2 3 0 1 0 98 352 162
685 2 3 0 1 0 12 132 72
686 2 3 0 1 0 132 131 353
687 2 3 0 1 0 131 130 354
688 2 3 0 1 0 130 129 355
689 2 3 0 1 0 129 128 356
690 2 3 0 1 0 128 8 162
691 2 3 0 1 0 72 353 71
692 2 3 0 1 0 353 354 357
693 2 3 0 1 0 354 355 358
694 2 3 0 1 0 355 356 359
695 2 3 0 1 0 356 162 161
696 2 3 0 1 0 71 357 70
697 2 3 0 1 0 357 358 360
698 2 3 0 1 0 358 359 361
699 2 3 0 1 0 359 161 160
700 2 3 0 1 0 70 360 69
701 2 3 0 1 0 360 361 362
702 2 3 0 1 0 361 160 159
703 2 3 0 1 0 69 362 68
704 2 3 0 1 0 362 159 158
705 2 3 0 1 0 68 158 6
706 2 3 0 1 0 72 132 353
707 2 3 0 1 0 353 131 354
708 2 3 0 1 0 354 130 355
709 2 3 0 1 0 355 129 356
710 2 3 0 1 0 356 128 162
711 2 3 0 1 0 71 353 357
712 2 3 0 1 0 357 354 358
713 2 3 0 1 0 358 355 359
714 2 3 0 1 0 359 356 161
715 2 3 0 1 0 70 357 360
716 2 3 0 1 0 360 358 361
717 2 3 0 1 0 361 359 160
718 2 3 0 1 0 69 360 362
719 2 3 0 1 0 362 361 159
720 2 3 0 1 0 68 362 158
$EndElements
