&system,syst%box,syst%logfile,&lattice_boltzmann,lb%ncomponents,&relax_homogeneous,relax%homogeneous%tau,&nofluiddynamics,&variable_input,verbose_timestep,n_iteration,n_sci_start,init_cond,inv_fluid_name,fr,&advection_diffusion,Version,cores,processor,Mlups/core,Mlups,syst%seed,&color_gradient,cg%ncomponents,fr1,fb,fg,qr,qb,qg,fr2,pr,pb,pg,bcsel,bdist,dump_format,n_sanity_check,verbose_timestep_interval,post,folder,chkp_dir,init_cond_name,inv_type,n_checkpoint,num_chkp_files,checkpoint_safe,dump_double,&immersed_boundary,ib%geometry_file,ib%meshnumbers,ib%meshfiles,forcing_model,&peng_robinson,pgr%ncomponents,pgr%components,pgr%g,pgr%stabilization_factor,vel_poiseuille_max,drop_xshift,drop_yshift,drop_zshift,perturbation,&shan_chen,
True, 32 32 32, 'LOG',True,1,True, 1.,True,True, .false.,1000,0,-4, INV_NONE,1,True,"NSKG (r0.0.1-479-g3cfc0ecdc (clean working directory), rewrite)",1,AMD EPYC 7662 64-Core Processor ,9.45,9.45,0,False,0,0,0,0,0,0,0,0,0.0,0,0,0,0,False,0,0,False,False,False,False,0,0,0,False,False,False,False,0,False,False,False,0,0,0.0,0.0,0.0,0,0,0,0.0,False,
True, 32 32 32, 'LOG',False,0,True, 1. 1.,False,True, .false.,300,0,1,False,1,False,"NSKG (r0.0.1-479-g3cfc0ecdc (clean working directory), rewrite)",1,AMD EPYC 7662 64-Core Processor ,2.1,2.1,1,True,2,15,0,0,1,0,0,16,0.0,1,1,0,8, hdf,0,0,False,False,False,False,0,0,0,False,False,False,False,0,False,False,False,0,0,0.0,0.0,0.0,0,0,0,0.0,False,
True, 42 42 42, 'LOG',True,1,True, 1.,False,True,False,200,0,0, INV_NONE,0,False,"NSKG (r0.0.1-479-g3cfc0ecdc (clean working directory), rewrite)",1,AMD EPYC 7662 64-Core Processor ,3.20,3.20,0,False,0,0,0,0,0,0,0,0,0.0,0,0,0,0,False,0,10, .true., '.', '.', 'INIT_CONST',-1,0,0, .false., .false.,True, 'geometry.dat',8, 'sph_ico_5120.msh',False,False,0,0,0.0,0.0,0.0,0,0,0,0.0,False,
True, 32 32 32, 'LOG',True,1,True, 1.,False,True, .false.,5000,0,-4,False,0,False,"NSKG (r0.0.1-479-g3cfc0ecdc (clean working directory), rewrite)",1,AMD EPYC 7662 64-Core Processor ,25.31,25.31,1,False,0,0,0,0,0,0,0,0,0.0,0,0,0,8, hdf,0,0,False,False,False,False,0,0,0,False,False,False,False,0,False, 'none',False,0,0,0.0,0.0,0.0,0,0,0,0.0,False,
True, 32 32 32, 'LOG',False,0,True, 1.,False,True, .false.,1000,0,-6,False,1,False,"NSKG (r0.0.1-479-g3cfc0ecdc (clean working directory), rewrite)",1,AMD EPYC 7662 64-Core Processor ,8.99,8.99,0,False,0,15,0,0,1,0,0,16,0.1088,1,10,0,8, hdf,0,0,False,False,False,False,0,0,0,False,False,False,False,0,False, 'shan-chen',True,1,1,-0.1,-0.08,0.05,0,0,0,0.001,False,
True, 32 32 32, 'LOG',False,0,True, 1. 1.,False,True, .false.,300,0,1,False,1,False,"NSKG (r0.0.1-479-g3cfc0ecdc (clean working directory), rewrite)",1,AMD EPYC 7662 64-Core Processor ,3.64,3.64,1,False,0,15,0,0,1,0,0,16,0.0,1,1,0,8, hdf,0,0,False,False,False,False,0,0,0,False,False,False,False,0,False,False,False,0,0,0.0,0.0,0.0,0,0,0,0.0,True,
