$MeshFormat
2 0 8
$EndMeshFormat
$Nodes
162
1 0.850650808352040 0.525731112119134 0.000000000000000
2 -0.850650808352040 0.525731112119134 0.000000000000000
3 0.850650808352040 -0.525731112119134 0.000000000000000
4 -0.850650808352040 -0.525731112119134 0.000000000000000
5 0.525731112119134 0.000000000000000 0.850650808352040
6 0.525731112119134 0.000000000000000 -0.850650808352040
7 -0.525731112119134 0.000000000000000 0.850650808352040
8 -0.525731112119134 0.000000000000000 -0.850650808352040
9 0.000000000000000 0.850650808352040 0.525731112119134
10 0.000000000000000 -0.850650808352040 0.525731112119134
11 0.000000000000000 0.850650808352040 -0.525731112119134
12 0.000000000000000 -0.850650808352040 -0.525731112119134
13 0.702046444776163 0.693780477560449 0.160622035640023
14 0.500000000000000 0.809016994374947 0.309016994374947
15 0.259891913007754 0.862668480416186 0.433888564552695
16 0.862668480416186 0.433888564552695 0.259891913007754
17 0.809016994374947 0.309016994374947 0.500000000000000
18 0.693780477560449 0.160622035640023 0.702046444776163
19 0.433888564552695 0.259891913007754 0.862668480416186
20 0.309016994374947 0.500000000000000 0.809016994374947
21 0.160622035640023 0.702046444776163 0.693780477560449
22 0.862668480416186 0.433888564552695 -0.259891913007754
23 0.809016994374947 0.309016994374947 -0.500000000000000
24 0.693780477560449 0.160622035640023 -0.702046444776163
25 0.702046444776163 0.693780477560449 -0.160622035640023
26 0.500000000000000 0.809016994374947 -0.309016994374947
27 0.259891913007754 0.862668480416186 -0.433888564552695
28 0.433888564552695 0.259891913007754 -0.862668480416186
29 0.309016994374947 0.500000000000000 -0.809016994374947
30 0.160622035640023 0.702046444776163 -0.693780477560449
31 0.862668480416186 -0.433888564552695 0.259891913007754
32 0.809016994374947 -0.309016994374947 0.500000000000000
33 0.693780477560449 -0.160622035640023 0.702046444776163
34 0.702046444776163 -0.693780477560449 0.160622035640023
35 0.500000000000000 -0.809016994374947 0.309016994374947
36 0.259891913007754 -0.862668480416186 0.433888564552695
37 0.433888564552695 -0.259891913007754 0.862668480416186
38 0.309016994374947 -0.500000000000000 0.809016994374947
39 0.160622035640023 -0.702046444776163 0.693780477560449
40 0.702046444776163 -0.693780477560449 -0.160622035640023
41 0.500000000000000 -0.809016994374947 -0.309016994374947
42 0.259891913007754 -0.862668480416186 -0.433888564552695
43 0.862668480416186 -0.433888564552695 -0.259891913007754
44 0.809016994374947 -0.309016994374947 -0.500000000000000
45 0.693780477560449 -0.160622035640023 -0.702046444776163
46 0.433888564552695 -0.259891913007754 -0.862668480416186
47 0.309016994374947 -0.500000000000000 -0.809016994374947
48 0.160622035640023 -0.702046444776163 -0.693780477560449
49 -0.862668480416186 0.433888564552695 0.259891913007754
50 -0.809016994374947 0.309016994374947 0.500000000000000
51 -0.693780477560449 0.160622035640023 0.702046444776163
52 -0.702046444776163 0.693780477560449 0.160622035640023
53 -0.500000000000000 0.809016994374947 0.309016994374947
54 -0.259891913007754 0.862668480416186 0.433888564552695
55 -0.433888564552695 0.259891913007754 0.862668480416186
56 -0.309016994374947 0.500000000000000 0.809016994374947
57 -0.160622035640023 0.702046444776163 0.693780477560449
58 -0.702046444776163 0.693780477560449 -0.160622035640023
59 -0.500000000000000 0.809016994374947 -0.309016994374947
60 -0.259891913007754 0.862668480416186 -0.433888564552695
61 -0.862668480416186 0.433888564552695 -0.259891913007754
62 -0.809016994374947 0.309016994374947 -0.500000000000000
63 -0.693780477560449 0.160622035640023 -0.702046444776163
64 -0.433888564552695 0.259891913007754 -0.862668480416186
65 -0.309016994374947 0.500000000000000 -0.809016994374947
66 -0.160622035640023 0.702046444776163 -0.693780477560449
67 -0.702046444776163 -0.693780477560449 0.160622035640023
68 -0.500000000000000 -0.809016994374947 0.309016994374947
69 -0.259891913007754 -0.862668480416186 0.433888564552695
70 -0.862668480416186 -0.433888564552695 0.259891913007754
71 -0.809016994374947 -0.309016994374947 0.500000000000000
72 -0.693780477560449 -0.160622035640023 0.702046444776163
73 -0.433888564552695 -0.259891913007754 0.862668480416186
74 -0.309016994374947 -0.500000000000000 0.809016994374947
75 -0.160622035640023 -0.702046444776163 0.693780477560449
76 -0.862668480416186 -0.433888564552695 -0.259891913007754
77 -0.809016994374947 -0.309016994374947 -0.500000000000000
78 -0.693780477560449 -0.160622035640023 -0.702046444776163
79 -0.702046444776163 -0.693780477560449 -0.160622035640023
80 -0.500000000000000 -0.809016994374947 -0.309016994374947
81 -0.259891913007754 -0.862668480416186 -0.433888564552695
82 -0.433888564552695 -0.259891913007754 -0.862668480416186
83 -0.309016994374947 -0.500000000000000 -0.809016994374947
84 -0.160622035640023 -0.702046444776163 -0.693780477560449
85 0.000000000000000 0.961938357783918 0.273266528912672
86 0.000000000000000 1.000000000000000 0.000000000000000
87 0.000000000000000 0.961938357783917 -0.273266528912672
88 0.000000000000000 -0.961938357783918 0.273266528912672
89 0.000000000000000 -1.000000000000000 0.000000000000000
90 0.000000000000000 -0.961938357783917 -0.273266528912672
91 0.961938357783918 0.273266528912672 0.000000000000000
92 1.000000000000000 0.000000000000000 0.000000000000000
93 0.961938357783917 -0.273266528912672 0.000000000000000
94 -0.961938357783918 0.273266528912672 0.000000000000000
95 -1.000000000000000 0.000000000000000 0.000000000000000
96 -0.961938357783917 -0.273266528912672 0.000000000000000
97 0.273266528912672 0.000000000000000 0.961938357783918
98 0.000000000000000 0.000000000000000 1.000000000000000
99 -0.273266528912672 0.000000000000000 0.961938357783917
100 0.273266528912672 0.000000000000000 -0.961938357783918
101 0.000000000000000 0.000000000000000 -1.000000000000000
102 -0.273266528912672 0.000000000000000 -0.961938357783917
103 0.680233173627464 0.587719214913799 0.438028485281284
104 0.438028485281284 0.680233173627464 0.587719214913799
105 0.587719214913799 0.438028485281284 0.680233173627464
106 0.680233173627464 0.587719214913799 -0.438028485281285
107 0.587719214913799 0.438028485281284 -0.680233173627464
108 0.438028485281284 0.680233173627464 -0.587719214913799
109 0.680233173627464 -0.587719214913799 0.438028485281285
110 0.587719214913799 -0.438028485281284 0.680233173627464
111 0.438028485281284 -0.680233173627464 0.587719214913799
112 0.680233173627464 -0.587719214913799 -0.438028485281284
113 0.438028485281284 -0.680233173627464 -0.587719214913799
114 0.587719214913799 -0.438028485281284 -0.680233173627464
115 -0.680233173627464 0.587719214913799 0.438028485281285
116 -0.587719214913799 0.438028485281284 0.680233173627464
117 -0.438028485281284 0.680233173627464 0.587719214913799
118 -0.680233173627464 0.587719214913799 -0.438028485281284
119 -0.438028485281284 0.680233173627464 -0.587719214913799
120 -0.587719214913799 0.438028485281284 -0.680233173627464
121 -0.680233173627464 -0.587719214913799 0.438028485281284
122 -0.438028485281284 -0.680233173627464 0.587719214913799
123 -0.587719214913799 -0.438028485281284 0.680233173627464
124 -0.680233173627464 -0.587719214913799 -0.438028485281285
125 -0.587719214913799 -0.438028485281284 -0.680233173627464
126 -0.438028485281284 -0.680233173627464 -0.587719214913799
127 0.512921180290646 0.858435706858266 -0.000000000000000
128 0.270716491944467 0.950949665571931 -0.149690729632515
129 0.270716491944467 0.950949665571931 0.149690729632515
130 -0.512921180290646 0.858435706858266 -0.000000000000000
131 -0.270716491944467 0.950949665571931 0.149690729632515
132 -0.270716491944467 0.950949665571931 -0.149690729632515
133 0.512921180290646 -0.858435706858266 -0.000000000000000
134 0.270716491944467 -0.950949665571931 0.149690729632515
135 0.270716491944467 -0.950949665571931 -0.149690729632515
136 -0.512921180290646 -0.858435706858266 -0.000000000000000
137 -0.270716491944467 -0.950949665571931 0.149690729632515
138 -0.270716491944467 -0.950949665571931 -0.149690729632515
139 0.858435706858266 -0.000000000000000 0.512921180290646
140 0.950949665571931 -0.149690729632515 0.270716491944467
141 0.950949665571931 0.149690729632515 0.270716491944467
142 0.858435706858266 -0.000000000000000 -0.512921180290646
143 0.950949665571931 0.149690729632515 -0.270716491944467
144 0.950949665571931 -0.149690729632515 -0.270716491944467
145 -0.858435706858266 -0.000000000000000 0.512921180290646
146 -0.950949665571931 0.149690729632515 0.270716491944467
147 -0.950949665571931 -0.149690729632515 0.270716491944467
148 -0.858435706858266 -0.000000000000000 -0.512921180290646
149 -0.950949665571931 -0.149690729632515 -0.270716491944467
150 -0.950949665571931 0.149690729632515 -0.270716491944467
151 -0.000000000000000 0.512921180290646 0.858435706858266
152 -0.149690729632515 0.270716491944467 0.950949665571931
153 0.149690729632515 0.270716491944467 0.950949665571931
154 -0.000000000000000 -0.512921180290646 0.858435706858266
155 0.149690729632515 -0.270716491944467 0.950949665571931
156 -0.149690729632515 -0.270716491944467 0.950949665571931
157 -0.000000000000000 0.512921180290646 -0.858435706858266
158 0.149690729632515 0.270716491944467 -0.950949665571931
159 -0.149690729632515 0.270716491944467 -0.950949665571931
160 -0.000000000000000 -0.512921180290646 -0.858435706858266
161 -0.149690729632515 -0.270716491944467 -0.950949665571931
162 0.149690729632515 -0.270716491944467 -0.950949665571931
$EndNodes
$Elements
320
1 2 3 0 1 0 1 13 16
2 2 3 0 1 0 13 14 103
3 2 3 0 1 0 14 15 104
4 2 3 0 1 0 15 9 21
5 2 3 0 1 0 16 103 17
6 2 3 0 1 0 103 104 105
7 2 3 0 1 0 104 21 20
8 2 3 0 1 0 17 105 18
9 2 3 0 1 0 105 20 19
10 2 3 0 1 0 18 19 5
11 2 3 0 1 0 16 13 103
12 2 3 0 1 0 103 14 104
13 2 3 0 1 0 104 15 21
14 2 3 0 1 0 17 103 105
15 2 3 0 1 0 105 104 20
16 2 3 0 1 0 18 105 19
17 2 3 0 1 0 1 22 25
18 2 3 0 1 0 22 23 106
19 2 3 0 1 0 23 24 107
20 2 3 0 1 0 24 6 28
21 2 3 0 1 0 25 106 26
22 2 3 0 1 0 106 107 108
23 2 3 0 1 0 107 28 29
24 2 3 0 1 0 26 108 27
25 2 3 0 1 0 108 29 30
26 2 3 0 1 0 27 30 11
27 2 3 0 1 0 25 22 106
28 2 3 0 1 0 106 23 107
29 2 3 0 1 0 107 24 28
30 2 3 0 1 0 26 106 108
31 2 3 0 1 0 108 107 29
32 2 3 0 1 0 27 108 30
33 2 3 0 1 0 3 31 34
34 2 3 0 1 0 31 32 109
35 2 3 0 1 0 32 33 110
36 2 3 0 1 0 33 5 37
37 2 3 0 1 0 34 109 35
38 2 3 0 1 0 109 110 111
39 2 3 0 1 0 110 37 38
40 2 3 0 1 0 35 111 36
41 2 3 0 1 0 111 38 39
42 2 3 0 1 0 36 39 10
43 2 3 0 1 0 34 31 109
44 2 3 0 1 0 109 32 110
45 2 3 0 1 0 110 33 37
46 2 3 0 1 0 35 109 111
47 2 3 0 1 0 111 110 38
48 2 3 0 1 0 36 111 39
49 2 3 0 1 0 3 40 43
50 2 3 0 1 0 40 41 112
51 2 3 0 1 0 41 42 113
52 2 3 0 1 0 42 12 48
53 2 3 0 1 0 43 112 44
54 2 3 0 1 0 112 113 114
55 2 3 0 1 0 113 48 47
56 2 3 0 1 0 44 114 45
57 2 3 0 1 0 114 47 46
58 2 3 0 1 0 45 46 6
59 2 3 0 1 0 43 40 112
60 2 3 0 1 0 112 41 113
61 2 3 0 1 0 113 42 48
62 2 3 0 1 0 44 112 114
63 2 3 0 1 0 114 113 47
64 2 3 0 1 0 45 114 46
65 2 3 0 1 0 2 49 52
66 2 3 0 1 0 49 50 115
67 2 3 0 1 0 50 51 116
68 2 3 0 1 0 51 7 55
69 2 3 0 1 0 52 115 53
70 2 3 0 1 0 115 116 117
71 2 3 0 1 0 116 55 56
72 2 3 0 1 0 53 117 54
73 2 3 0 1 0 117 56 57
74 2 3 0 1 0 54 57 9
75 2 3 0 1 0 52 49 115
76 2 3 0 1 0 115 50 116
77 2 3 0 1 0 116 51 55
78 2 3 0 1 0 53 115 117
79 2 3 0 1 0 117 116 56
80 2 3 0 1 0 54 117 57
81 2 3 0 1 0 2 58 61
82 2 3 0 1 0 58 59 118
83 2 3 0 1 0 59 60 119
84 2 3 0 1 0 60 11 66
85 2 3 0 1 0 61 118 62
86 2 3 0 1 0 118 119 120
87 2 3 0 1 0 119 66 65
88 2 3 0 1 0 62 120 63
89 2 3 0 1 0 120 65 64
90 2 3 0 1 0 63 64 8
91 2 3 0 1 0 61 58 118
92 2 3 0 1 0 118 59 119
93 2 3 0 1 0 119 60 66
94 2 3 0 1 0 62 118 120
95 2 3 0 1 0 120 119 65
96 2 3 0 1 0 63 120 64
97 2 3 0 1 0 4 67 70
98 2 3 0 1 0 67 68 121
99 2 3 0 1 0 68 69 122
100 2 3 0 1 0 69 10 75
101 2 3 0 1 0 70 121 71
102 2 3 0 1 0 121 122 123
103 2 3 0 1 0 122 75 74
104 2 3 0 1 0 71 123 72
105 2 3 0 1 0 123 74 73
106 2 3 0 1 0 72 73 7
107 2 3 0 1 0 70 67 121
108 2 3 0 1 0 121 68 122
109 2 3 0 1 0 122 69 75
110 2 3 0 1 0 71 121 123
111 2 3 0 1 0 123 122 74
112 2 3 0 1 0 72 123 73
113 2 3 0 1 0 4 76 79
114 2 3 0 1 0 76 77 124
115 2 3 0 1 0 77 78 125
116 2 3 0 1 0 78 8 82
117 2 3 0 1 0 79 124 80
118 2 3 0 1 0 124 125 126
119 2 3 0 1 0 125 82 83
120 2 3 0 1 0 80 126 81
121 2 3 0 1 0 126 83 84
122 2 3 0 1 0 81 84 12
123 2 3 0 1 0 79 76 124
124 2 3 0 1 0 124 77 125
125 2 3 0 1 0 125 78 82
126 2 3 0 1 0 80 124 126
127 2 3 0 1 0 126 125 83
128 2 3 0 1 0 81 126 84
129 2 3 0 1 0 1 25 13
130 2 3 0 1 0 25 26 127
131 2 3 0 1 0 26 27 128
132 2 3 0 1 0 27 11 87
133 2 3 0 1 0 13 127 14
134 2 3 0 1 0 127 128 129
135 2 3 0 1 0 128 87 86
136 2 3 0 1 0 14 129 15
137 2 3 0 1 0 129 86 85
138 2 3 0 1 0 15 85 9
139 2 3 0 1 0 13 25 127
140 2 3 0 1 0 127 26 128
141 2 3 0 1 0 128 27 87
142 2 3 0 1 0 14 127 129
143 2 3 0 1 0 129 128 86
144 2 3 0 1 0 15 129 85
145 2 3 0 1 0 2 52 58
146 2 3 0 1 0 52 53 130
147 2 3 0 1 0 53 54 131
148 2 3 0 1 0 54 9 85
149 2 3 0 1 0 58 130 59
150 2 3 0 1 0 130 131 132
151 2 3 0 1 0 131 85 86
152 2 3 0 1 0 59 132 60
153 2 3 0 1 0 132 86 87
154 2 3 0 1 0 60 87 11
155 2 3 0 1 0 58 52 130
156 2 3 0 1 0 130 53 131
157 2 3 0 1 0 131 54 85
158 2 3 0 1 0 59 130 132
159 2 3 0 1 0 132 131 86
160 2 3 0 1 0 60 132 87
161 2 3 0 1 0 3 34 40
162 2 3 0 1 0 34 35 133
163 2 3 0 1 0 35 36 134
164 2 3 0 1 0 36 10 88
165 2 3 0 1 0 40 133 41
166 2 3 0 1 0 133 134 135
167 2 3 0 1 0 134 88 89
168 2 3 0 1 0 41 135 42
169 2 3 0 1 0 135 89 90
170 2 3 0 1 0 42 90 12
171 2 3 0 1 0 40 34 133
172 2 3 0 1 0 133 35 134
173 2 3 0 1 0 134 36 88
174 2 3 0 1 0 41 133 135
175 2 3 0 1 0 135 134 89
176 2 3 0 1 0 42 135 90
177 2 3 0 1 0 4 67 79
178 2 3 0 1 0 67 68 136
179 2 3 0 1 0 68 69 137
180 2 3 0 1 0 69 10 88
181 2 3 0 1 0 79 136 80
182 2 3 0 1 0 136 137 138
183 2 3 0 1 0 137 88 89
184 2 3 0 1 0 80 138 81
185 2 3 0 1 0 138 89 90
186 2 3 0 1 0 81 90 12
187 2 3 0 1 0 79 67 136
188 2 3 0 1 0 136 68 137
189 2 3 0 1 0 137 69 88
190 2 3 0 1 0 80 136 138
191 2 3 0 1 0 138 137 89
192 2 3 0 1 0 81 138 90
193 2 3 0 1 0 5 33 18
194 2 3 0 1 0 33 32 139
195 2 3 0 1 0 32 31 140
196 2 3 0 1 0 31 3 93
197 2 3 0 1 0 18 139 17
198 2 3 0 1 0 139 140 141
199 2 3 0 1 0 140 93 92
200 2 3 0 1 0 17 141 16
201 2 3 0 1 0 141 92 91
202 2 3 0 1 0 16 91 1
203 2 3 0 1 0 18 33 139
204 2 3 0 1 0 139 32 140
205 2 3 0 1 0 140 31 93
206 2 3 0 1 0 17 139 141
207 2 3 0 1 0 141 140 92
208 2 3 0 1 0 16 141 91
209 2 3 0 1 0 6 24 45
210 2 3 0 1 0 24 23 142
211 2 3 0 1 0 23 22 143
212 2 3 0 1 0 22 1 91
213 2 3 0 1 0 45 142 44
214 2 3 0 1 0 142 143 144
215 2 3 0 1 0 143 91 92
216 2 3 0 1 0 44 144 43
217 2 3 0 1 0 144 92 93
218 2 3 0 1 0 43 93 3
219 2 3 0 1 0 45 24 142
220 2 3 0 1 0 142 23 143
221 2 3 0 1 0 143 22 91
222 2 3 0 1 0 44 142 144
223 2 3 0 1 0 144 143 92
224 2 3 0 1 0 43 144 93
225 2 3 0 1 0 7 51 72
226 2 3 0 1 0 51 50 145
227 2 3 0 1 0 50 49 146
228 2 3 0 1 0 49 2 94
229 2 3 0 1 0 72 145 71
230 2 3 0 1 0 145 146 147
231 2 3 0 1 0 146 94 95
232 2 3 0 1 0 71 147 70
233 2 3 0 1 0 147 95 96
234 2 3 0 1 0 70 96 4
235 2 3 0 1 0 72 51 145
236 2 3 0 1 0 145 50 146
237 2 3 0 1 0 146 49 94
238 2 3 0 1 0 71 145 147
239 2 3 0 1 0 147 146 95
240 2 3 0 1 0 70 147 96
241 2 3 0 1 0 8 78 63
242 2 3 0 1 0 78 77 148
243 2 3 0 1 0 77 76 149
244 2 3 0 1 0 76 4 96
245 2 3 0 1 0 63 148 62
246 2 3 0 1 0 148 149 150
247 2 3 0 1 0 149 96 95
248 2 3 0 1 0 62 150 61
249 2 3 0 1 0 150 95 94
250 2 3 0 1 0 61 94 2
251 2 3 0 1 0 63 78 148
252 2 3 0 1 0 148 77 149
253 2 3 0 1 0 149 76 96
254 2 3 0 1 0 62 148 150
255 2 3 0 1 0 150 149 95
256 2 3 0 1 0 61 150 94
257 2 3 0 1 0 9 57 21
258 2 3 0 1 0 57 56 151
259 2 3 0 1 0 56 55 152
260 2 3 0 1 0 55 7 99
261 2 3 0 1 0 21 151 20
262 2 3 0 1 0 151 152 153
263 2 3 0 1 0 152 99 98
264 2 3 0 1 0 20 153 19
265 2 3 0 1 0 153 98 97
266 2 3 0 1 0 19 97 5
267 2 3 0 1 0 21 57 151
268 2 3 0 1 0 151 56 152
269 2 3 0 1 0 152 55 99
270 2 3 0 1 0 20 151 153
271 2 3 0 1 0 153 152 98
272 2 3 0 1 0 19 153 97
273 2 3 0 1 0 10 39 75
274 2 3 0 1 0 39 38 154
275 2 3 0 1 0 38 37 155
276 2 3 0 1 0 37 5 97
277 2 3 0 1 0 75 154 74
278 2 3 0 1 0 154 155 156
279 2 3 0 1 0 155 97 98
280 2 3 0 1 0 74 156 73
281 2 3 0 1 0 156 98 99
282 2 3 0 1 0 73 99 7
283 2 3 0 1 0 75 39 154
284 2 3 0 1 0 154 38 155
285 2 3 0 1 0 155 37 97
286 2 3 0 1 0 74 154 156
287 2 3 0 1 0 156 155 98
288 2 3 0 1 0 73 156 99
289 2 3 0 1 0 11 30 66
290 2 3 0 1 0 30 29 157
291 2 3 0 1 0 29 28 158
292 2 3 0 1 0 28 6 100
293 2 3 0 1 0 66 157 65
294 2 3 0 1 0 157 158 159
295 2 3 0 1 0 158 100 101
296 2 3 0 1 0 65 159 64
297 2 3 0 1 0 159 101 102
298 2 3 0 1 0 64 102 8
299 2 3 0 1 0 66 30 157
300 2 3 0 1 0 157 29 158
301 2 3 0 1 0 158 28 100
302 2 3 0 1 0 65 157 159
303 2 3 0 1 0 159 158 101
304 2 3 0 1 0 64 159 102
305 2 3 0 1 0 12 84 48
306 2 3 0 1 0 84 83 160
307 2 3 0 1 0 83 82 161
308 2 3 0 1 0 82 8 102
309 2 3 0 1 0 48 160 47
310 2 3 0 1 0 160 161 162
311 2 3 0 1 0 161 102 101
312 2 3 0 1 0 47 162 46
313 2 3 0 1 0 162 101 100
314 2 3 0 1 0 46 100 6
315 2 3 0 1 0 48 84 160
316 2 3 0 1 0 160 83 161
317 2 3 0 1 0 161 82 102
318 2 3 0 1 0 47 160 162
319 2 3 0 1 0 162 161 101
320 2 3 0 1 0 46 162 100
$EndElements
