$MeshFormat
2 0 8
$EndMeshFormat
$Nodes
492
1 0.850650808352040 0.525731112119134 0.000000000000000
2 -0.850650808352040 0.525731112119134 0.000000000000000
3 0.850650808352040 -0.525731112119134 0.000000000000000
4 -0.850650808352040 -0.525731112119134 0.000000000000000
5 0.525731112119134 0.000000000000000 0.286667977694470
6 0.525731112119134 0.000000000000000 -0.286667977694470
7 -0.525731112119134 0.000000000000000 0.286667977694470
8 -0.525731112119134 0.000000000000000 -0.286667977694470
9 0.000000000000000 0.850650808352040 0.280268086953479
10 0.000000000000000 -0.850650808352040 0.280268086953479
11 0.000000000000000 0.850650808352040 -0.280268086953479
12 0.000000000000000 -0.850650808352040 -0.280268086953479
13 0.773041993043904 0.627562850075905 0.050271818305008
14 0.676135129605588 0.713728248824129 0.099740602914314
15 0.562349379391334 0.782076294541578 0.147152790888119
16 0.434525264525324 0.830900761838523 0.190688994628252
17 0.295853757740060 0.858982807588322 0.228308648066900
18 0.149796623643813 0.865621397855756 0.258385663868629
19 0.865621397855756 0.477766226432092 0.081560858140255
20 0.858982807588322 0.417874491084069 0.162265207442634
21 0.830900761838523 0.347551030016254 0.236905954656204
22 0.782076294541578 0.268551382447189 0.295089413524876
23 0.713728248824129 0.182847677982734 0.325140091421396
24 0.627562850075905 0.092579404811852 0.320798525164364
25 0.477766226432092 0.149796623643813 0.276054592261928
26 0.417874491084069 0.295853757740060 0.280939960411071
27 0.347551030016254 0.434525264525324 0.298527331753361
28 0.268551382447189 0.562349379391334 0.318438577811427
29 0.182847677982734 0.676135129605588 0.327565499475195
30 0.092579404811852 0.773041993043904 0.315883534778070
31 0.865621397855756 0.477766226432092 -0.081560858140255
32 0.858982807588322 0.417874491084069 -0.162265207442634
33 0.830900761838523 0.347551030016254 -0.236905954656204
34 0.782076294541578 0.268551382447189 -0.295089413524876
35 0.713728248824129 0.182847677982734 -0.325140091421396
36 0.627562850075905 0.092579404811852 -0.320798525164364
37 0.773041993043904 0.627562850075905 -0.050271818305008
38 0.676135129605588 0.713728248824129 -0.099740602914314
39 0.562349379391334 0.782076294541578 -0.147152790888119
40 0.434525264525324 0.830900761838523 -0.190688994628252
41 0.295853757740060 0.858982807588322 -0.228308648066900
42 0.149796623643813 0.865621397855756 -0.258385663868629
43 0.477766226432092 0.149796623643813 -0.276054592261928
44 0.417874491084069 0.295853757740060 -0.280939960411071
45 0.347551030016254 0.434525264525324 -0.298527331753361
46 0.268551382447189 0.562349379391334 -0.318438577811427
47 0.182847677982734 0.676135129605588 -0.327565499475195
48 0.092579404811852 0.773041993043904 -0.315883534778070
49 0.865621397855756 -0.477766226432092 0.081560858140255
50 0.858982807588322 -0.417874491084069 0.162265207442634
51 0.830900761838523 -0.347551030016254 0.236905954656204
52 0.782076294541578 -0.268551382447189 0.295089413524876
53 0.713728248824129 -0.182847677982734 0.325140091421396
54 0.627562850075905 -0.092579404811852 0.320798525164364
55 0.773041993043904 -0.627562850075905 0.050271818305008
56 0.676135129605588 -0.713728248824129 0.099740602914314
57 0.562349379391334 -0.782076294541578 0.147152790888119
58 0.434525264525324 -0.830900761838523 0.190688994628252
59 0.295853757740060 -0.858982807588322 0.228308648066900
60 0.149796623643813 -0.865621397855756 0.258385663868629
61 0.477766226432092 -0.149796623643813 0.276054592261928
62 0.417874491084069 -0.295853757740060 0.280939960411071
63 0.347551030016254 -0.434525264525324 0.298527331753361
64 0.268551382447189 -0.562349379391334 0.318438577811427
65 0.182847677982734 -0.676135129605588 0.327565499475195
66 0.092579404811852 -0.773041993043904 0.315883534778070
67 0.773041993043904 -0.627562850075905 -0.050271818305008
68 0.676135129605588 -0.713728248824129 -0.099740602914314
69 0.562349379391334 -0.782076294541578 -0.147152790888119
70 0.434525264525324 -0.830900761838523 -0.190688994628252
71 0.295853757740060 -0.858982807588322 -0.228308648066900
72 0.149796623643813 -0.865621397855756 -0.258385663868629
73 0.865621397855756 -0.477766226432092 -0.081560858140255
74 0.858982807588322 -0.417874491084069 -0.162265207442634
75 0.830900761838523 -0.347551030016254 -0.236905954656204
76 0.782076294541578 -0.268551382447189 -0.295089413524876
77 0.713728248824129 -0.182847677982734 -0.325140091421396
78 0.627562850075905 -0.092579404811852 -0.320798525164364
79 0.477766226432092 -0.149796623643813 -0.276054592261928
80 0.417874491084069 -0.295853757740060 -0.280939960411071
81 0.347551030016254 -0.434525264525324 -0.298527331753361
82 0.268551382447189 -0.562349379391334 -0.318438577811427
83 0.182847677982734 -0.676135129605588 -0.327565499475195
84 0.092579404811852 -0.773041993043904 -0.315883534778070
85 -0.865621397855756 0.477766226432092 0.081560858140255
86 -0.858982807588322 0.417874491084069 0.162265207442634
87 -0.830900761838523 0.347551030016254 0.236905954656204
88 -0.782076294541578 0.268551382447189 0.295089413524876
89 -0.713728248824129 0.182847677982734 0.325140091421396
90 -0.627562850075905 0.092579404811852 0.320798525164364
91 -0.773041993043904 0.627562850075905 0.050271818305008
92 -0.676135129605588 0.713728248824129 0.099740602914314
93 -0.562349379391334 0.782076294541578 0.147152790888119
94 -0.434525264525324 0.830900761838523 0.190688994628252
95 -0.295853757740060 0.858982807588322 0.228308648066900
96 -0.149796623643813 0.865621397855756 0.258385663868629
97 -0.477766226432092 0.149796623643813 0.276054592261928
98 -0.417874491084069 0.295853757740060 0.280939960411071
99 -0.347551030016254 0.434525264525324 0.298527331753361
100 -0.268551382447189 0.562349379391334 0.318438577811427
101 -0.182847677982734 0.676135129605588 0.327565499475195
102 -0.092579404811852 0.773041993043904 0.315883534778070
103 -0.773041993043904 0.627562850075905 -0.050271818305008
104 -0.676135129605588 0.713728248824129 -0.099740602914314
105 -0.562349379391334 0.782076294541578 -0.147152790888119
106 -0.434525264525324 0.830900761838523 -0.190688994628252
107 -0.295853757740060 0.858982807588322 -0.228308648066900
108 -0.149796623643813 0.865621397855756 -0.258385663868629
109 -0.865621397855756 0.477766226432092 -0.081560858140255
110 -0.858982807588322 0.417874491084069 -0.162265207442634
111 -0.830900761838523 0.347551030016254 -0.236905954656204
112 -0.782076294541578 0.268551382447189 -0.295089413524876
113 -0.713728248824129 0.182847677982734 -0.325140091421396
114 -0.627562850075905 0.092579404811852 -0.320798525164364
115 -0.477766226432092 0.149796623643813 -0.276054592261928
116 -0.417874491084069 0.295853757740060 -0.280939960411071
117 -0.347551030016254 0.434525264525324 -0.298527331753361
118 -0.268551382447189 0.562349379391334 -0.318438577811427
119 -0.182847677982734 0.676135129605588 -0.327565499475195
120 -0.092579404811852 0.773041993043904 -0.315883534778070
121 -0.773041993043904 -0.627562850075905 0.050271818305008
122 -0.676135129605588 -0.713728248824129 0.099740602914314
123 -0.562349379391334 -0.782076294541578 0.147152790888119
124 -0.434525264525324 -0.830900761838523 0.190688994628252
125 -0.295853757740060 -0.858982807588322 0.228308648066900
126 -0.149796623643813 -0.865621397855756 0.258385663868629
127 -0.865621397855756 -0.477766226432092 0.081560858140255
128 -0.858982807588322 -0.417874491084069 0.162265207442634
129 -0.830900761838523 -0.347551030016254 0.236905954656204
130 -0.782076294541578 -0.268551382447189 0.295089413524876
131 -0.713728248824129 -0.182847677982734 0.325140091421396
132 -0.627562850075905 -0.092579404811852 0.320798525164364
133 -0.477766226432092 -0.149796623643813 0.276054592261928
134 -0.417874491084069 -0.295853757740060 0.280939960411071
135 -0.347551030016254 -0.434525264525324 0.298527331753361
136 -0.268551382447189 -0.562349379391334 0.318438577811427
137 -0.182847677982734 -0.676135129605588 0.327565499475195
138 -0.092579404811852 -0.773041993043904 0.315883534778070
139 -0.865621397855756 -0.477766226432092 -0.081560858140255
140 -0.858982807588322 -0.417874491084069 -0.162265207442634
141 -0.830900761838523 -0.347551030016254 -0.236905954656204
142 -0.782076294541578 -0.268551382447189 -0.295089413524876
143 -0.713728248824129 -0.182847677982734 -0.325140091421396
144 -0.627562850075905 -0.092579404811852 -0.320798525164364
145 -0.773041993043904 -0.627562850075905 -0.050271818305008
146 -0.676135129605588 -0.713728248824129 -0.099740602914314
147 -0.562349379391334 -0.782076294541578 -0.147152790888119
148 -0.434525264525324 -0.830900761838523 -0.190688994628252
149 -0.295853757740060 -0.858982807588322 -0.228308648066900
150 -0.149796623643813 -0.865621397855756 -0.258385663868629
151 -0.477766226432092 -0.149796623643813 -0.276054592261928
152 -0.417874491084069 -0.295853757740060 -0.280939960411071
153 -0.347551030016254 -0.434525264525324 -0.298527331753361
154 -0.268551382447189 -0.562349379391334 -0.318438577811427
155 -0.182847677982734 -0.676135129605588 -0.327565499475195
156 -0.092579404811852 -0.773041993043904 -0.315883534778070
157 0.000000000000000 0.922838616687716 0.211039580207350
158 0.000000000000000 0.971988887345648 0.128578699334725
159 0.000000000000000 0.996874643916658 0.042876724239184
160 0.000000000000000 0.996874643916658 -0.042876724239185
161 0.000000000000000 0.971988887345648 -0.128578699334725
162 0.000000000000000 0.922838616687716 -0.211039580207350
163 0.000000000000000 -0.922838616687716 0.211039580207350
164 0.000000000000000 -0.971988887345648 0.128578699334725
165 0.000000000000000 -0.996874643916658 0.042876724239184
166 0.000000000000000 -0.996874643916658 -0.042876724239185
167 0.000000000000000 -0.971988887345648 -0.128578699334725
168 0.000000000000000 -0.922838616687716 -0.211039580207350
169 0.922838616687716 0.385186821620240 0.000000000000000
170 0.971988887345648 0.235026813101334 0.000000000000000
171 0.996874643916658 0.078999647569065 0.000000000000000
172 0.996874643916658 -0.078999647569065 0.000000000000000
173 0.971988887345648 -0.235026813101334 0.000000000000000
174 0.922838616687716 -0.385186821620240 0.000000000000000
175 -0.922838616687716 0.385186821620240 0.000000000000000
176 -0.971988887345648 0.235026813101334 0.000000000000000
177 -0.996874643916658 0.078999647569065 0.000000000000000
178 -0.996874643916658 -0.078999647569065 0.000000000000000
179 -0.971988887345648 -0.235026813101334 0.000000000000000
180 -0.922838616687716 -0.385186821620240 0.000000000000000
181 0.385186821620240 0.000000000000000 0.221027604745308
182 0.235026813101334 0.000000000000000 0.152625931150138
183 0.078999647569065 0.000000000000000 0.109376163059701
184 -0.078999647569065 0.000000000000000 0.109376163059701
185 -0.235026813101334 0.000000000000000 0.152625931150138
186 -0.385186821620240 0.000000000000000 0.221027604745308
187 0.385186821620240 0.000000000000000 -0.221027604745308
188 0.235026813101334 0.000000000000000 -0.152625931150138
189 0.078999647569065 0.000000000000000 -0.109376163059701
190 -0.078999647569065 0.000000000000000 -0.109376163059701
191 -0.235026813101334 0.000000000000000 -0.152625931150138
192 -0.385186821620240 0.000000000000000 -0.221027604745308
193 0.778208931841662 0.576286488446700 0.136634782791512
194 0.669540052349804 0.657747954426553 0.189342932162800
195 0.542599196047862 0.719703910997831 0.236197963262192
196 0.401154457064132 0.760262129734806 0.273790970896417
197 0.249569111942225 0.778208931841662 0.300198411782782
198 0.760262129734806 0.510956549687621 0.219532858313055
199 0.638948868685768 0.585477592107738 0.268350089080142
200 0.498959249182639 0.638948868685768 0.303386110210901
201 0.345085129710203 0.669540052349804 0.322373713960636
202 0.719703910997831 0.433142462640919 0.287329252320027
203 0.585477592107738 0.498959249182638 0.318598266271354
204 0.433142462640919 0.542599196047862 0.327509993875243
205 0.657747954426553 0.345085129710203 0.324258752306366
206 0.510956549687621 0.401154457064132 0.323496569161109
207 0.576286488446700 0.249569111942225 0.319495870451521
208 0.778208931841662 0.576286488446700 -0.136634782791512
209 0.760262129734806 0.510956549687621 -0.219532858313055
210 0.719703910997831 0.433142462640919 -0.287329252320026
211 0.657747954426553 0.345085129710203 -0.324258752306366
212 0.576286488446700 0.249569111942225 -0.319495870451521
213 0.669540052349804 0.657747954426553 -0.189342932162800
214 0.638948868685768 0.585477592107738 -0.268350089080142
215 0.585477592107738 0.498959249182638 -0.318598266271354
216 0.510956549687621 0.401154457064132 -0.323496569161109
217 0.542599196047862 0.719703910997831 -0.236197963262192
218 0.498959249182638 0.638948868685768 -0.303386110210901
219 0.433142462640919 0.542599196047862 -0.327509993875243
220 0.401154457064132 0.760262129734806 -0.273790970896417
221 0.345085129710203 0.669540052349804 -0.322373713960636
222 0.249569111942225 0.778208931841662 -0.300198411782782
223 0.778208931841662 -0.576286488446700 0.136634782791512
224 0.760262129734806 -0.510956549687621 0.219532858313055
225 0.719703910997831 -0.433142462640919 0.287329252320026
226 0.657747954426553 -0.345085129710203 0.324258752306366
227 0.576286488446700 -0.249569111942225 0.319495870451521
228 0.669540052349804 -0.657747954426553 0.189342932162800
229 0.638948868685768 -0.585477592107738 0.268350089080142
230 0.585477592107738 -0.498959249182638 0.318598266271354
231 0.510956549687621 -0.401154457064132 0.323496569161109
232 0.542599196047862 -0.719703910997831 0.236197963262192
233 0.498959249182638 -0.638948868685768 0.303386110210901
234 0.433142462640919 -0.542599196047862 0.327509993875243
235 0.401154457064132 -0.760262129734806 0.273790970896417
236 0.345085129710203 -0.669540052349804 0.322373713960636
237 0.249569111942225 -0.778208931841662 0.300198411782782
238 0.778208931841662 -0.576286488446700 -0.136634782791512
239 0.669540052349804 -0.657747954426553 -0.189342932162800
240 0.542599196047862 -0.719703910997831 -0.236197963262192
241 0.401154457064132 -0.760262129734806 -0.273790970896417
242 0.249569111942225 -0.778208931841662 -0.300198411782782
243 0.760262129734806 -0.510956549687621 -0.219532858313055
244 0.638948868685768 -0.585477592107738 -0.268350089080142
245 0.498959249182639 -0.638948868685768 -0.303386110210901
246 0.345085129710203 -0.669540052349804 -0.322373713960636
247 0.719703910997831 -0.433142462640919 -0.287329252320027
248 0.585477592107738 -0.498959249182638 -0.318598266271354
249 0.433142462640919 -0.542599196047862 -0.327509993875243
250 0.657747954426553 -0.345085129710203 -0.324258752306366
251 0.510956549687621 -0.401154457064132 -0.323496569161109
252 0.576286488446700 -0.249569111942225 -0.319495870451521
253 -0.778208931841662 0.576286488446700 0.136634782791512
254 -0.760262129734806 0.510956549687621 0.219532858313055
255 -0.719703910997831 0.433142462640919 0.287329252320026
256 -0.657747954426553 0.345085129710203 0.324258752306366
257 -0.576286488446700 0.249569111942225 0.319495870451521
258 -0.669540052349804 0.657747954426553 0.189342932162800
259 -0.638948868685768 0.585477592107738 0.268350089080142
260 -0.585477592107738 0.498959249182638 0.318598266271354
261 -0.510956549687621 0.401154457064132 0.323496569161109
262 -0.542599196047862 0.719703910997831 0.236197963262192
263 -0.498959249182638 0.638948868685768 0.303386110210901
264 -0.433142462640919 0.542599196047862 0.327509993875243
265 -0.401154457064132 0.760262129734806 0.273790970896417
266 -0.345085129710203 0.669540052349804 0.322373713960636
267 -0.249569111942225 0.778208931841662 0.300198411782782
268 -0.778208931841662 0.576286488446700 -0.136634782791512
269 -0.669540052349804 0.657747954426553 -0.189342932162800
270 -0.542599196047862 0.719703910997831 -0.236197963262192
271 -0.401154457064132 0.760262129734806 -0.273790970896417
272 -0.249569111942225 0.778208931841662 -0.300198411782782
273 -0.760262129734806 0.510956549687621 -0.219532858313055
274 -0.638948868685768 0.585477592107738 -0.268350089080142
275 -0.498959249182639 0.638948868685768 -0.303386110210901
276 -0.345085129710203 0.669540052349804 -0.322373713960636
277 -0.719703910997831 0.433142462640919 -0.287329252320027
278 -0.585477592107738 0.498959249182638 -0.318598266271354
279 -0.433142462640919 0.542599196047862 -0.327509993875243
280 -0.657747954426553 0.345085129710203 -0.324258752306366
281 -0.510956549687621 0.401154457064132 -0.323496569161109
282 -0.576286488446700 0.249569111942225 -0.319495870451521
283 -0.778208931841662 -0.576286488446700 0.136634782791512
284 -0.669540052349804 -0.657747954426553 0.189342932162800
285 -0.542599196047862 -0.719703910997831 0.236197963262192
286 -0.401154457064132 -0.760262129734806 0.273790970896417
287 -0.249569111942225 -0.778208931841662 0.300198411782782
288 -0.760262129734806 -0.510956549687621 0.219532858313055
289 -0.638948868685768 -0.585477592107738 0.268350089080142
290 -0.498959249182639 -0.638948868685768 0.303386110210901
291 -0.345085129710203 -0.669540052349804 0.322373713960636
292 -0.719703910997831 -0.433142462640919 0.287329252320027
293 -0.585477592107738 -0.498959249182638 0.318598266271354
294 -0.433142462640919 -0.542599196047862 0.327509993875243
295 -0.657747954426553 -0.345085129710203 0.324258752306366
296 -0.510956549687621 -0.401154457064132 0.323496569161109
297 -0.576286488446700 -0.249569111942225 0.319495870451521
298 -0.778208931841662 -0.576286488446700 -0.136634782791512
299 -0.760262129734806 -0.510956549687621 -0.219532858313055
300 -0.719703910997831 -0.433142462640919 -0.287329252320026
301 -0.657747954426553 -0.345085129710203 -0.324258752306366
302 -0.576286488446700 -0.249569111942225 -0.319495870451521
303 -0.669540052349804 -0.657747954426553 -0.189342932162800
304 -0.638948868685768 -0.585477592107738 -0.268350089080142
305 -0.585477592107738 -0.498959249182638 -0.318598266271354
306 -0.510956549687621 -0.401154457064132 -0.323496569161109
307 -0.542599196047862 -0.719703910997831 -0.236197963262192
308 -0.498959249182638 -0.638948868685768 -0.303386110210901
309 -0.433142462640919 -0.542599196047862 -0.327509993875243
310 -0.401154457064132 -0.760262129734806 -0.273790970896417
311 -0.345085129710203 -0.669540052349804 -0.322373713960636
312 -0.249569111942225 -0.778208931841662 -0.300198411782782
313 0.682882013621859 0.730528682169122 0.000000000000000
314 0.572382011843745 0.814952966245695 -0.049259757762131
315 0.444801478832889 0.877943941473808 -0.096576194044580
316 0.303996416558074 0.917467141553948 -0.140527093355389
317 0.154242193722422 0.932451125564084 -0.179280156494002
318 0.572382011843745 0.814952966245695 0.049259757762130
319 0.448363394499129 0.893851367103737 0.000000000000000
320 0.308373774995999 0.947322643681767 -0.046969877902602
321 0.157205011819142 0.973536468907877 -0.090393138629324
322 0.444801478832889 0.877943941473808 0.096576194044580
323 0.308373774995999 0.947322643681767 0.046969877902602
324 0.158240030475977 0.987400674880751 0.000000000000000
325 0.303996416558074 0.917467141553948 0.140527093355389
326 0.157205011819142 0.973536468907877 0.090393138629324
327 0.154242193722422 0.932451125564084 0.179280156494002
328 -0.682882013621859 0.730528682169122 0.000000000000000
329 -0.572382011843745 0.814952966245695 0.049259757762131
330 -0.444801478832889 0.877943941473808 0.096576194044580
331 -0.303996416558074 0.917467141553948 0.140527093355389
332 -0.154242193722422 0.932451125564084 0.179280156494002
333 -0.572382011843745 0.814952966245695 -0.049259757762130
334 -0.448363394499129 0.893851367103737 0.000000000000000
335 -0.308373774995999 0.947322643681767 0.046969877902602
336 -0.157205011819142 0.973536468907877 0.090393138629324
337 -0.444801478832889 0.877943941473808 -0.096576194044580
338 -0.308373774995999 0.947322643681767 -0.046969877902601
339 -0.158240030475977 0.987400674880751 0.000000000000000
340 -0.303996416558074 0.917467141553948 -0.140527093355389
341 -0.157205011819142 0.973536468907877 -0.090393138629324
342 -0.154242193722422 0.932451125564084 -0.179280156494002
343 0.682882013621859 -0.730528682169122 0.000000000000000
344 0.572382011843745 -0.814952966245695 0.049259757762131
345 0.444801478832889 -0.877943941473808 0.096576194044580
346 0.303996416558074 -0.917467141553948 0.140527093355389
347 0.154242193722422 -0.932451125564084 0.179280156494002
348 0.572382011843745 -0.814952966245695 -0.049259757762130
349 0.448363394499129 -0.893851367103737 0.000000000000000
350 0.308373774995999 -0.947322643681767 0.046969877902602
351 0.157205011819142 -0.973536468907877 0.090393138629324
352 0.444801478832889 -0.877943941473808 -0.096576194044580
353 0.308373774995999 -0.947322643681767 -0.046969877902601
354 0.158240030475977 -0.987400674880751 0.000000000000000
355 0.303996416558074 -0.917467141553948 -0.140527093355389
356 0.157205011819142 -0.973536468907877 -0.090393138629324
357 0.154242193722422 -0.932451125564084 -0.179280156494002
358 -0.682882013621859 -0.730528682169122 0.000000000000000
359 -0.572382011843745 -0.814952966245695 0.049259757762131
360 -0.444801478832889 -0.877943941473808 0.096576194044580
361 -0.303996416558074 -0.917467141553948 0.140527093355389
362 -0.154242193722422 -0.932451125564084 0.179280156494002
363 -0.572382011843745 -0.814952966245695 -0.049259757762130
364 -0.448363394499129 -0.893851367103737 0.000000000000000
365 -0.308373774995999 -0.947322643681767 0.046969877902602
366 -0.157205011819142 -0.973536468907877 0.090393138629324
367 -0.444801478832889 -0.877943941473808 -0.096576194044580
368 -0.308373774995999 -0.947322643681767 -0.046969877902601
369 -0.158240030475977 -0.987400674880751 0.000000000000000
370 -0.303996416558074 -0.917467141553948 -0.140527093355389
371 -0.157205011819142 -0.973536468907877 -0.090393138629324
372 -0.154242193722422 -0.932451125564084 -0.179280156494002
373 0.730528682169122 0.000000000000000 0.325907901823034
374 0.814952966245695 -0.090722077385002 0.298799693135378
375 0.877943941473808 -0.177104714949969 0.242130357177918
376 0.917467141553948 -0.256593497362421 0.166763774330537
377 0.932451125564084 -0.326717376504475 0.084001601146757
378 0.814952966245695 0.090722077385002 0.298799693135378
379 0.893851367103737 0.000000000000000 0.243925282339285
380 0.947322643681767 -0.086518342925099 0.169179711259934
381 0.973536468907877 -0.165871419977418 0.085629068826935
382 0.877943941473808 0.177104714949969 0.242130357177918
383 0.947322643681767 0.086518342925099 0.169179711259934
384 0.987400674880751 0.000000000000000 0.086197751553624
385 0.917467141553948 0.256593497362421 0.166763774330537
386 0.973536468907877 0.165871419977418 0.085629068826935
387 0.932451125564084 0.326717376504475 0.084001601146756
388 0.730528682169122 0.000000000000000 -0.325907901823034
389 0.814952966245695 0.090722077385002 -0.298799693135378
390 0.877943941473808 0.177104714949969 -0.242130357177918
391 0.917467141553948 0.256593497362421 -0.166763774330537
392 0.932451125564084 0.326717376504475 -0.084001601146756
393 0.814952966245695 -0.090722077385002 -0.298799693135378
394 0.893851367103737 0.000000000000000 -0.243925282339285
395 0.947322643681767 0.086518342925099 -0.169179711259934
396 0.973536468907877 0.165871419977418 -0.085629068826935
397 0.877943941473808 -0.177104714949969 -0.242130357177918
398 0.947322643681767 -0.086518342925099 -0.169179711259934
399 0.987400674880751 0.000000000000000 -0.086197751553624
400 0.917467141553948 -0.256593497362421 -0.166763774330537
401 0.973536468907877 -0.165871419977418 -0.085629068826935
402 0.932451125564084 -0.326717376504475 -0.084001601146757
403 -0.730528682169122 0.000000000000000 0.325907901823034
404 -0.814952966245695 0.090722077385002 0.298799693135378
405 -0.877943941473808 0.177104714949969 0.242130357177918
406 -0.917467141553948 0.256593497362421 0.166763774330537
407 -0.932451125564084 0.326717376504475 0.084001601146756
408 -0.814952966245695 -0.090722077385002 0.298799693135378
409 -0.893851367103737 0.000000000000000 0.243925282339285
410 -0.947322643681767 0.086518342925099 0.169179711259934
411 -0.973536468907877 0.165871419977418 0.085629068826935
412 -0.877943941473808 -0.177104714949969 0.242130357177918
413 -0.947322643681767 -0.086518342925099 0.169179711259934
414 -0.987400674880751 0.000000000000000 0.086197751553624
415 -0.917467141553948 -0.256593497362421 0.166763774330537
416 -0.973536468907877 -0.165871419977418 0.085629068826935
417 -0.932451125564084 -0.326717376504475 0.084001601146757
418 -0.730528682169122 0.000000000000000 -0.325907901823034
419 -0.814952966245695 -0.090722077385002 -0.298799693135378
420 -0.877943941473808 -0.177104714949969 -0.242130357177918
421 -0.917467141553948 -0.256593497362421 -0.166763774330537
422 -0.932451125564084 -0.326717376504475 -0.084001601146757
423 -0.814952966245695 0.090722077385002 -0.298799693135378
424 -0.893851367103737 0.000000000000000 -0.243925282339285
425 -0.947322643681767 -0.086518342925099 -0.169179711259934
426 -0.973536468907877 -0.165871419977418 -0.085629068826935
427 -0.877943941473808 0.177104714949969 -0.242130357177918
428 -0.947322643681767 0.086518342925099 -0.169179711259934
429 -0.987400674880751 0.000000000000000 -0.086197751553624
430 -0.917467141553948 0.256593497362421 -0.166763774330537
431 -0.973536468907877 0.165871419977418 -0.085629068826935
432 -0.932451125564084 0.326717376504475 -0.084001601146756
433 0.000000000000000 0.682882013621859 0.327074583192961
434 -0.090722077385002 0.572382011843745 0.306435776887590
435 -0.177104714949969 0.444801478832889 0.266204580442540
436 -0.256593497362421 0.303996416558074 0.227248946311621
437 -0.326717376504475 0.154242193722422 0.209304784632828
438 0.090722077385002 0.572382011843745 0.306435776887590
439 0.000000000000000 0.448363394499129 0.251921156453209
440 -0.086518342925099 0.308373774995999 0.189626861213819
441 -0.165871419977418 0.157205011819142 0.150114629027721
442 0.177104714949969 0.444801478832889 0.266204580442540
443 0.086518342925099 0.308373774995999 0.189626861213819
444 0.000000000000000 0.158240030475977 0.126572768075875
445 0.256593497362421 0.303996416558074 0.227248946311621
446 0.165871419977418 0.157205011819142 0.150114629027721
447 0.326717376504475 0.154242193722422 0.209304784632828
448 0.000000000000000 -0.682882013621859 0.327074583192961
449 0.090722077385002 -0.572382011843745 0.306435776887590
450 0.177104714949969 -0.444801478832889 0.266204580442540
451 0.256593497362421 -0.303996416558074 0.227248946311621
452 0.326717376504475 -0.154242193722422 0.209304784632828
453 -0.090722077385002 -0.572382011843745 0.306435776887590
454 0.000000000000000 -0.448363394499129 0.251921156453209
455 0.086518342925099 -0.308373774995999 0.189626861213819
456 0.165871419977418 -0.157205011819142 0.150114629027721
457 -0.177104714949969 -0.444801478832889 0.266204580442540
458 -0.086518342925099 -0.308373774995999 0.189626861213819
459 0.000000000000000 -0.158240030475977 0.126572768075875
460 -0.256593497362421 -0.303996416558074 0.227248946311621
461 -0.165871419977418 -0.157205011819142 0.150114629027721
462 -0.326717376504475 -0.154242193722422 0.209304784632828
463 0.000000000000000 0.682882013621859 -0.327074583192961
464 0.090722077385002 0.572382011843745 -0.306435776887590
465 0.177104714949969 0.444801478832889 -0.266204580442540
466 0.256593497362421 0.303996416558074 -0.227248946311621
467 0.326717376504475 0.154242193722422 -0.209304784632828
468 -0.090722077385002 0.572382011843745 -0.306435776887590
469 0.000000000000000 0.448363394499129 -0.251921156453209
470 0.086518342925099 0.308373774995999 -0.189626861213819
471 0.165871419977418 0.157205011819142 -0.150114629027721
472 -0.177104714949969 0.444801478832889 -0.266204580442540
473 -0.086518342925099 0.308373774995999 -0.189626861213819
474 0.000000000000000 0.158240030475977 -0.126572768075875
475 -0.256593497362421 0.303996416558074 -0.227248946311621
476 -0.165871419977418 0.157205011819142 -0.150114629027721
477 -0.326717376504475 0.154242193722422 -0.209304784632828
478 0.000000000000000 -0.682882013621859 -0.327074583192961
479 -0.090722077385002 -0.572382011843745 -0.306435776887590
480 -0.177104714949969 -0.444801478832889 -0.266204580442540
481 -0.256593497362421 -0.303996416558074 -0.227248946311621
482 -0.326717376504475 -0.154242193722422 -0.209304784632828
483 0.090722077385002 -0.572382011843745 -0.306435776887590
484 0.000000000000000 -0.448363394499129 -0.251921156453209
485 -0.086518342925099 -0.308373774995999 -0.189626861213819
486 -0.165871419977418 -0.157205011819142 -0.150114629027721
487 0.177104714949969 -0.444801478832889 -0.266204580442540
488 0.086518342925099 -0.308373774995999 -0.189626861213819
489 0.000000000000000 -0.158240030475977 -0.126572768075875
490 0.256593497362421 -0.303996416558074 -0.227248946311621
491 0.165871419977418 -0.157205011819142 -0.150114629027721
492 0.326717376504475 -0.154242193722422 -0.209304784632828
$EndNodes
$Elements
980
1 2 3 0 1 0 1 13 19
2 2 3 0 1 0 13 14 193
3 2 3 0 1 0 14 15 194
4 2 3 0 1 0 15 16 195
5 2 3 0 1 0 16 17 196
6 2 3 0 1 0 17 18 197
7 2 3 0 1 0 18 9 30
8 2 3 0 1 0 19 193 20
9 2 3 0 1 0 193 194 198
10 2 3 0 1 0 194 195 199
11 2 3 0 1 0 195 196 200
12 2 3 0 1 0 196 197 201
13 2 3 0 1 0 197 30 29
14 2 3 0 1 0 20 198 21
15 2 3 0 1 0 198 199 202
16 2 3 0 1 0 199 200 203
17 2 3 0 1 0 200 201 204
18 2 3 0 1 0 201 29 28
19 2 3 0 1 0 21 202 22
20 2 3 0 1 0 202 203 205
21 2 3 0 1 0 203 204 206
22 2 3 0 1 0 204 28 27
23 2 3 0 1 0 22 205 23
24 2 3 0 1 0 205 206 207
25 2 3 0 1 0 206 27 26
26 2 3 0 1 0 23 207 24
27 2 3 0 1 0 207 26 25
28 2 3 0 1 0 24 25 5
29 2 3 0 1 0 19 13 193
30 2 3 0 1 0 193 14 194
31 2 3 0 1 0 194 15 195
32 2 3 0 1 0 195 16 196
33 2 3 0 1 0 196 17 197
34 2 3 0 1 0 197 18 30
35 2 3 0 1 0 20 193 198
36 2 3 0 1 0 198 194 199
37 2 3 0 1 0 199 195 200
38 2 3 0 1 0 200 196 201
39 2 3 0 1 0 201 197 29
40 2 3 0 1 0 21 198 202
41 2 3 0 1 0 202 199 203
42 2 3 0 1 0 203 200 204
43 2 3 0 1 0 204 201 28
44 2 3 0 1 0 22 202 205
45 2 3 0 1 0 205 203 206
46 2 3 0 1 0 206 204 27
47 2 3 0 1 0 23 205 207
48 2 3 0 1 0 207 206 26
49 2 3 0 1 0 24 207 25
50 2 3 0 1 0 1 31 37
51 2 3 0 1 0 31 32 208
52 2 3 0 1 0 32 33 209
53 2 3 0 1 0 33 34 210
54 2 3 0 1 0 34 35 211
55 2 3 0 1 0 35 36 212
56 2 3 0 1 0 36 6 43
57 2 3 0 1 0 37 208 38
58 2 3 0 1 0 208 209 213
59 2 3 0 1 0 209 210 214
60 2 3 0 1 0 210 211 215
61 2 3 0 1 0 211 212 216
62 2 3 0 1 0 212 43 44
63 2 3 0 1 0 38 213 39
64 2 3 0 1 0 213 214 217
65 2 3 0 1 0 214 215 218
66 2 3 0 1 0 215 216 219
67 2 3 0 1 0 216 44 45
68 2 3 0 1 0 39 217 40
69 2 3 0 1 0 217 218 220
70 2 3 0 1 0 218 219 221
71 2 3 0 1 0 219 45 46
72 2 3 0 1 0 40 220 41
73 2 3 0 1 0 220 221 222
74 2 3 0 1 0 221 46 47
75 2 3 0 1 0 41 222 42
76 2 3 0 1 0 222 47 48
77 2 3 0 1 0 42 48 11
78 2 3 0 1 0 37 31 208
79 2 3 0 1 0 208 32 209
80 2 3 0 1 0 209 33 210
81 2 3 0 1 0 210 34 211
82 2 3 0 1 0 211 35 212
83 2 3 0 1 0 212 36 43
84 2 3 0 1 0 38 208 213
85 2 3 0 1 0 213 209 214
86 2 3 0 1 0 214 210 215
87 2 3 0 1 0 215 211 216
88 2 3 0 1 0 216 212 44
89 2 3 0 1 0 39 213 217
90 2 3 0 1 0 217 214 218
91 2 3 0 1 0 218 215 219
92 2 3 0 1 0 219 216 45
93 2 3 0 1 0 40 217 220
94 2 3 0 1 0 220 218 221
95 2 3 0 1 0 221 219 46
96 2 3 0 1 0 41 220 222
97 2 3 0 1 0 222 221 47
98 2 3 0 1 0 42 222 48
99 2 3 0 1 0 3 49 55
100 2 3 0 1 0 49 50 223
101 2 3 0 1 0 50 51 224
102 2 3 0 1 0 51 52 225
103 2 3 0 1 0 52 53 226
104 2 3 0 1 0 53 54 227
105 2 3 0 1 0 54 5 61
106 2 3 0 1 0 55 223 56
107 2 3 0 1 0 223 224 228
108 2 3 0 1 0 224 225 229
109 2 3 0 1 0 225 226 230
110 2 3 0 1 0 226 227 231
111 2 3 0 1 0 227 61 62
112 2 3 0 1 0 56 228 57
113 2 3 0 1 0 228 229 232
114 2 3 0 1 0 229 230 233
115 2 3 0 1 0 230 231 234
116 2 3 0 1 0 231 62 63
117 2 3 0 1 0 57 232 58
118 2 3 0 1 0 232 233 235
119 2 3 0 1 0 233 234 236
120 2 3 0 1 0 234 63 64
121 2 3 0 1 0 58 235 59
122 2 3 0 1 0 235 236 237
123 2 3 0 1 0 236 64 65
124 2 3 0 1 0 59 237 60
125 2 3 0 1 0 237 65 66
126 2 3 0 1 0 60 66 10
127 2 3 0 1 0 55 49 223
128 2 3 0 1 0 223 50 224
129 2 3 0 1 0 224 51 225
130 2 3 0 1 0 225 52 226
131 2 3 0 1 0 226 53 227
132 2 3 0 1 0 227 54 61
133 2 3 0 1 0 56 223 228
134 2 3 0 1 0 228 224 229
135 2 3 0 1 0 229 225 230
136 2 3 0 1 0 230 226 231
137 2 3 0 1 0 231 227 62
138 2 3 0 1 0 57 228 232
139 2 3 0 1 0 232 229 233
140 2 3 0 1 0 233 230 234
141 2 3 0 1 0 234 231 63
142 2 3 0 1 0 58 232 235
143 2 3 0 1 0 235 233 236
144 2 3 0 1 0 236 234 64
145 2 3 0 1 0 59 235 237
146 2 3 0 1 0 237 236 65
147 2 3 0 1 0 60 237 66
148 2 3 0 1 0 3 67 73
149 2 3 0 1 0 67 68 238
150 2 3 0 1 0 68 69 239
151 2 3 0 1 0 69 70 240
152 2 3 0 1 0 70 71 241
153 2 3 0 1 0 71 72 242
154 2 3 0 1 0 72 12 84
155 2 3 0 1 0 73 238 74
156 2 3 0 1 0 238 239 243
157 2 3 0 1 0 239 240 244
158 2 3 0 1 0 240 241 245
159 2 3 0 1 0 241 242 246
160 2 3 0 1 0 242 84 83
161 2 3 0 1 0 74 243 75
162 2 3 0 1 0 243 244 247
163 2 3 0 1 0 244 245 248
164 2 3 0 1 0 245 246 249
165 2 3 0 1 0 246 83 82
166 2 3 0 1 0 75 247 76
167 2 3 0 1 0 247 248 250
168 2 3 0 1 0 248 249 251
169 2 3 0 1 0 249 82 81
170 2 3 0 1 0 76 250 77
171 2 3 0 1 0 250 251 252
172 2 3 0 1 0 251 81 80
173 2 3 0 1 0 77 252 78
174 2 3 0 1 0 252 80 79
175 2 3 0 1 0 78 79 6
176 2 3 0 1 0 73 67 238
177 2 3 0 1 0 238 68 239
178 2 3 0 1 0 239 69 240
179 2 3 0 1 0 240 70 241
180 2 3 0 1 0 241 71 242
181 2 3 0 1 0 242 72 84
182 2 3 0 1 0 74 238 243
183 2 3 0 1 0 243 239 244
184 2 3 0 1 0 244 240 245
185 2 3 0 1 0 245 241 246
186 2 3 0 1 0 246 242 83
187 2 3 0 1 0 75 243 247
188 2 3 0 1 0 247 244 248
189 2 3 0 1 0 248 245 249
190 2 3 0 1 0 249 246 82
191 2 3 0 1 0 76 247 250
192 2 3 0 1 0 250 248 251
193 2 3 0 1 0 251 249 81
194 2 3 0 1 0 77 250 252
195 2 3 0 1 0 252 251 80
196 2 3 0 1 0 78 252 79
197 2 3 0 1 0 2 85 91
198 2 3 0 1 0 85 86 253
199 2 3 0 1 0 86 87 254
200 2 3 0 1 0 87 88 255
201 2 3 0 1 0 88 89 256
202 2 3 0 1 0 89 90 257
203 2 3 0 1 0 90 7 97
204 2 3 0 1 0 91 253 92
205 2 3 0 1 0 253 254 258
206 2 3 0 1 0 254 255 259
207 2 3 0 1 0 255 256 260
208 2 3 0 1 0 256 257 261
209 2 3 0 1 0 257 97 98
210 2 3 0 1 0 92 258 93
211 2 3 0 1 0 258 259 262
212 2 3 0 1 0 259 260 263
213 2 3 0 1 0 260 261 264
214 2 3 0 1 0 261 98 99
215 2 3 0 1 0 93 262 94
216 2 3 0 1 0 262 263 265
217 2 3 0 1 0 263 264 266
218 2 3 0 1 0 264 99 100
219 2 3 0 1 0 94 265 95
220 2 3 0 1 0 265 266 267
221 2 3 0 1 0 266 100 101
222 2 3 0 1 0 95 267 96
223 2 3 0 1 0 267 101 102
224 2 3 0 1 0 96 102 9
225 2 3 0 1 0 91 85 253
226 2 3 0 1 0 253 86 254
227 2 3 0 1 0 254 87 255
228 2 3 0 1 0 255 88 256
229 2 3 0 1 0 256 89 257
230 2 3 0 1 0 257 90 97
231 2 3 0 1 0 92 253 258
232 2 3 0 1 0 258 254 259
233 2 3 0 1 0 259 255 260
234 2 3 0 1 0 260 256 261
235 2 3 0 1 0 261 257 98
236 2 3 0 1 0 93 258 262
237 2 3 0 1 0 262 259 263
238 2 3 0 1 0 263 260 264
239 2 3 0 1 0 264 261 99
240 2 3 0 1 0 94 262 265
241 2 3 0 1 0 265 263 266
242 2 3 0 1 0 266 264 100
243 2 3 0 1 0 95 265 267
244 2 3 0 1 0 267 266 101
245 2 3 0 1 0 96 267 102
246 2 3 0 1 0 2 103 109
247 2 3 0 1 0 103 104 268
248 2 3 0 1 0 104 105 269
249 2 3 0 1 0 105 106 270
250 2 3 0 1 0 106 107 271
251 2 3 0 1 0 107 108 272
252 2 3 0 1 0 108 11 120
253 2 3 0 1 0 109 268 110
254 2 3 0 1 0 268 269 273
255 2 3 0 1 0 269 270 274
256 2 3 0 1 0 270 271 275
257 2 3 0 1 0 271 272 276
258 2 3 0 1 0 272 120 119
259 2 3 0 1 0 110 273 111
260 2 3 0 1 0 273 274 277
261 2 3 0 1 0 274 275 278
262 2 3 0 1 0 275 276 279
263 2 3 0 1 0 276 119 118
264 2 3 0 1 0 111 277 112
265 2 3 0 1 0 277 278 280
266 2 3 0 1 0 278 279 281
267 2 3 0 1 0 279 118 117
268 2 3 0 1 0 112 280 113
269 2 3 0 1 0 280 281 282
270 2 3 0 1 0 281 117 116
271 2 3 0 1 0 113 282 114
272 2 3 0 1 0 282 116 115
273 2 3 0 1 0 114 115 8
274 2 3 0 1 0 109 103 268
275 2 3 0 1 0 268 104 269
276 2 3 0 1 0 269 105 270
277 2 3 0 1 0 270 106 271
278 2 3 0 1 0 271 107 272
279 2 3 0 1 0 272 108 120
280 2 3 0 1 0 110 268 273
281 2 3 0 1 0 273 269 274
282 2 3 0 1 0 274 270 275
283 2 3 0 1 0 275 271 276
284 2 3 0 1 0 276 272 119
285 2 3 0 1 0 111 273 277
286 2 3 0 1 0 277 274 278
287 2 3 0 1 0 278 275 279
288 2 3 0 1 0 279 276 118
289 2 3 0 1 0 112 277 280
290 2 3 0 1 0 280 278 281
291 2 3 0 1 0 281 279 117
292 2 3 0 1 0 113 280 282
293 2 3 0 1 0 282 281 116
294 2 3 0 1 0 114 282 115
295 2 3 0 1 0 4 121 127
296 2 3 0 1 0 121 122 283
297 2 3 0 1 0 122 123 284
298 2 3 0 1 0 123 124 285
299 2 3 0 1 0 124 125 286
300 2 3 0 1 0 125 126 287
301 2 3 0 1 0 126 10 138
302 2 3 0 1 0 127 283 128
303 2 3 0 1 0 283 284 288
304 2 3 0 1 0 284 285 289
305 2 3 0 1 0 285 286 290
306 2 3 0 1 0 286 287 291
307 2 3 0 1 0 287 138 137
308 2 3 0 1 0 128 288 129
309 2 3 0 1 0 288 289 292
310 2 3 0 1 0 289 290 293
311 2 3 0 1 0 290 291 294
312 2 3 0 1 0 291 137 136
313 2 3 0 1 0 129 292 130
314 2 3 0 1 0 292 293 295
315 2 3 0 1 0 293 294 296
316 2 3 0 1 0 294 136 135
317 2 3 0 1 0 130 295 131
318 2 3 0 1 0 295 296 297
319 2 3 0 1 0 296 135 134
320 2 3 0 1 0 131 297 132
321 2 3 0 1 0 297 134 133
322 2 3 0 1 0 132 133 7
323 2 3 0 1 0 127 121 283
324 2 3 0 1 0 283 122 284
325 2 3 0 1 0 284 123 285
326 2 3 0 1 0 285 124 286
327 2 3 0 1 0 286 125 287
328 2 3 0 1 0 287 126 138
329 2 3 0 1 0 128 283 288
330 2 3 0 1 0 288 284 289
331 2 3 0 1 0 289 285 290
332 2 3 0 1 0 290 286 291
333 2 3 0 1 0 291 287 137
334 2 3 0 1 0 129 288 292
335 2 3 0 1 0 292 289 293
336 2 3 0 1 0 293 290 294
337 2 3 0 1 0 294 291 136
338 2 3 0 1 0 130 292 295
339 2 3 0 1 0 295 293 296
340 2 3 0 1 0 296 294 135
341 2 3 0 1 0 131 295 297
342 2 3 0 1 0 297 296 134
343 2 3 0 1 0 132 297 133
344 2 3 0 1 0 4 139 145
345 2 3 0 1 0 139 140 298
346 2 3 0 1 0 140 141 299
347 2 3 0 1 0 141 142 300
348 2 3 0 1 0 142 143 301
349 2 3 0 1 0 143 144 302
350 2 3 0 1 0 144 8 151
351 2 3 0 1 0 145 298 146
352 2 3 0 1 0 298 299 303
353 2 3 0 1 0 299 300 304
354 2 3 0 1 0 300 301 305
355 2 3 0 1 0 301 302 306
356 2 3 0 1 0 302 151 152
357 2 3 0 1 0 146 303 147
358 2 3 0 1 0 303 304 307
359 2 3 0 1 0 304 305 308
360 2 3 0 1 0 305 306 309
361 2 3 0 1 0 306 152 153
362 2 3 0 1 0 147 307 148
363 2 3 0 1 0 307 308 310
364 2 3 0 1 0 308 309 311
365 2 3 0 1 0 309 153 154
366 2 3 0 1 0 148 310 149
367 2 3 0 1 0 310 311 312
368 2 3 0 1 0 311 154 155
369 2 3 0 1 0 149 312 150
370 2 3 0 1 0 312 155 156
371 2 3 0 1 0 150 156 12
372 2 3 0 1 0 145 139 298
373 2 3 0 1 0 298 140 299
374 2 3 0 1 0 299 141 300
375 2 3 0 1 0 300 142 301
376 2 3 0 1 0 301 143 302
377 2 3 0 1 0 302 144 151
378 2 3 0 1 0 146 298 303
379 2 3 0 1 0 303 299 304
380 2 3 0 1 0 304 300 305
381 2 3 0 1 0 305 301 306
382 2 3 0 1 0 306 302 152
383 2 3 0 1 0 147 303 307
384 2 3 0 1 0 307 304 308
385 2 3 0 1 0 308 305 309
386 2 3 0 1 0 309 306 153
387 2 3 0 1 0 148 307 310
388 2 3 0 1 0 310 308 311
389 2 3 0 1 0 311 309 154
390 2 3 0 1 0 149 310 312
391 2 3 0 1 0 312 311 155
392 2 3 0 1 0 150 312 156
393 2 3 0 1 0 1 37 13
394 2 3 0 1 0 37 38 313
395 2 3 0 1 0 38 39 314
396 2 3 0 1 0 39 40 315
397 2 3 0 1 0 40 41 316
398 2 3 0 1 0 41 42 317
399 2 3 0 1 0 42 11 162
400 2 3 0 1 0 13 313 14
401 2 3 0 1 0 313 314 318
402 2 3 0 1 0 314 315 319
403 2 3 0 1 0 315 316 320
404 2 3 0 1 0 316 317 321
405 2 3 0 1 0 317 162 161
406 2 3 0 1 0 14 318 15
407 2 3 0 1 0 318 319 322
408 2 3 0 1 0 319 320 323
409 2 3 0 1 0 320 321 324
410 2 3 0 1 0 321 161 160
411 2 3 0 1 0 15 322 16
412 2 3 0 1 0 322 323 325
413 2 3 0 1 0 323 324 326
414 2 3 0 1 0 324 160 159
415 2 3 0 1 0 16 325 17
416 2 3 0 1 0 325 326 327
417 2 3 0 1 0 326 159 158
418 2 3 0 1 0 17 327 18
419 2 3 0 1 0 327 158 157
420 2 3 0 1 0 18 157 9
421 2 3 0 1 0 13 37 313
422 2 3 0 1 0 313 38 314
423 2 3 0 1 0 314 39 315
424 2 3 0 1 0 315 40 316
425 2 3 0 1 0 316 41 317
426 2 3 0 1 0 317 42 162
427 2 3 0 1 0 14 313 318
428 2 3 0 1 0 318 314 319
429 2 3 0 1 0 319 315 320
430 2 3 0 1 0 320 316 321
431 2 3 0 1 0 321 317 161
432 2 3 0 1 0 15 318 322
433 2 3 0 1 0 322 319 323
434 2 3 0 1 0 323 320 324
435 2 3 0 1 0 324 321 160
436 2 3 0 1 0 16 322 325
437 2 3 0 1 0 325 323 326
438 2 3 0 1 0 326 324 159
439 2 3 0 1 0 17 325 327
440 2 3 0 1 0 327 326 158
441 2 3 0 1 0 18 327 157
442 2 3 0 1 0 2 91 103
443 2 3 0 1 0 91 92 328
444 2 3 0 1 0 92 93 329
445 2 3 0 1 0 93 94 330
446 2 3 0 1 0 94 95 331
447 2 3 0 1 0 95 96 332
448 2 3 0 1 0 96 9 157
449 2 3 0 1 0 103 328 104
450 2 3 0 1 0 328 329 333
451 2 3 0 1 0 329 330 334
452 2 3 0 1 0 330 331 335
453 2 3 0 1 0 331 332 336
454 2 3 0 1 0 332 157 158
455 2 3 0 1 0 104 333 105
456 2 3 0 1 0 333 334 337
457 2 3 0 1 0 334 335 338
458 2 3 0 1 0 335 336 339
459 2 3 0 1 0 336 158 159
460 2 3 0 1 0 105 337 106
461 2 3 0 1 0 337 338 340
462 2 3 0 1 0 338 339 341
463 2 3 0 1 0 339 159 160
464 2 3 0 1 0 106 340 107
465 2 3 0 1 0 340 341 342
466 2 3 0 1 0 341 160 161
467 2 3 0 1 0 107 342 108
468 2 3 0 1 0 342 161 162
469 2 3 0 1 0 108 162 11
470 2 3 0 1 0 103 91 328
471 2 3 0 1 0 328 92 329
472 2 3 0 1 0 329 93 330
473 2 3 0 1 0 330 94 331
474 2 3 0 1 0 331 95 332
475 2 3 0 1 0 332 96 157
476 2 3 0 1 0 104 328 333
477 2 3 0 1 0 333 329 334
478 2 3 0 1 0 334 330 335
479 2 3 0 1 0 335 331 336
480 2 3 0 1 0 336 332 158
481 2 3 0 1 0 105 333 337
482 2 3 0 1 0 337 334 338
483 2 3 0 1 0 338 335 339
484 2 3 0 1 0 339 336 159
485 2 3 0 1 0 106 337 340
486 2 3 0 1 0 340 338 341
487 2 3 0 1 0 341 339 160
488 2 3 0 1 0 107 340 342
489 2 3 0 1 0 342 341 161
490 2 3 0 1 0 108 342 162
491 2 3 0 1 0 3 55 67
492 2 3 0 1 0 55 56 343
493 2 3 0 1 0 56 57 344
494 2 3 0 1 0 57 58 345
495 2 3 0 1 0 58 59 346
496 2 3 0 1 0 59 60 347
497 2 3 0 1 0 60 10 163
498 2 3 0 1 0 67 343 68
499 2 3 0 1 0 343 344 348
500 2 3 0 1 0 344 345 349
501 2 3 0 1 0 345 346 350
502 2 3 0 1 0 346 347 351
503 2 3 0 1 0 347 163 164
504 2 3 0 1 0 68 348 69
505 2 3 0 1 0 348 349 352
506 2 3 0 1 0 349 350 353
507 2 3 0 1 0 350 351 354
508 2 3 0 1 0 351 164 165
509 2 3 0 1 0 69 352 70
510 2 3 0 1 0 352 353 355
511 2 3 0 1 0 353 354 356
512 2 3 0 1 0 354 165 166
513 2 3 0 1 0 70 355 71
514 2 3 0 1 0 355 356 357
515 2 3 0 1 0 356 166 167
516 2 3 0 1 0 71 357 72
517 2 3 0 1 0 357 167 168
518 2 3 0 1 0 72 168 12
519 2 3 0 1 0 67 55 343
520 2 3 0 1 0 343 56 344
521 2 3 0 1 0 344 57 345
522 2 3 0 1 0 345 58 346
523 2 3 0 1 0 346 59 347
524 2 3 0 1 0 347 60 163
525 2 3 0 1 0 68 343 348
526 2 3 0 1 0 348 344 349
527 2 3 0 1 0 349 345 350
528 2 3 0 1 0 350 346 351
529 2 3 0 1 0 351 347 164
530 2 3 0 1 0 69 348 352
531 2 3 0 1 0 352 349 353
532 2 3 0 1 0 353 350 354
533 2 3 0 1 0 354 351 165
534 2 3 0 1 0 70 352 355
535 2 3 0 1 0 355 353 356
536 2 3 0 1 0 356 354 166
537 2 3 0 1 0 71 355 357
538 2 3 0 1 0 357 356 167
539 2 3 0 1 0 72 357 168
540 2 3 0 1 0 4 121 145
541 2 3 0 1 0 121 122 358
542 2 3 0 1 0 122 123 359
543 2 3 0 1 0 123 124 360
544 2 3 0 1 0 124 125 361
545 2 3 0 1 0 125 126 362
546 2 3 0 1 0 126 10 163
547 2 3 0 1 0 145 358 146
548 2 3 0 1 0 358 359 363
549 2 3 0 1 0 359 360 364
550 2 3 0 1 0 360 361 365
551 2 3 0 1 0 361 362 366
552 2 3 0 1 0 362 163 164
553 2 3 0 1 0 146 363 147
554 2 3 0 1 0 363 364 367
555 2 3 0 1 0 364 365 368
556 2 3 0 1 0 365 366 369
557 2 3 0 1 0 366 164 165
558 2 3 0 1 0 147 367 148
559 2 3 0 1 0 367 368 370
560 2 3 0 1 0 368 369 371
561 2 3 0 1 0 369 165 166
562 2 3 0 1 0 148 370 149
563 2 3 0 1 0 370 371 372
564 2 3 0 1 0 371 166 167
565 2 3 0 1 0 149 372 150
566 2 3 0 1 0 372 167 168
567 2 3 0 1 0 150 168 12
568 2 3 0 1 0 145 121 358
569 2 3 0 1 0 358 122 359
570 2 3 0 1 0 359 123 360
571 2 3 0 1 0 360 124 361
572 2 3 0 1 0 361 125 362
573 2 3 0 1 0 362 126 163
574 2 3 0 1 0 146 358 363
575 2 3 0 1 0 363 359 364
576 2 3 0 1 0 364 360 365
577 2 3 0 1 0 365 361 366
578 2 3 0 1 0 366 362 164
579 2 3 0 1 0 147 363 367
580 2 3 0 1 0 367 364 368
581 2 3 0 1 0 368 365 369
582 2 3 0 1 0 369 366 165
583 2 3 0 1 0 148 367 370
584 2 3 0 1 0 370 368 371
585 2 3 0 1 0 371 369 166
586 2 3 0 1 0 149 370 372
587 2 3 0 1 0 372 371 167
588 2 3 0 1 0 150 372 168
589 2 3 0 1 0 5 54 24
590 2 3 0 1 0 54 53 373
591 2 3 0 1 0 53 52 374
592 2 3 0 1 0 52 51 375
593 2 3 0 1 0 51 50 376
594 2 3 0 1 0 50 49 377
595 2 3 0 1 0 49 3 174
596 2 3 0 1 0 24 373 23
597 2 3 0 1 0 373 374 378
598 2 3 0 1 0 374 375 379
599 2 3 0 1 0 375 376 380
600 2 3 0 1 0 376 377 381
601 2 3 0 1 0 377 174 173
602 2 3 0 1 0 23 378 22
603 2 3 0 1 0 378 379 382
604 2 3 0 1 0 379 380 383
605 2 3 0 1 0 380 381 384
606 2 3 0 1 0 381 173 172
607 2 3 0 1 0 22 382 21
608 2 3 0 1 0 382 383 385
609 2 3 0 1 0 383 384 386
610 2 3 0 1 0 384 172 171
611 2 3 0 1 0 21 385 20
612 2 3 0 1 0 385 386 387
613 2 3 0 1 0 386 171 170
614 2 3 0 1 0 20 387 19
615 2 3 0 1 0 387 170 169
616 2 3 0 1 0 19 169 1
617 2 3 0 1 0 24 54 373
618 2 3 0 1 0 373 53 374
619 2 3 0 1 0 374 52 375
620 2 3 0 1 0 375 51 376
621 2 3 0 1 0 376 50 377
622 2 3 0 1 0 377 49 174
623 2 3 0 1 0 23 373 378
624 2 3 0 1 0 378 374 379
625 2 3 0 1 0 379 375 380
626 2 3 0 1 0 380 376 381
627 2 3 0 1 0 381 377 173
628 2 3 0 1 0 22 378 382
629 2 3 0 1 0 382 379 383
630 2 3 0 1 0 383 380 384
631 2 3 0 1 0 384 381 172
632 2 3 0 1 0 21 382 385
633 2 3 0 1 0 385 383 386
634 2 3 0 1 0 386 384 171
635 2 3 0 1 0 20 385 387
636 2 3 0 1 0 387 386 170
637 2 3 0 1 0 19 387 169
638 2 3 0 1 0 6 36 78
639 2 3 0 1 0 36 35 388
640 2 3 0 1 0 35 34 389
641 2 3 0 1 0 34 33 390
642 2 3 0 1 0 33 32 391
643 2 3 0 1 0 32 31 392
644 2 3 0 1 0 31 1 169
645 2 3 0 1 0 78 388 77
646 2 3 0 1 0 388 389 393
647 2 3 0 1 0 389 390 394
648 2 3 0 1 0 390 391 395
649 2 3 0 1 0 391 392 396
650 2 3 0 1 0 392 169 170
651 2 3 0 1 0 77 393 76
652 2 3 0 1 0 393 394 397
653 2 3 0 1 0 394 395 398
654 2 3 0 1 0 395 396 399
655 2 3 0 1 0 396 170 171
656 2 3 0 1 0 76 397 75
657 2 3 0 1 0 397 398 400
658 2 3 0 1 0 398 399 401
659 2 3 0 1 0 399 171 172
660 2 3 0 1 0 75 400 74
661 2 3 0 1 0 400 401 402
662 2 3 0 1 0 401 172 173
663 2 3 0 1 0 74 402 73
664 2 3 0 1 0 402 173 174
665 2 3 0 1 0 73 174 3
666 2 3 0 1 0 78 36 388
667 2 3 0 1 0 388 35 389
668 2 3 0 1 0 389 34 390
669 2 3 0 1 0 390 33 391
670 2 3 0 1 0 391 32 392
671 2 3 0 1 0 392 31 169
672 2 3 0 1 0 77 388 393
673 2 3 0 1 0 393 389 394
674 2 3 0 1 0 394 390 395
675 2 3 0 1 0 395 391 396
676 2 3 0 1 0 396 392 170
677 2 3 0 1 0 76 393 397
678 2 3 0 1 0 397 394 398
679 2 3 0 1 0 398 395 399
680 2 3 0 1 0 399 396 171
681 2 3 0 1 0 75 397 400
682 2 3 0 1 0 400 398 401
683 2 3 0 1 0 401 399 172
684 2 3 0 1 0 74 400 402
685 2 3 0 1 0 402 401 173
686 2 3 0 1 0 73 402 174
687 2 3 0 1 0 7 90 132
688 2 3 0 1 0 90 89 403
689 2 3 0 1 0 89 88 404
690 2 3 0 1 0 88 87 405
691 2 3 0 1 0 87 86 406
692 2 3 0 1 0 86 85 407
693 2 3 0 1 0 85 2 175
694 2 3 0 1 0 132 403 131
695 2 3 0 1 0 403 404 408
696 2 3 0 1 0 404 405 409
697 2 3 0 1 0 405 406 410
698 2 3 0 1 0 406 407 411
699 2 3 0 1 0 407 175 176
700 2 3 0 1 0 131 408 130
701 2 3 0 1 0 408 409 412
702 2 3 0 1 0 409 410 413
703 2 3 0 1 0 410 411 414
704 2 3 0 1 0 411 176 177
705 2 3 0 1 0 130 412 129
706 2 3 0 1 0 412 413 415
707 2 3 0 1 0 413 414 416
708 2 3 0 1 0 414 177 178
709 2 3 0 1 0 129 415 128
710 2 3 0 1 0 415 416 417
711 2 3 0 1 0 416 178 179
712 2 3 0 1 0 128 417 127
713 2 3 0 1 0 417 179 180
714 2 3 0 1 0 127 180 4
715 2 3 0 1 0 132 90 403
716 2 3 0 1 0 403 89 404
717 2 3 0 1 0 404 88 405
718 2 3 0 1 0 405 87 406
719 2 3 0 1 0 406 86 407
720 2 3 0 1 0 407 85 175
721 2 3 0 1 0 131 403 408
722 2 3 0 1 0 408 404 409
723 2 3 0 1 0 409 405 410
724 2 3 0 1 0 410 406 411
725 2 3 0 1 0 411 407 176
726 2 3 0 1 0 130 408 412
727 2 3 0 1 0 412 409 413
728 2 3 0 1 0 413 410 414
729 2 3 0 1 0 414 411 177
730 2 3 0 1 0 129 412 415
731 2 3 0 1 0 415 413 416
732 2 3 0 1 0 416 414 178
733 2 3 0 1 0 128 415 417
734 2 3 0 1 0 417 416 179
735 2 3 0 1 0 127 417 180
736 2 3 0 1 0 8 144 114
737 2 3 0 1 0 144 143 418
738 2 3 0 1 0 143 142 419
739 2 3 0 1 0 142 141 420
740 2 3 0 1 0 141 140 421
741 2 3 0 1 0 140 139 422
742 2 3 0 1 0 139 4 180
743 2 3 0 1 0 114 418 113
744 2 3 0 1 0 418 419 423
745 2 3 0 1 0 419 420 424
746 2 3 0 1 0 420 421 425
747 2 3 0 1 0 421 422 426
748 2 3 0 1 0 422 180 179
749 2 3 0 1 0 113 423 112
750 2 3 0 1 0 423 424 427
751 2 3 0 1 0 424 425 428
752 2 3 0 1 0 425 426 429
753 2 3 0 1 0 426 179 178
754 2 3 0 1 0 112 427 111
755 2 3 0 1 0 427 428 430
756 2 3 0 1 0 428 429 431
757 2 3 0 1 0 429 178 177
758 2 3 0 1 0 111 430 110
759 2 3 0 1 0 430 431 432
760 2 3 0 1 0 431 177 176
761 2 3 0 1 0 110 432 109
762 2 3 0 1 0 432 176 175
763 2 3 0 1 0 109 175 2
764 2 3 0 1 0 114 144 418
765 2 3 0 1 0 418 143 419
766 2 3 0 1 0 419 142 420
767 2 3 0 1 0 420 141 421
768 2 3 0 1 0 421 140 422
769 2 3 0 1 0 422 139 180
770 2 3 0 1 0 113 418 423
771 2 3 0 1 0 423 419 424
772 2 3 0 1 0 424 420 425
773 2 3 0 1 0 425 421 426
774 2 3 0 1 0 426 422 179
775 2 3 0 1 0 112 423 427
776 2 3 0 1 0 427 424 428
777 2 3 0 1 0 428 425 429
778 2 3 0 1 0 429 426 178
779 2 3 0 1 0 111 427 430
780 2 3 0 1 0 430 428 431
781 2 3 0 1 0 431 429 177
782 2 3 0 1 0 110 430 432
783 2 3 0 1 0 432 431 176
784 2 3 0 1 0 109 432 175
785 2 3 0 1 0 9 102 30
786 2 3 0 1 0 102 101 433
787 2 3 0 1 0 101 100 434
788 2 3 0 1 0 100 99 435
789 2 3 0 1 0 99 98 436
790 2 3 0 1 0 98 97 437
791 2 3 0 1 0 97 7 186
792 2 3 0 1 0 30 433 29
793 2 3 0 1 0 433 434 438
794 2 3 0 1 0 434 435 439
795 2 3 0 1 0 435 436 440
796 2 3 0 1 0 436 437 441
797 2 3 0 1 0 437 186 185
798 2 3 0 1 0 29 438 28
799 2 3 0 1 0 438 439 442
800 2 3 0 1 0 439 440 443
801 2 3 0 1 0 440 441 444
802 2 3 0 1 0 441 185 184
803 2 3 0 1 0 28 442 27
804 2 3 0 1 0 442 443 445
805 2 3 0 1 0 443 444 446
806 2 3 0 1 0 444 184 183
807 2 3 0 1 0 27 445 26
808 2 3 0 1 0 445 446 447
809 2 3 0 1 0 446 183 182
810 2 3 0 1 0 26 447 25
811 2 3 0 1 0 447 182 181
812 2 3 0 1 0 25 181 5
813 2 3 0 1 0 30 102 433
814 2 3 0 1 0 433 101 434
815 2 3 0 1 0 434 100 435
816 2 3 0 1 0 435 99 436
817 2 3 0 1 0 436 98 437
818 2 3 0 1 0 437 97 186
819 2 3 0 1 0 29 433 438
820 2 3 0 1 0 438 434 439
821 2 3 0 1 0 439 435 440
822 2 3 0 1 0 440 436 441
823 2 3 0 1 0 441 437 185
824 2 3 0 1 0 28 438 442
825 2 3 0 1 0 442 439 443
826 2 3 0 1 0 443 440 444
827 2 3 0 1 0 444 441 184
828 2 3 0 1 0 27 442 445
829 2 3 0 1 0 445 443 446
830 2 3 0 1 0 446 444 183
831 2 3 0 1 0 26 445 447
832 2 3 0 1 0 447 446 182
833 2 3 0 1 0 25 447 181
834 2 3 0 1 0 10 66 138
835 2 3 0 1 0 66 65 448
836 2 3 0 1 0 65 64 449
837 2 3 0 1 0 64 63 450
838 2 3 0 1 0 63 62 451
839 2 3 0 1 0 62 61 452
840 2 3 0 1 0 61 5 181
841 2 3 0 1 0 138 448 137
842 2 3 0 1 0 448 449 453
843 2 3 0 1 0 449 450 454
844 2 3 0 1 0 450 451 455
845 2 3 0 1 0 451 452 456
846 2 3 0 1 0 452 181 182
847 2 3 0 1 0 137 453 136
848 2 3 0 1 0 453 454 457
849 2 3 0 1 0 454 455 458
850 2 3 0 1 0 455 456 459
851 2 3 0 1 0 456 182 183
852 2 3 0 1 0 136 457 135
853 2 3 0 1 0 457 458 460
854 2 3 0 1 0 458 459 461
855 2 3 0 1 0 459 183 184
856 2 3 0 1 0 135 460 134
857 2 3 0 1 0 460 461 462
858 2 3 0 1 0 461 184 185
859 2 3 0 1 0 134 462 133
860 2 3 0 1 0 462 185 186
861 2 3 0 1 0 133 186 7
862 2 3 0 1 0 138 66 448
863 2 3 0 1 0 448 65 449
864 2 3 0 1 0 449 64 450
865 2 3 0 1 0 450 63 451
866 2 3 0 1 0 451 62 452
867 2 3 0 1 0 452 61 181
868 2 3 0 1 0 137 448 453
869 2 3 0 1 0 453 449 454
870 2 3 0 1 0 454 450 455
871 2 3 0 1 0 455 451 456
872 2 3 0 1 0 456 452 182
873 2 3 0 1 0 136 453 457
874 2 3 0 1 0 457 454 458
875 2 3 0 1 0 458 455 459
876 2 3 0 1 0 459 456 183
877 2 3 0 1 0 135 457 460
878 2 3 0 1 0 460 458 461
879 2 3 0 1 0 461 459 184
880 2 3 0 1 0 134 460 462
881 2 3 0 1 0 462 461 185
882 2 3 0 1 0 133 462 186
883 2 3 0 1 0 11 48 120
884 2 3 0 1 0 48 47 463
885 2 3 0 1 0 47 46 464
886 2 3 0 1 0 46 45 465
887 2 3 0 1 0 45 44 466
888 2 3 0 1 0 44 43 467
889 2 3 0 1 0 43 6 187
890 2 3 0 1 0 120 463 119
891 2 3 0 1 0 463 464 468
892 2 3 0 1 0 464 465 469
893 2 3 0 1 0 465 466 470
894 2 3 0 1 0 466 467 471
895 2 3 0 1 0 467 187 188
896 2 3 0 1 0 119 468 118
897 2 3 0 1 0 468 469 472
898 2 3 0 1 0 469 470 473
899 2 3 0 1 0 470 471 474
900 2 3 0 1 0 471 188 189
901 2 3 0 1 0 118 472 117
902 2 3 0 1 0 472 473 475
903 2 3 0 1 0 473 474 476
904 2 3 0 1 0 474 189 190
905 2 3 0 1 0 117 475 116
906 2 3 0 1 0 475 476 477
907 2 3 0 1 0 476 190 191
908 2 3 0 1 0 116 477 115
909 2 3 0 1 0 477 191 192
910 2 3 0 1 0 115 192 8
911 2 3 0 1 0 120 48 463
912 2 3 0 1 0 463 47 464
913 2 3 0 1 0 464 46 465
914 2 3 0 1 0 465 45 466
915 2 3 0 1 0 466 44 467
916 2 3 0 1 0 467 43 187
917 2 3 0 1 0 119 463 468
918 2 3 0 1 0 468 464 469
919 2 3 0 1 0 469 465 470
920 2 3 0 1 0 470 466 471
921 2 3 0 1 0 471 467 188
922 2 3 0 1 0 118 468 472
923 2 3 0 1 0 472 469 473
924 2 3 0 1 0 473 470 474
925 2 3 0 1 0 474 471 189
926 2 3 0 1 0 117 472 475
927 2 3 0 1 0 475 473 476
928 2 3 0 1 0 476 474 190
929 2 3 0 1 0 116 475 477
930 2 3 0 1 0 477 476 191
931 2 3 0 1 0 115 477 192
932 2 3 0 1 0 12 156 84
933 2 3 0 1 0 156 155 478
934 2 3 0 1 0 155 154 479
935 2 3 0 1 0 154 153 480
936 2 3 0 1 0 153 152 481
937 2 3 0 1 0 152 151 482
938 2 3 0 1 0 151 8 192
939 2 3 0 1 0 84 478 83
940 2 3 0 1 0 478 479 483
941 2 3 0 1 0 479 480 484
942 2 3 0 1 0 480 481 485
943 2 3 0 1 0 481 482 486
944 2 3 0 1 0 482 192 191
945 2 3 0 1 0 83 483 82
946 2 3 0 1 0 483 484 487
947 2 3 0 1 0 484 485 488
948 2 3 0 1 0 485 486 489
949 2 3 0 1 0 486 191 190
950 2 3 0 1 0 82 487 81
951 2 3 0 1 0 487 488 490
952 2 3 0 1 0 488 489 491
953 2 3 0 1 0 489 190 189
954 2 3 0 1 0 81 490 80
955 2 3 0 1 0 490 491 492
956 2 3 0 1 0 491 189 188
957 2 3 0 1 0 80 492 79
958 2 3 0 1 0 492 188 187
959 2 3 0 1 0 79 187 6
960 2 3 0 1 0 84 156 478
961 2 3 0 1 0 478 155 479
962 2 3 0 1 0 479 154 480
963 2 3 0 1 0 480 153 481
964 2 3 0 1 0 481 152 482
965 2 3 0 1 0 482 151 192
966 2 3 0 1 0 83 478 483
967 2 3 0 1 0 483 479 484
968 2 3 0 1 0 484 480 485
969 2 3 0 1 0 485 481 486
970 2 3 0 1 0 486 482 191
971 2 3 0 1 0 82 483 487
972 2 3 0 1 0 487 484 488
973 2 3 0 1 0 488 485 489
974 2 3 0 1 0 489 486 190
975 2 3 0 1 0 81 487 490
976 2 3 0 1 0 490 488 491
977 2 3 0 1 0 491 489 189
978 2 3 0 1 0 80 490 492
979 2 3 0 1 0 492 491 188
980 2 3 0 1 0 79 492 187
$EndElements
