# vtk DataFile Version 3.0
vtk output
ASCII
DATASET POLYDATA
POINTS 492 float
0.850651 0.525731 0
-0.850651 0.525731 0
0.850651 -0.525731 0
-0.850651 -0.525731 0
0.525731 0 0.286668
0.525731 0 -0.286668
-0.525731 0 0.286668
-0.525731 0 -0.286668
0 0.850651 0.280268
0 -0.850651 0.280268
0 0.850651 -0.280268
0 -0.850651 -0.280268
0.773042 0.627563 0.0502718
0.676135 0.713728 0.0997406
0.562349 0.782076 0.147153
0.434525 0.830901 0.190689
0.295854 0.858983 0.228309
0.149797 0.865621 0.258386
0.865621 0.477766 0.0815609
0.858983 0.417874 0.162265
0.830901 0.347551 0.236906
0.782076 0.268551 0.295089
0.713728 0.182848 0.32514
0.627563 0.0925794 0.320799
0.477766 0.149797 0.276055
0.417874 0.295854 0.28094
0.347551 0.434525 0.298527
0.268551 0.562349 0.318439
0.182848 0.676135 0.327565
0.0925794 0.773042 0.315884
0.865621 0.477766 -0.0815609
0.858983 0.417874 -0.162265
0.830901 0.347551 -0.236906
0.782076 0.268551 -0.295089
0.713728 0.182848 -0.32514
0.627563 0.0925794 -0.320799
0.773042 0.627563 -0.0502718
0.676135 0.713728 -0.0997406
0.562349 0.782076 -0.147153
0.434525 0.830901 -0.190689
0.295854 0.858983 -0.228309
0.149797 0.865621 -0.258386
0.477766 0.149797 -0.276055
0.417874 0.295854 -0.28094
0.347551 0.434525 -0.298527
0.268551 0.562349 -0.318439
0.182848 0.676135 -0.327565
0.0925794 0.773042 -0.315884
0.865621 -0.477766 0.0815609
0.858983 -0.417874 0.162265
0.830901 -0.347551 0.236906
0.782076 -0.268551 0.295089
0.713728 -0.182848 0.32514
0.627563 -0.0925794 0.320799
0.773042 -0.627563 0.0502718
0.676135 -0.713728 0.0997406
0.562349 -0.782076 0.147153
0.434525 -0.830901 0.190689
0.295854 -0.858983 0.228309
0.149797 -0.865621 0.258386
0.477766 -0.149797 0.276055
0.417874 -0.295854 0.28094
0.347551 -0.434525 0.298527
0.268551 -0.562349 0.318439
0.182848 -0.676135 0.327565
0.0925794 -0.773042 0.315884
0.773042 -0.627563 -0.0502718
0.676135 -0.713728 -0.0997406
0.562349 -0.782076 -0.147153
0.434525 -0.830901 -0.190689
0.295854 -0.858983 -0.228309
0.149797 -0.865621 -0.258386
0.865621 -0.477766 -0.0815609
0.858983 -0.417874 -0.162265
0.830901 -0.347551 -0.236906
0.782076 -0.268551 -0.295089
0.713728 -0.182848 -0.32514
0.627563 -0.0925794 -0.320799
0.477766 -0.149797 -0.276055
0.417874 -0.295854 -0.28094
0.347551 -0.434525 -0.298527
0.268551 -0.562349 -0.318439
0.182848 -0.676135 -0.327565
0.0925794 -0.773042 -0.315884
-0.865621 0.477766 0.0815609
-0.858983 0.417874 0.162265
-0.830901 0.347551 0.236906
-0.782076 0.268551 0.295089
-0.713728 0.182848 0.32514
-0.627563 0.0925794 0.320799
-0.773042 0.627563 0.0502718
-0.676135 0.713728 0.0997406
-0.562349 0.782076 0.147153
-0.434525 0.830901 0.190689
-0.295854 0.858983 0.228309
-0.149797 0.865621 0.258386
-0.477766 0.149797 0.276055
-0.417874 0.295854 0.28094
-0.347551 0.434525 0.298527
-0.268551 0.562349 0.318439
-0.182848 0.676135 0.327565
-0.0925794 0.773042 0.315884
-0.773042 0.627563 -0.0502718
-0.676135 0.713728 -0.0997406
-0.562349 0.782076 -0.147153
-0.434525 0.830901 -0.190689
-0.295854 0.858983 -0.228309
-0.149797 0.865621 -0.258386
-0.865621 0.477766 -0.0815609
-0.858983 0.417874 -0.162265
-0.830901 0.347551 -0.236906
-0.782076 0.268551 -0.295089
-0.713728 0.182848 -0.32514
-0.627563 0.0925794 -0.320799
-0.477766 0.149797 -0.276055
-0.417874 0.295854 -0.28094
-0.347551 0.434525 -0.298527
-0.268551 0.562349 -0.318439
-0.182848 0.676135 -0.327565
-0.0925794 0.773042 -0.315884
-0.773042 -0.627563 0.0502718
-0.676135 -0.713728 0.0997406
-0.562349 -0.782076 0.147153
-0.434525 -0.830901 0.190689
-0.295854 -0.858983 0.228309
-0.149797 -0.865621 0.258386
-0.865621 -0.477766 0.0815609
-0.858983 -0.417874 0.162265
-0.830901 -0.347551 0.236906
-0.782076 -0.268551 0.295089
-0.713728 -0.182848 0.32514
-0.627563 -0.0925794 0.320799
-0.477766 -0.149797 0.276055
-0.417874 -0.295854 0.28094
-0.347551 -0.434525 0.298527
-0.268551 -0.562349 0.318439
-0.182848 -0.676135 0.327565
-0.0925794 -0.773042 0.315884
-0.865621 -0.477766 -0.0815609
-0.858983 -0.417874 -0.162265
-0.830901 -0.347551 -0.236906
-0.782076 -0.268551 -0.295089
-0.713728 -0.182848 -0.32514
-0.627563 -0.0925794 -0.320799
-0.773042 -0.627563 -0.0502718
-0.676135 -0.713728 -0.0997406
-0.562349 -0.782076 -0.147153
-0.434525 -0.830901 -0.190689
-0.295854 -0.858983 -0.228309
-0.149797 -0.865621 -0.258386
-0.477766 -0.149797 -0.276055
-0.417874 -0.295854 -0.28094
-0.347551 -0.434525 -0.298527
-0.268551 -0.562349 -0.318439
-0.182848 -0.676135 -0.327565
-0.0925794 -0.773042 -0.315884
0 0.922839 0.21104
0 0.971989 0.128579
0 0.996875 0.0428767
0 0.996875 -0.0428767
0 0.971989 -0.128579
0 0.922839 -0.21104
0 -0.922839 0.21104
0 -0.971989 0.128579
0 -0.996875 0.0428767
0 -0.996875 -0.0428767
0 -0.971989 -0.128579
0 -0.922839 -0.21104
0.922839 0.385187 0
0.971989 0.235027 0
0.996875 0.0789996 0
0.996875 -0.0789996 0
0.971989 -0.235027 0
0.922839 -0.385187 0
-0.922839 0.385187 0
-0.971989 0.235027 0
-0.996875 0.0789996 0
-0.996875 -0.0789996 0
-0.971989 -0.235027 0
-0.922839 -0.385187 0
0.385187 0 0.221028
0.235027 0 0.152626
0.0789996 0 0.109376
-0.0789996 0 0.109376
-0.235027 0 0.152626
-0.385187 0 0.221028
0.385187 0 -0.221028
0.235027 0 -0.152626
0.0789996 0 -0.109376
-0.0789996 0 -0.109376
-0.235027 0 -0.152626
-0.385187 0 -0.221028
0.778209 0.576286 0.136635
0.66954 0.657748 0.189343
0.542599 0.719704 0.236198
0.401154 0.760262 0.273791
0.249569 0.778209 0.300198
0.760262 0.510957 0.219533
0.638949 0.585478 0.26835
0.498959 0.638949 0.303386
0.345085 0.66954 0.322374
0.719704 0.433142 0.287329
0.585478 0.498959 0.318598
0.433142 0.542599 0.32751
0.657748 0.345085 0.324259
0.510957 0.401154 0.323497
0.576286 0.249569 0.319496
0.778209 0.576286 -0.136635
0.760262 0.510957 -0.219533
0.719704 0.433142 -0.287329
0.657748 0.345085 -0.324259
0.576286 0.249569 -0.319496
0.66954 0.657748 -0.189343
0.638949 0.585478 -0.26835
0.585478 0.498959 -0.318598
0.510957 0.401154 -0.323497
0.542599 0.719704 -0.236198
0.498959 0.638949 -0.303386
0.433142 0.542599 -0.32751
0.401154 0.760262 -0.273791
0.345085 0.66954 -0.322374
0.249569 0.778209 -0.300198
0.778209 -0.576286 0.136635
0.760262 -0.510957 0.219533
0.719704 -0.433142 0.287329
0.657748 -0.345085 0.324259
0.576286 -0.249569 0.319496
0.66954 -0.657748 0.189343
0.638949 -0.585478 0.26835
0.585478 -0.498959 0.318598
0.510957 -0.401154 0.323497
0.542599 -0.719704 0.236198
0.498959 -0.638949 0.303386
0.433142 -0.542599 0.32751
0.401154 -0.760262 0.273791
0.345085 -0.66954 0.322374
0.249569 -0.778209 0.300198
0.778209 -0.576286 -0.136635
0.66954 -0.657748 -0.189343
0.542599 -0.719704 -0.236198
0.401154 -0.760262 -0.273791
0.249569 -0.778209 -0.300198
0.760262 -0.510957 -0.219533
0.638949 -0.585478 -0.26835
0.498959 -0.638949 -0.303386
0.345085 -0.66954 -0.322374
0.719704 -0.433142 -0.287329
0.585478 -0.498959 -0.318598
0.433142 -0.542599 -0.32751
0.657748 -0.345085 -0.324259
0.510957 -0.401154 -0.323497
0.576286 -0.249569 -0.319496
-0.778209 0.576286 0.136635
-0.760262 0.510957 0.219533
-0.719704 0.433142 0.287329
-0.657748 0.345085 0.324259
-0.576286 0.249569 0.319496
-0.66954 0.657748 0.189343
-0.638949 0.585478 0.26835
-0.585478 0.498959 0.318598
-0.510957 0.401154 0.323497
-0.542599 0.719704 0.236198
-0.498959 0.638949 0.303386
-0.433142 0.542599 0.32751
-0.401154 0.760262 0.273791
-0.345085 0.66954 0.322374
-0.249569 0.778209 0.300198
-0.778209 0.576286 -0.136635
-0.66954 0.657748 -0.189343
-0.542599 0.719704 -0.236198
-0.401154 0.760262 -0.273791
-0.249569 0.778209 -0.300198
-0.760262 0.510957 -0.219533
-0.638949 0.585478 -0.26835
-0.498959 0.638949 -0.303386
-0.345085 0.66954 -0.322374
-0.719704 0.433142 -0.287329
-0.585478 0.498959 -0.318598
-0.433142 0.542599 -0.32751
-0.657748 0.345085 -0.324259
-0.510957 0.401154 -0.323497
-0.576286 0.249569 -0.319496
-0.778209 -0.576286 0.136635
-0.66954 -0.657748 0.189343
-0.542599 -0.719704 0.236198
-0.401154 -0.760262 0.273791
-0.249569 -0.778209 0.300198
-0.760262 -0.510957 0.219533
-0.638949 -0.585478 0.26835
-0.498959 -0.638949 0.303386
-0.345085 -0.66954 0.322374
-0.719704 -0.433142 0.287329
-0.585478 -0.498959 0.318598
-0.433142 -0.542599 0.32751
-0.657748 -0.345085 0.324259
-0.510957 -0.401154 0.323497
-0.576286 -0.249569 0.319496
-0.778209 -0.576286 -0.136635
-0.760262 -0.510957 -0.219533
-0.719704 -0.433142 -0.287329
-0.657748 -0.345085 -0.324259
-0.576286 -0.249569 -0.319496
-0.66954 -0.657748 -0.189343
-0.638949 -0.585478 -0.26835
-0.585478 -0.498959 -0.318598
-0.510957 -0.401154 -0.323497
-0.542599 -0.719704 -0.236198
-0.498959 -0.638949 -0.303386
-0.433142 -0.542599 -0.32751
-0.401154 -0.760262 -0.273791
-0.345085 -0.66954 -0.322374
-0.249569 -0.778209 -0.300198
0.682882 0.730529 0
0.572382 0.814953 -0.0492598
0.444801 0.877944 -0.0965762
0.303996 0.917467 -0.140527
0.154242 0.932451 -0.17928
0.572382 0.814953 0.0492598
0.448363 0.893851 0
0.308374 0.947323 -0.0469699
0.157205 0.973536 -0.0903931
0.444801 0.877944 0.0965762
0.308374 0.947323 0.0469699
0.15824 0.987401 0
0.303996 0.917467 0.140527
0.157205 0.973536 0.0903931
0.154242 0.932451 0.17928
-0.682882 0.730529 0
-0.572382 0.814953 0.0492598
-0.444801 0.877944 0.0965762
-0.303996 0.917467 0.140527
-0.154242 0.932451 0.17928
-0.572382 0.814953 -0.0492598
-0.448363 0.893851 0
-0.308374 0.947323 0.0469699
-0.157205 0.973536 0.0903931
-0.444801 0.877944 -0.0965762
-0.308374 0.947323 -0.0469699
-0.15824 0.987401 0
-0.303996 0.917467 -0.140527
-0.157205 0.973536 -0.0903931
-0.154242 0.932451 -0.17928
0.682882 -0.730529 0
0.572382 -0.814953 0.0492598
0.444801 -0.877944 0.0965762
0.303996 -0.917467 0.140527
0.154242 -0.932451 0.17928
0.572382 -0.814953 -0.0492598
0.448363 -0.893851 0
0.308374 -0.947323 0.0469699
0.157205 -0.973536 0.0903931
0.444801 -0.877944 -0.0965762
0.308374 -0.947323 -0.0469699
0.15824 -0.987401 0
0.303996 -0.917467 -0.140527
0.157205 -0.973536 -0.0903931
0.154242 -0.932451 -0.17928
-0.682882 -0.730529 0
-0.572382 -0.814953 0.0492598
-0.444801 -0.877944 0.0965762
-0.303996 -0.917467 0.140527
-0.154242 -0.932451 0.17928
-0.572382 -0.814953 -0.0492598
-0.448363 -0.893851 0
-0.308374 -0.947323 0.0469699
-0.157205 -0.973536 0.0903931
-0.444801 -0.877944 -0.0965762
-0.308374 -0.947323 -0.0469699
-0.15824 -0.987401 0
-0.303996 -0.917467 -0.140527
-0.157205 -0.973536 -0.0903931
-0.154242 -0.932451 -0.17928
0.730529 2.60233e-17 0.325908
0.814953 -0.0907221 0.2988
0.877944 -0.177105 0.24213
0.917467 -0.256593 0.166764
0.932451 -0.326717 0.0840016
0.814953 0.0907221 0.2988
0.893851 4.39715e-17 0.243925
0.947323 -0.0865183 0.16918
0.973536 -0.165871 0.0856291
0.877944 0.177105 0.24213
0.947323 0.0865183 0.16918
0.987401 1.27254e-17 0.0861978
0.917467 0.256593 0.166764
0.973536 0.165871 0.0856291
0.932451 0.326717 0.0840016
0.730529 2.60233e-17 -0.325908
0.814953 0.0907221 -0.2988
0.877944 0.177105 -0.24213
0.917467 0.256593 -0.166764
0.932451 0.326717 -0.0840016
0.814953 -0.0907221 -0.2988
0.893851 4.39715e-17 -0.243925
0.947323 0.0865183 -0.16918
0.973536 0.165871 -0.0856291
0.877944 -0.177105 -0.24213
0.947323 -0.0865183 -0.16918
0.987401 1.27254e-17 -0.0861978
0.917467 -0.256593 -0.166764
0.973536 -0.165871 -0.0856291
0.932451 -0.326717 -0.0840016
-0.730529 2.60233e-17 0.325908
-0.814953 0.0907221 0.2988
-0.877944 0.177105 0.24213
-0.917467 0.256593 0.166764
-0.932451 0.326717 0.0840016
-0.814953 -0.0907221 0.2988
-0.893851 4.39715e-17 0.243925
-0.947323 0.0865183 0.16918
-0.973536 0.165871 0.0856291
-0.877944 -0.177105 0.24213
-0.947323 -0.0865183 0.16918
-0.987401 1.27254e-17 0.0861978
-0.917467 -0.256593 0.166764
-0.973536 -0.165871 0.0856291
-0.932451 -0.326717 0.0840016
-0.730529 2.60233e-17 -0.325908
-0.814953 -0.0907221 -0.2988
-0.877944 -0.177105 -0.24213
-0.917467 -0.256593 -0.166764
-0.932451 -0.326717 -0.0840016
-0.814953 0.0907221 -0.2988
-0.893851 4.39715e-17 -0.243925
-0.947323 -0.0865183 -0.16918
-0.973536 -0.165871 -0.0856291
-0.877944 0.177105 -0.24213
-0.947323 0.0865183 -0.16918
-0.987401 1.27254e-17 -0.0861978
-0.917467 0.256593 -0.166764
-0.973536 0.165871 -0.0856291
-0.932451 0.326717 -0.0840016
2.60233e-17 0.682882 0.327075
-0.0907221 0.572382 0.306436
-0.177105 0.444801 0.266205
-0.256593 0.303996 0.227249
-0.326717 0.154242 0.209305
0.0907221 0.572382 0.306436
4.39715e-17 0.448363 0.251921
-0.0865183 0.308374 0.189627
-0.165871 0.157205 0.150115
0.177105 0.444801 0.266205
0.0865183 0.308374 0.189627
1.27254e-17 0.15824 0.126573
0.256593 0.303996 0.227249
0.165871 0.157205 0.150115
0.326717 0.154242 0.209305
2.60233e-17 -0.682882 0.327075
0.0907221 -0.572382 0.306436
0.177105 -0.444801 0.266205
0.256593 -0.303996 0.227249
0.326717 -0.154242 0.209305
-0.0907221 -0.572382 0.306436
4.39715e-17 -0.448363 0.251921
0.0865183 -0.308374 0.189627
0.165871 -0.157205 0.150115
-0.177105 -0.444801 0.266205
-0.0865183 -0.308374 0.189627
1.27254e-17 -0.15824 0.126573
-0.256593 -0.303996 0.227249
-0.165871 -0.157205 0.150115
-0.326717 -0.154242 0.209305
2.60233e-17 0.682882 -0.327075
0.0907221 0.572382 -0.306436
0.177105 0.444801 -0.266205
0.256593 0.303996 -0.227249
0.326717 0.154242 -0.209305
-0.0907221 0.572382 -0.306436
4.39715e-17 0.448363 -0.251921
0.0865183 0.308374 -0.189627
0.165871 0.157205 -0.150115
-0.177105 0.444801 -0.266205
-0.0865183 0.308374 -0.189627
1.27254e-17 0.15824 -0.126573
-0.256593 0.303996 -0.227249
-0.165871 0.157205 -0.150115
-0.326717 0.154242 -0.209305
2.60233e-17 -0.682882 -0.327075
-0.0907221 -0.572382 -0.306436
-0.177105 -0.444801 -0.266205
-0.256593 -0.303996 -0.227249
-0.326717 -0.154242 -0.209305
0.0907221 -0.572382 -0.306436
4.39715e-17 -0.448363 -0.251921
-0.0865183 -0.308374 -0.189627
-0.165871 -0.157205 -0.150115
0.177105 -0.444801 -0.266205
0.0865183 -0.308374 -0.189627
1.27254e-17 -0.15824 -0.126573
0.256593 -0.303996 -0.227249
0.165871 -0.157205 -0.150115
0.326717 -0.154242 -0.209305
POLYGONS 980 3920
3 0 12 18
3 12 13 192
3 13 14 193
3 14 15 194
3 15 16 195
3 16 17 196
3 17 8 29
3 18 192 19
3 192 193 197
3 193 194 198
3 194 195 199
3 195 196 200
3 196 29 28
3 19 197 20
3 197 198 201
3 198 199 202
3 199 200 203
3 200 28 27
3 20 201 21
3 201 202 204
3 202 203 205
3 203 27 26
3 21 204 22
3 204 205 206
3 205 26 25
3 22 206 23
3 206 25 24
3 23 24 4
3 18 12 192
3 192 13 193
3 193 14 194
3 194 15 195
3 195 16 196
3 196 17 29
3 19 192 197
3 197 193 198
3 198 194 199
3 199 195 200
3 200 196 28
3 20 197 201
3 201 198 202
3 202 199 203
3 203 200 27
3 21 201 204
3 204 202 205
3 205 203 26
3 22 204 206
3 206 205 25
3 23 206 24
3 0 30 36
3 30 31 207
3 31 32 208
3 32 33 209
3 33 34 210
3 34 35 211
3 35 5 42
3 36 207 37
3 207 208 212
3 208 209 213
3 209 210 214
3 210 211 215
3 211 42 43
3 37 212 38
3 212 213 216
3 213 214 217
3 214 215 218
3 215 43 44
3 38 216 39
3 216 217 219
3 217 218 220
3 218 44 45
3 39 219 40
3 219 220 221
3 220 45 46
3 40 221 41
3 221 46 47
3 41 47 10
3 36 30 207
3 207 31 208
3 208 32 209
3 209 33 210
3 210 34 211
3 211 35 42
3 37 207 212
3 212 208 213
3 213 209 214
3 214 210 215
3 215 211 43
3 38 212 216
3 216 213 217
3 217 214 218
3 218 215 44
3 39 216 219
3 219 217 220
3 220 218 45
3 40 219 221
3 221 220 46
3 41 221 47
3 2 48 54
3 48 49 222
3 49 50 223
3 50 51 224
3 51 52 225
3 52 53 226
3 53 4 60
3 54 222 55
3 222 223 227
3 223 224 228
3 224 225 229
3 225 226 230
3 226 60 61
3 55 227 56
3 227 228 231
3 228 229 232
3 229 230 233
3 230 61 62
3 56 231 57
3 231 232 234
3 232 233 235
3 233 62 63
3 57 234 58
3 234 235 236
3 235 63 64
3 58 236 59
3 236 64 65
3 59 65 9
3 54 48 222
3 222 49 223
3 223 50 224
3 224 51 225
3 225 52 226
3 226 53 60
3 55 222 227
3 227 223 228
3 228 224 229
3 229 225 230
3 230 226 61
3 56 227 231
3 231 228 232
3 232 229 233
3 233 230 62
3 57 231 234
3 234 232 235
3 235 233 63
3 58 234 236
3 236 235 64
3 59 236 65
3 2 66 72
3 66 67 237
3 67 68 238
3 68 69 239
3 69 70 240
3 70 71 241
3 71 11 83
3 72 237 73
3 237 238 242
3 238 239 243
3 239 240 244
3 240 241 245
3 241 83 82
3 73 242 74
3 242 243 246
3 243 244 247
3 244 245 248
3 245 82 81
3 74 246 75
3 246 247 249
3 247 248 250
3 248 81 80
3 75 249 76
3 249 250 251
3 250 80 79
3 76 251 77
3 251 79 78
3 77 78 5
3 72 66 237
3 237 67 238
3 238 68 239
3 239 69 240
3 240 70 241
3 241 71 83
3 73 237 242
3 242 238 243
3 243 239 244
3 244 240 245
3 245 241 82
3 74 242 246
3 246 243 247
3 247 244 248
3 248 245 81
3 75 246 249
3 249 247 250
3 250 248 80
3 76 249 251
3 251 250 79
3 77 251 78
3 1 84 90
3 84 85 252
3 85 86 253
3 86 87 254
3 87 88 255
3 88 89 256
3 89 6 96
3 90 252 91
3 252 253 257
3 253 254 258
3 254 255 259
3 255 256 260
3 256 96 97
3 91 257 92
3 257 258 261
3 258 259 262
3 259 260 263
3 260 97 98
3 92 261 93
3 261 262 264
3 262 263 265
3 263 98 99
3 93 264 94
3 264 265 266
3 265 99 100
3 94 266 95
3 266 100 101
3 95 101 8
3 90 84 252
3 252 85 253
3 253 86 254
3 254 87 255
3 255 88 256
3 256 89 96
3 91 252 257
3 257 253 258
3 258 254 259
3 259 255 260
3 260 256 97
3 92 257 261
3 261 258 262
3 262 259 263
3 263 260 98
3 93 261 264
3 264 262 265
3 265 263 99
3 94 264 266
3 266 265 100
3 95 266 101
3 1 102 108
3 102 103 267
3 103 104 268
3 104 105 269
3 105 106 270
3 106 107 271
3 107 10 119
3 108 267 109
3 267 268 272
3 268 269 273
3 269 270 274
3 270 271 275
3 271 119 118
3 109 272 110
3 272 273 276
3 273 274 277
3 274 275 278
3 275 118 117
3 110 276 111
3 276 277 279
3 277 278 280
3 278 117 116
3 111 279 112
3 279 280 281
3 280 116 115
3 112 281 113
3 281 115 114
3 113 114 7
3 108 102 267
3 267 103 268
3 268 104 269
3 269 105 270
3 270 106 271
3 271 107 119
3 109 267 272
3 272 268 273
3 273 269 274
3 274 270 275
3 275 271 118
3 110 272 276
3 276 273 277
3 277 274 278
3 278 275 117
3 111 276 279
3 279 277 280
3 280 278 116
3 112 279 281
3 281 280 115
3 113 281 114
3 3 120 126
3 120 121 282
3 121 122 283
3 122 123 284
3 123 124 285
3 124 125 286
3 125 9 137
3 126 282 127
3 282 283 287
3 283 284 288
3 284 285 289
3 285 286 290
3 286 137 136
3 127 287 128
3 287 288 291
3 288 289 292
3 289 290 293
3 290 136 135
3 128 291 129
3 291 292 294
3 292 293 295
3 293 135 134
3 129 294 130
3 294 295 296
3 295 134 133
3 130 296 131
3 296 133 132
3 131 132 6
3 126 120 282
3 282 121 283
3 283 122 284
3 284 123 285
3 285 124 286
3 286 125 137
3 127 282 287
3 287 283 288
3 288 284 289
3 289 285 290
3 290 286 136
3 128 287 291
3 291 288 292
3 292 289 293
3 293 290 135
3 129 291 294
3 294 292 295
3 295 293 134
3 130 294 296
3 296 295 133
3 131 296 132
3 3 138 144
3 138 139 297
3 139 140 298
3 140 141 299
3 141 142 300
3 142 143 301
3 143 7 150
3 144 297 145
3 297 298 302
3 298 299 303
3 299 300 304
3 300 301 305
3 301 150 151
3 145 302 146
3 302 303 306
3 303 304 307
3 304 305 308
3 305 151 152
3 146 306 147
3 306 307 309
3 307 308 310
3 308 152 153
3 147 309 148
3 309 310 311
3 310 153 154
3 148 311 149
3 311 154 155
3 149 155 11
3 144 138 297
3 297 139 298
3 298 140 299
3 299 141 300
3 300 142 301
3 301 143 150
3 145 297 302
3 302 298 303
3 303 299 304
3 304 300 305
3 305 301 151
3 146 302 306
3 306 303 307
3 307 304 308
3 308 305 152
3 147 306 309
3 309 307 310
3 310 308 153
3 148 309 311
3 311 310 154
3 149 311 155
3 0 36 12
3 36 37 312
3 37 38 313
3 38 39 314
3 39 40 315
3 40 41 316
3 41 10 161
3 12 312 13
3 312 313 317
3 313 314 318
3 314 315 319
3 315 316 320
3 316 161 160
3 13 317 14
3 317 318 321
3 318 319 322
3 319 320 323
3 320 160 159
3 14 321 15
3 321 322 324
3 322 323 325
3 323 159 158
3 15 324 16
3 324 325 326
3 325 158 157
3 16 326 17
3 326 157 156
3 17 156 8
3 12 36 312
3 312 37 313
3 313 38 314
3 314 39 315
3 315 40 316
3 316 41 161
3 13 312 317
3 317 313 318
3 318 314 319
3 319 315 320
3 320 316 160
3 14 317 321
3 321 318 322
3 322 319 323
3 323 320 159
3 15 321 324
3 324 322 325
3 325 323 158
3 16 324 326
3 326 325 157
3 17 326 156
3 1 90 102
3 90 91 327
3 91 92 328
3 92 93 329
3 93 94 330
3 94 95 331
3 95 8 156
3 102 327 103
3 327 328 332
3 328 329 333
3 329 330 334
3 330 331 335
3 331 156 157
3 103 332 104
3 332 333 336
3 333 334 337
3 334 335 338
3 335 157 158
3 104 336 105
3 336 337 339
3 337 338 340
3 338 158 159
3 105 339 106
3 339 340 341
3 340 159 160
3 106 341 107
3 341 160 161
3 107 161 10
3 102 90 327
3 327 91 328
3 328 92 329
3 329 93 330
3 330 94 331
3 331 95 156
3 103 327 332
3 332 328 333
3 333 329 334
3 334 330 335
3 335 331 157
3 104 332 336
3 336 333 337
3 337 334 338
3 338 335 158
3 105 336 339
3 339 337 340
3 340 338 159
3 106 339 341
3 341 340 160
3 107 341 161
3 2 54 66
3 54 55 342
3 55 56 343
3 56 57 344
3 57 58 345
3 58 59 346
3 59 9 162
3 66 342 67
3 342 343 347
3 343 344 348
3 344 345 349
3 345 346 350
3 346 162 163
3 67 347 68
3 347 348 351
3 348 349 352
3 349 350 353
3 350 163 164
3 68 351 69
3 351 352 354
3 352 353 355
3 353 164 165
3 69 354 70
3 354 355 356
3 355 165 166
3 70 356 71
3 356 166 167
3 71 167 11
3 66 54 342
3 342 55 343
3 343 56 344
3 344 57 345
3 345 58 346
3 346 59 162
3 67 342 347
3 347 343 348
3 348 344 349
3 349 345 350
3 350 346 163
3 68 347 351
3 351 348 352
3 352 349 353
3 353 350 164
3 69 351 354
3 354 352 355
3 355 353 165
3 70 354 356
3 356 355 166
3 71 356 167
3 3 120 144
3 120 121 357
3 121 122 358
3 122 123 359
3 123 124 360
3 124 125 361
3 125 9 162
3 144 357 145
3 357 358 362
3 358 359 363
3 359 360 364
3 360 361 365
3 361 162 163
3 145 362 146
3 362 363 366
3 363 364 367
3 364 365 368
3 365 163 164
3 146 366 147
3 366 367 369
3 367 368 370
3 368 164 165
3 147 369 148
3 369 370 371
3 370 165 166
3 148 371 149
3 371 166 167
3 149 167 11
3 144 120 357
3 357 121 358
3 358 122 359
3 359 123 360
3 360 124 361
3 361 125 162
3 145 357 362
3 362 358 363
3 363 359 364
3 364 360 365
3 365 361 163
3 146 362 366
3 366 363 367
3 367 364 368
3 368 365 164
3 147 366 369
3 369 367 370
3 370 368 165
3 148 369 371
3 371 370 166
3 149 371 167
3 4 53 23
3 53 52 372
3 52 51 373
3 51 50 374
3 50 49 375
3 49 48 376
3 48 2 173
3 23 372 22
3 372 373 377
3 373 374 378
3 374 375 379
3 375 376 380
3 376 173 172
3 22 377 21
3 377 378 381
3 378 379 382
3 379 380 383
3 380 172 171
3 21 381 20
3 381 382 384
3 382 383 385
3 383 171 170
3 20 384 19
3 384 385 386
3 385 170 169
3 19 386 18
3 386 169 168
3 18 168 0
3 23 53 372
3 372 52 373
3 373 51 374
3 374 50 375
3 375 49 376
3 376 48 173
3 22 372 377
3 377 373 378
3 378 374 379
3 379 375 380
3 380 376 172
3 21 377 381
3 381 378 382
3 382 379 383
3 383 380 171
3 20 381 384
3 384 382 385
3 385 383 170
3 19 384 386
3 386 385 169
3 18 386 168
3 5 35 77
3 35 34 387
3 34 33 388
3 33 32 389
3 32 31 390
3 31 30 391
3 30 0 168
3 77 387 76
3 387 388 392
3 388 389 393
3 389 390 394
3 390 391 395
3 391 168 169
3 76 392 75
3 392 393 396
3 393 394 397
3 394 395 398
3 395 169 170
3 75 396 74
3 396 397 399
3 397 398 400
3 398 170 171
3 74 399 73
3 399 400 401
3 400 171 172
3 73 401 72
3 401 172 173
3 72 173 2
3 77 35 387
3 387 34 388
3 388 33 389
3 389 32 390
3 390 31 391
3 391 30 168
3 76 387 392
3 392 388 393
3 393 389 394
3 394 390 395
3 395 391 169
3 75 392 396
3 396 393 397
3 397 394 398
3 398 395 170
3 74 396 399
3 399 397 400
3 400 398 171
3 73 399 401
3 401 400 172
3 72 401 173
3 6 89 131
3 89 88 402
3 88 87 403
3 87 86 404
3 86 85 405
3 85 84 406
3 84 1 174
3 131 402 130
3 402 403 407
3 403 404 408
3 404 405 409
3 405 406 410
3 406 174 175
3 130 407 129
3 407 408 411
3 408 409 412
3 409 410 413
3 410 175 176
3 129 411 128
3 411 412 414
3 412 413 415
3 413 176 177
3 128 414 127
3 414 415 416
3 415 177 178
3 127 416 126
3 416 178 179
3 126 179 3
3 131 89 402
3 402 88 403
3 403 87 404
3 404 86 405
3 405 85 406
3 406 84 174
3 130 402 407
3 407 403 408
3 408 404 409
3 409 405 410
3 410 406 175
3 129 407 411
3 411 408 412
3 412 409 413
3 413 410 176
3 128 411 414
3 414 412 415
3 415 413 177
3 127 414 416
3 416 415 178
3 126 416 179
3 7 143 113
3 143 142 417
3 142 141 418
3 141 140 419
3 140 139 420
3 139 138 421
3 138 3 179
3 113 417 112
3 417 418 422
3 418 419 423
3 419 420 424
3 420 421 425
3 421 179 178
3 112 422 111
3 422 423 426
3 423 424 427
3 424 425 428
3 425 178 177
3 111 426 110
3 426 427 429
3 427 428 430
3 428 177 176
3 110 429 109
3 429 430 431
3 430 176 175
3 109 431 108
3 431 175 174
3 108 174 1
3 113 143 417
3 417 142 418
3 418 141 419
3 419 140 420
3 420 139 421
3 421 138 179
3 112 417 422
3 422 418 423
3 423 419 424
3 424 420 425
3 425 421 178
3 111 422 426
3 426 423 427
3 427 424 428
3 428 425 177
3 110 426 429
3 429 427 430
3 430 428 176
3 109 429 431
3 431 430 175
3 108 431 174
3 8 101 29
3 101 100 432
3 100 99 433
3 99 98 434
3 98 97 435
3 97 96 436
3 96 6 185
3 29 432 28
3 432 433 437
3 433 434 438
3 434 435 439
3 435 436 440
3 436 185 184
3 28 437 27
3 437 438 441
3 438 439 442
3 439 440 443
3 440 184 183
3 27 441 26
3 441 442 444
3 442 443 445
3 443 183 182
3 26 444 25
3 444 445 446
3 445 182 181
3 25 446 24
3 446 181 180
3 24 180 4
3 29 101 432
3 432 100 433
3 433 99 434
3 434 98 435
3 435 97 436
3 436 96 185
3 28 432 437
3 437 433 438
3 438 434 439
3 439 435 440
3 440 436 184
3 27 437 441
3 441 438 442
3 442 439 443
3 443 440 183
3 26 441 444
3 444 442 445
3 445 443 182
3 25 444 446
3 446 445 181
3 24 446 180
3 9 65 137
3 65 64 447
3 64 63 448
3 63 62 449
3 62 61 450
3 61 60 451
3 60 4 180
3 137 447 136
3 447 448 452
3 448 449 453
3 449 450 454
3 450 451 455
3 451 180 181
3 136 452 135
3 452 453 456
3 453 454 457
3 454 455 458
3 455 181 182
3 135 456 134
3 456 457 459
3 457 458 460
3 458 182 183
3 134 459 133
3 459 460 461
3 460 183 184
3 133 461 132
3 461 184 185
3 132 185 6
3 137 65 447
3 447 64 448
3 448 63 449
3 449 62 450
3 450 61 451
3 451 60 180
3 136 447 452
3 452 448 453
3 453 449 454
3 454 450 455
3 455 451 181
3 135 452 456
3 456 453 457
3 457 454 458
3 458 455 182
3 134 456 459
3 459 457 460
3 460 458 183
3 133 459 461
3 461 460 184
3 132 461 185
3 10 47 119
3 47 46 462
3 46 45 463
3 45 44 464
3 44 43 465
3 43 42 466
3 42 5 186
3 119 462 118
3 462 463 467
3 463 464 468
3 464 465 469
3 465 466 470
3 466 186 187
3 118 467 117
3 467 468 471
3 468 469 472
3 469 470 473
3 470 187 188
3 117 471 116
3 471 472 474
3 472 473 475
3 473 188 189
3 116 474 115
3 474 475 476
3 475 189 190
3 115 476 114
3 476 190 191
3 114 191 7
3 119 47 462
3 462 46 463
3 463 45 464
3 464 44 465
3 465 43 466
3 466 42 186
3 118 462 467
3 467 463 468
3 468 464 469
3 469 465 470
3 470 466 187
3 117 467 471
3 471 468 472
3 472 469 473
3 473 470 188
3 116 471 474
3 474 472 475
3 475 473 189
3 115 474 476
3 476 475 190
3 114 476 191
3 11 155 83
3 155 154 477
3 154 153 478
3 153 152 479
3 152 151 480
3 151 150 481
3 150 7 191
3 83 477 82
3 477 478 482
3 478 479 483
3 479 480 484
3 480 481 485
3 481 191 190
3 82 482 81
3 482 483 486
3 483 484 487
3 484 485 488
3 485 190 189
3 81 486 80
3 486 487 489
3 487 488 490
3 488 189 188
3 80 489 79
3 489 490 491
3 490 188 187
3 79 491 78
3 491 187 186
3 78 186 5
3 83 155 477
3 477 154 478
3 478 153 479
3 479 152 480
3 480 151 481
3 481 150 191
3 82 477 482
3 482 478 483
3 483 479 484
3 484 480 485
3 485 481 190
3 81 482 486
3 486 483 487
3 487 484 488
3 488 485 189
3 80 486 489
3 489 487 490
3 490 488 188
3 79 489 491
3 491 490 187
3 78 491 186
