# vtk DataFile Version 3.0
vtk output
ASCII
DATASET POLYDATA
POINTS 642 float
0.850651 0.525731 0
-0.850651 0.525731 0
0.850651 -0.525731 0
-0.850651 -0.525731 0
0.525731 0 0.286668
0.525731 0 -0.286668
-0.525731 0 0.286668
-0.525731 0 -0.286668
0 0.850651 0.280268
0 -0.850651 0.280268
0 0.850651 -0.280268
0 -0.850651 -0.280268
0.783843 0.615642 0.0440124
0.702046 0.69378 0.0875068
0.606825 0.758652 0.129719
0.5 0.809017 0.169535
0.383614 0.843911 0.205593
0.259892 0.862668 0.23658
0.1312 0.864929 0.26157
0.864929 0.484442 0.0713666
0.862668 0.433889 0.142355
0.843911 0.375039 0.210198
0.809017 0.309017 0.268828
0.758652 0.237086 0.310182
0.69378 0.160622 0.32731
0.615642 0.0810863 0.317932
0.484442 0.1312 0.276577
0.433889 0.259892 0.278263
0.375039 0.383614 0.290981
0.309017 0.5 0.309019
0.237086 0.606825 0.323785
0.160622 0.702046 0.326851
0.0810863 0.783843 0.31272
0.864929 0.484442 -0.0713666
0.862668 0.433889 -0.142355
0.843911 0.375039 -0.210198
0.809017 0.309017 -0.268828
0.758652 0.237086 -0.310182
0.69378 0.160622 -0.32731
0.615642 0.0810863 -0.317932
0.783843 0.615642 -0.0440124
0.702046 0.69378 -0.0875068
0.606825 0.758652 -0.129719
0.5 0.809017 -0.169535
0.383614 0.843911 -0.205593
0.259892 0.862668 -0.23658
0.1312 0.864929 -0.26157
0.484442 0.1312 -0.276577
0.433889 0.259892 -0.278263
0.375039 0.383614 -0.290981
0.309017 0.5 -0.309019
0.237086 0.606825 -0.323785
0.160622 0.702046 -0.326851
0.0810863 0.783843 -0.31272
0.864929 -0.484442 0.0713666
0.862668 -0.433889 0.142355
0.843911 -0.375039 0.210198
0.809017 -0.309017 0.268828
0.758652 -0.237086 0.310182
0.69378 -0.160622 0.32731
0.615642 -0.0810863 0.317932
0.783843 -0.615642 0.0440124
0.702046 -0.69378 0.0875068
0.606825 -0.758652 0.129719
0.5 -0.809017 0.169535
0.383614 -0.843911 0.205593
0.259892 -0.862668 0.23658
0.1312 -0.864929 0.26157
0.484442 -0.1312 0.276577
0.433889 -0.259892 0.278263
0.375039 -0.383614 0.290981
0.309017 -0.5 0.309019
0.237086 -0.606825 0.323785
0.160622 -0.702046 0.326851
0.0810863 -0.783843 0.31272
0.783843 -0.615642 -0.0440124
0.702046 -0.69378 -0.0875068
0.606825 -0.758652 -0.129719
0.5 -0.809017 -0.169535
0.383614 -0.843911 -0.205593
0.259892 -0.862668 -0.23658
0.1312 -0.864929 -0.26157
0.864929 -0.484442 -0.0713666
0.862668 -0.433889 -0.142355
0.843911 -0.375039 -0.210198
0.809017 -0.309017 -0.268828
0.758652 -0.237086 -0.310182
0.69378 -0.160622 -0.32731
0.615642 -0.0810863 -0.317932
0.484442 -0.1312 -0.276577
0.433889 -0.259892 -0.278263
0.375039 -0.383614 -0.290981
0.309017 -0.5 -0.309019
0.237086 -0.606825 -0.323785
0.160622 -0.702046 -0.326851
0.0810863 -0.783843 -0.31272
-0.864929 0.484442 0.0713666
-0.862668 0.433889 0.142355
-0.843911 0.375039 0.210198
-0.809017 0.309017 0.268828
-0.758652 0.237086 0.310182
-0.69378 0.160622 0.32731
-0.615642 0.0810863 0.317932
-0.783843 0.615642 0.0440124
-0.702046 0.69378 0.0875068
-0.606825 0.758652 0.129719
-0.5 0.809017 0.169535
-0.383614 0.843911 0.205593
-0.259892 0.862668 0.23658
-0.1312 0.864929 0.26157
-0.484442 0.1312 0.276577
-0.433889 0.259892 0.278263
-0.375039 0.383614 0.290981
-0.309017 0.5 0.309019
-0.237086 0.606825 0.323785
-0.160622 0.702046 0.326851
-0.0810863 0.783843 0.31272
-0.783843 0.615642 -0.0440124
-0.702046 0.69378 -0.0875068
-0.606825 0.758652 -0.129719
-0.5 0.809017 -0.169535
-0.383614 0.843911 -0.205593
-0.259892 0.862668 -0.23658
-0.1312 0.864929 -0.26157
-0.864929 0.484442 -0.0713666
-0.862668 0.433889 -0.142355
-0.843911 0.375039 -0.210198
-0.809017 0.309017 -0.268828
-0.758652 0.237086 -0.310182
-0.69378 0.160622 -0.32731
-0.615642 0.0810863 -0.317932
-0.484442 0.1312 -0.276577
-0.433889 0.259892 -0.278263
-0.375039 0.383614 -0.290981
-0.309017 0.5 -0.309019
-0.237086 0.606825 -0.323785
-0.160622 0.702046 -0.326851
-0.0810863 0.783843 -0.31272
-0.783843 -0.615642 0.0440124
-0.702046 -0.69378 0.0875068
-0.606825 -0.758652 0.129719
-0.5 -0.809017 0.169535
-0.383614 -0.843911 0.205593
-0.259892 -0.862668 0.23658
-0.1312 -0.864929 0.26157
-0.864929 -0.484442 0.0713666
-0.862668 -0.433889 0.142355
-0.843911 -0.375039 0.210198
-0.809017 -0.309017 0.268828
-0.758652 -0.237086 0.310182
-0.69378 -0.160622 0.32731
-0.615642 -0.0810863 0.317932
-0.484442 -0.1312 0.276577
-0.433889 -0.259892 0.278263
-0.375039 -0.383614 0.290981
-0.309017 -0.5 0.309019
-0.237086 -0.606825 0.323785
-0.160622 -0.702046 0.326851
-0.0810863 -0.783843 0.31272
-0.864929 -0.484442 -0.0713666
-0.862668 -0.433889 -0.142355
-0.843911 -0.375039 -0.210198
-0.809017 -0.309017 -0.268828
-0.758652 -0.237086 -0.310182
-0.69378 -0.160622 -0.32731
-0.615642 -0.0810863 -0.317932
-0.783843 -0.615642 -0.0440124
-0.702046 -0.69378 -0.0875068
-0.606825 -0.758652 -0.129719
-0.5 -0.809017 -0.169535
-0.383614 -0.843911 -0.205593
-0.259892 -0.862668 -0.23658
-0.1312 -0.864929 -0.26157
-0.484442 -0.1312 -0.276577
-0.433889 -0.259892 -0.278263
-0.375039 -0.383614 -0.290981
-0.309017 -0.5 -0.309019
-0.237086 -0.606825 -0.323785
-0.160622 -0.702046 -0.326851
-0.0810863 -0.783843 -0.31272
0 0.915043 0.220695
0 0.961938 0.149765
0 0.990439 0.075065
0 1 0
0 0.990439 -0.075065
0 0.961938 -0.149765
0 0.915043 -0.220695
0 -0.915043 0.220695
0 -0.961938 0.149765
0 -0.990439 0.075065
0 -1 0
0 -0.990439 -0.075065
0 -0.961938 -0.149765
0 -0.915043 -0.220695
0.915043 0.403355 0
0.961938 0.273267 0
0.990439 0.137952 0
1 0 0
0.990439 -0.137952 0
0.961938 -0.273267 0
0.915043 -0.403355 0
-0.915043 0.403355 0
-0.961938 0.273267 0
-0.990439 0.137952 0
-1 0 0
-0.990439 -0.137952 0
-0.961938 -0.273267 0
-0.915043 -0.403355 0
0.403355 0 0.22998
0.273267 0 0.168381
0.137952 0 0.121158
0 0 0.1035
-0.137952 0 0.121158
-0.273267 0 0.168381
-0.403355 0 0.22998
0.403355 0 -0.22998
0.273267 0 -0.168381
0.137952 0 -0.121158
0 0 -0.1035
-0.137952 0 -0.121158
-0.273267 0 -0.168381
-0.403355 0 -0.22998
0.790793 0.571976 0.119111
0.700305 0.646844 0.165626
0.595296 0.707364 0.208865
0.478064 0.752143 0.246539
0.351288 0.780157 0.276753
0.217923 0.790793 0.298653
0.780157 0.517641 0.192726
0.680233 0.587719 0.238694
0.565233 0.642379 0.276715
0.438028 0.680233 0.304141
0.301936 0.700305 0.320295
0.752143 0.453581 0.258529
0.642379 0.517553 0.296172
0.517553 0.565233 0.319354
0.381128 0.595296 0.327485
0.707364 0.381128 0.306621
0.587719 0.438028 0.325623
0.453581 0.478064 0.324837
0.646844 0.301936 0.327232
0.517641 0.351288 0.318972
0.571976 0.217923 0.315791
0.790793 0.571976 -0.119111
0.780157 0.517641 -0.192726
0.752143 0.453581 -0.258529
0.707364 0.381128 -0.306621
0.646844 0.301936 -0.327232
0.571976 0.217923 -0.315791
0.700305 0.646844 -0.165626
0.680233 0.587719 -0.238694
0.642379 0.517553 -0.296172
0.587719 0.438028 -0.325623
0.517641 0.351288 -0.318972
0.595296 0.707364 -0.208865
0.565233 0.642379 -0.276715
0.517553 0.565233 -0.319354
0.453581 0.478064 -0.324837
0.478064 0.752143 -0.246539
0.438028 0.680233 -0.304141
0.381128 0.595296 -0.327485
0.351288 0.780157 -0.276753
0.301936 0.700305 -0.320295
0.217923 0.790793 -0.298653
0.790793 -0.571976 0.119111
0.780157 -0.517641 0.192726
0.752143 -0.453581 0.258529
0.707364 -0.381128 0.306621
0.646844 -0.301936 0.327232
0.571976 -0.217923 0.315791
0.700305 -0.646844 0.165626
0.680233 -0.587719 0.238694
0.642379 -0.517553 0.296172
0.587719 -0.438028 0.325623
0.517641 -0.351288 0.318972
0.595296 -0.707364 0.208865
0.565233 -0.642379 0.276715
0.517553 -0.565233 0.319354
0.453581 -0.478064 0.324837
0.478064 -0.752143 0.246539
0.438028 -0.680233 0.304141
0.381128 -0.595296 0.327485
0.351288 -0.780157 0.276753
0.301936 -0.700305 0.320295
0.217923 -0.790793 0.298653
0.790793 -0.571976 -0.119111
0.700305 -0.646844 -0.165626
0.595296 -0.707364 -0.208865
0.478064 -0.752143 -0.246539
0.351288 -0.780157 -0.276753
0.217923 -0.790793 -0.298653
0.780157 -0.517641 -0.192726
0.680233 -0.587719 -0.238694
0.565233 -0.642379 -0.276715
0.438028 -0.680233 -0.304141
0.301936 -0.700305 -0.320295
0.752143 -0.453581 -0.258529
0.642379 -0.517553 -0.296172
0.517553 -0.565233 -0.319354
0.381128 -0.595296 -0.327485
0.707364 -0.381128 -0.306621
0.587719 -0.438028 -0.325623
0.453581 -0.478064 -0.324837
0.646844 -0.301936 -0.327232
0.517641 -0.351288 -0.318972
0.571976 -0.217923 -0.315791
-0.790793 0.571976 0.119111
-0.780157 0.517641 0.192726
-0.752143 0.453581 0.258529
-0.707364 0.381128 0.306621
-0.646844 0.301936 0.327232
-0.571976 0.217923 0.315791
-0.700305 0.646844 0.165626
-0.680233 0.587719 0.238694
-0.642379 0.517553 0.296172
-0.587719 0.438028 0.325623
-0.517641 0.351288 0.318972
-0.595296 0.707364 0.208865
-0.565233 0.642379 0.276715
-0.517553 0.565233 0.319354
-0.453581 0.478064 0.324837
-0.478064 0.752143 0.246539
-0.438028 0.680233 0.304141
-0.381128 0.595296 0.327485
-0.351288 0.780157 0.276753
-0.301936 0.700305 0.320295
-0.217923 0.790793 0.298653
-0.790793 0.571976 -0.119111
-0.700305 0.646844 -0.165626
-0.595296 0.707364 -0.208865
-0.478064 0.752143 -0.246539
-0.351288 0.780157 -0.276753
-0.217923 0.790793 -0.298653
-0.780157 0.517641 -0.192726
-0.680233 0.587719 -0.238694
-0.565233 0.642379 -0.276715
-0.438028 0.680233 -0.304141
-0.301936 0.700305 -0.320295
-0.752143 0.453581 -0.258529
-0.642379 0.517553 -0.296172
-0.517553 0.565233 -0.319354
-0.381128 0.595296 -0.327485
-0.707364 0.381128 -0.306621
-0.587719 0.438028 -0.325623
-0.453581 0.478064 -0.324837
-0.646844 0.301936 -0.327232
-0.517641 0.351288 -0.318972
-0.571976 0.217923 -0.315791
-0.790793 -0.571976 0.119111
-0.700305 -0.646844 0.165626
-0.595296 -0.707364 0.208865
-0.478064 -0.752143 0.246539
-0.351288 -0.780157 0.276753
-0.217923 -0.790793 0.298653
-0.780157 -0.517641 0.192726
-0.680233 -0.587719 0.238694
-0.565233 -0.642379 0.276715
-0.438028 -0.680233 0.304141
-0.301936 -0.700305 0.320295
-0.752143 -0.453581 0.258529
-0.642379 -0.517553 0.296172
-0.517553 -0.565233 0.319354
-0.381128 -0.595296 0.327485
-0.707364 -0.381128 0.306621
-0.587719 -0.438028 0.325623
-0.453581 -0.478064 0.324837
-0.646844 -0.301936 0.327232
-0.517641 -0.351288 0.318972
-0.571976 -0.217923 0.315791
-0.790793 -0.571976 -0.119111
-0.780157 -0.517641 -0.192726
-0.752143 -0.453581 -0.258529
-0.707364 -0.381128 -0.306621
-0.646844 -0.301936 -0.327232
-0.571976 -0.217923 -0.315791
-0.700305 -0.646844 -0.165626
-0.680233 -0.587719 -0.238694
-0.642379 -0.517553 -0.296172
-0.587719 -0.438028 -0.325623
-0.517641 -0.351288 -0.318972
-0.595296 -0.707364 -0.208865
-0.565233 -0.642379 -0.276715
-0.517553 -0.565233 -0.319354
-0.453581 -0.478064 -0.324837
-0.478064 -0.752143 -0.246539
-0.438028 -0.680233 -0.304141
-0.381128 -0.595296 -0.327485
-0.351288 -0.780157 -0.276753
-0.301936 -0.700305 -0.320295
-0.217923 -0.790793 -0.298653
0.707554 0.706659 0
0.615476 0.7841 -0.0433407
0.509628 0.845978 -0.0854321
0.392397 0.890756 -0.125407
0.266459 0.917413 -0.162101
0.134684 0.925476 -0.194232
0.615476 0.7841 0.0433407
0.512921 0.858436 0
0.397012 0.914565 -0.0418682
0.270716 0.95095 -0.0815027
0.137256 0.966764 -0.117884
0.509628 0.845978 0.0854321
0.397012 0.914565 0.0418682
0.272187 0.962244 0
0.138614 0.987693 -0.0393153
0.392397 0.890756 0.125407
0.270716 0.95095 0.0815027
0.138614 0.987693 0.0393153
0.266459 0.917413 0.162101
0.137256 0.966764 0.117884
0.134684 0.925476 0.194232
-0.707554 0.706659 0
-0.615476 0.7841 0.0433407
-0.509628 0.845978 0.0854321
-0.392397 0.890756 0.125407
-0.266459 0.917413 0.162101
-0.134684 0.925476 0.194232
-0.615476 0.7841 -0.0433407
-0.512921 0.858436 0
-0.397012 0.914565 0.0418682
-0.270716 0.95095 0.0815027
-0.137256 0.966764 0.117884
-0.509628 0.845978 -0.0854321
-0.397012 0.914565 -0.0418682
-0.272187 0.962244 0
-0.138614 0.987693 0.0393153
-0.392397 0.890756 -0.125407
-0.270716 0.95095 -0.0815027
-0.138614 0.987693 -0.0393153
-0.266459 0.917413 -0.162101
-0.137256 0.966764 -0.117884
-0.134684 0.925476 -0.194232
0.707554 -0.706659 0
0.615476 -0.7841 0.0433407
0.509628 -0.845978 0.0854321
0.392397 -0.890756 0.125407
0.266459 -0.917413 0.162101
0.134684 -0.925476 0.194232
0.615476 -0.7841 -0.0433407
0.512921 -0.858436 0
0.397012 -0.914565 0.0418682
0.270716 -0.95095 0.0815027
0.137256 -0.966764 0.117884
0.509628 -0.845978 -0.0854321
0.397012 -0.914565 -0.0418682
0.272187 -0.962244 0
0.138614 -0.987693 0.0393153
0.392397 -0.890756 -0.125407
0.270716 -0.95095 -0.0815027
0.138614 -0.987693 -0.0393153
0.266459 -0.917413 -0.162101
0.137256 -0.966764 -0.117884
0.134684 -0.925476 -0.194232
-0.707554 -0.706659 0
-0.615476 -0.7841 0.0433407
-0.509628 -0.845978 0.0854321
-0.392397 -0.890756 0.125407
-0.266459 -0.917413 0.162101
-0.134684 -0.925476 0.194232
-0.615476 -0.7841 -0.0433407
-0.512921 -0.858436 0
-0.397012 -0.914565 0.0418682
-0.270716 -0.95095 0.0815027
-0.137256 -0.966764 0.117884
-0.509628 -0.845978 -0.0854321
-0.397012 -0.914565 -0.0418682
-0.272187 -0.962244 0
-0.138614 -0.987693 0.0393153
-0.392397 -0.890756 -0.125407
-0.270716 -0.95095 -0.0815027
-0.138614 -0.987693 -0.0393153
-0.266459 -0.917413 -0.162101
-0.137256 -0.966764 -0.117884
-0.134684 -0.925476 -0.194232
0.706659 2.66007e-17 0.327489
0.7841 -0.0798522 0.312674
0.845978 -0.156846 0.273196
0.890756 -0.2293 0.214887
0.917413 -0.295557 0.145994
0.925476 -0.354053 0.0732741
0.7841 0.0798522 0.312674
0.858436 -3.00822e-17 0.274667
0.914565 -0.0771463 0.217339
0.95095 -0.149691 0.148352
0.966764 -0.215704 0.0746832
0.845978 0.156846 0.273196
0.914565 0.0771463 0.217339
0.962244 0 0.149167
0.987693 -0.0724531 0.0754274
0.890756 0.2293 0.214887
0.95095 0.149691 0.148352
0.987693 0.0724531 0.0754274
0.917413 0.295557 0.145994
0.966764 0.215704 0.0746832
0.925476 0.354053 0.0732741
0.706659 2.66007e-17 -0.327489
0.7841 0.0798522 -0.312674
0.845978 0.156846 -0.273196
0.890756 0.2293 -0.214887
0.917413 0.295557 -0.145994
0.925476 0.354053 -0.0732741
0.7841 -0.0798522 -0.312674
0.858436 -3.00822e-17 -0.274667
0.914565 0.0771463 -0.217339
0.95095 0.149691 -0.148352
0.966764 0.215704 -0.0746832
0.845978 -0.156846 -0.273196
0.914565 -0.0771463 -0.217339
0.962244 0 -0.149167
0.987693 0.0724531 -0.0754274
0.890756 -0.2293 -0.214887
0.95095 -0.149691 -0.148352
0.987693 -0.0724531 -0.0754274
0.917413 -0.295557 -0.145994
0.966764 -0.215704 -0.0746832
0.925476 -0.354053 -0.0732741
-0.706659 2.66007e-17 0.327489
-0.7841 0.0798522 0.312674
-0.845978 0.156846 0.273196
-0.890756 0.2293 0.214887
-0.917413 0.295557 0.145994
-0.925476 0.354053 0.0732741
-0.7841 -0.0798522 0.312674
-0.858436 -3.00822e-17 0.274667
-0.914565 0.0771463 0.217339
-0.95095 0.149691 0.148352
-0.966764 0.215704 0.0746832
-0.845978 -0.156846 0.273196
-0.914565 -0.0771463 0.217339
-0.962244 0 0.149167
-0.987693 0.0724531 0.0754274
-0.890756 -0.2293 0.214887
-0.95095 -0.149691 0.148352
-0.987693 -0.0724531 0.0754274
-0.917413 -0.295557 0.145994
-0.966764 -0.215704 0.0746832
-0.925476 -0.354053 0.0732741
-0.706659 2.66007e-17 -0.327489
-0.7841 -0.0798522 -0.312674
-0.845978 -0.156846 -0.273196
-0.890756 -0.2293 -0.214887
-0.917413 -0.295557 -0.145994
-0.925476 -0.354053 -0.0732741
-0.7841 0.0798522 -0.312674
-0.858436 -3.00822e-17 -0.274667
-0.914565 -0.0771463 -0.217339
-0.95095 -0.149691 -0.148352
-0.966764 -0.215704 -0.0746832
-0.845978 0.156846 -0.273196
-0.914565 0.0771463 -0.217339
-0.962244 0 -0.149167
-0.987693 -0.0724531 -0.0754274
-0.890756 0.2293 -0.214887
-0.95095 0.149691 -0.148352
-0.987693 0.0724531 -0.0754274
-0.917413 0.295557 -0.145994
-0.966764 0.215704 -0.0746832
-0.925476 0.354053 -0.0732741
2.66007e-17 0.707554 0.327467
-0.0798522 0.615476 0.317857
-0.156846 0.509628 0.289689
-0.2293 0.392397 0.254843
-0.295557 0.266459 0.227311
-0.354053 0.134684 0.217887
0.0798522 0.615476 0.317857
-3.00822e-17 0.512921 0.28133
-0.0771463 0.397012 0.230513
-0.149691 0.270716 0.184534
-0.215704 0.137256 0.160935
0.156846 0.509628 0.289689
0.0771463 0.397012 0.230513
0 0.272187 0.167915
-0.0724531 0.138614 0.126056
0.2293 0.392397 0.254843
0.149691 0.270716 0.184534
0.0724531 0.138614 0.126056
0.295557 0.266459 0.227311
0.215704 0.137256 0.160935
0.354053 0.134684 0.217887
2.66007e-17 -0.707554 0.327467
0.0798522 -0.615476 0.317857
0.156846 -0.509628 0.289689
0.2293 -0.392397 0.254843
0.295557 -0.266459 0.227311
0.354053 -0.134684 0.217887
-0.0798522 -0.615476 0.317857
-3.00822e-17 -0.512921 0.28133
0.0771463 -0.397012 0.230513
0.149691 -0.270716 0.184534
0.215704 -0.137256 0.160935
-0.156846 -0.509628 0.289689
-0.0771463 -0.397012 0.230513
0 -0.272187 0.167915
0.0724531 -0.138614 0.126056
-0.2293 -0.392397 0.254843
-0.149691 -0.270716 0.184534
-0.0724531 -0.138614 0.126056
-0.295557 -0.266459 0.227311
-0.215704 -0.137256 0.160935
-0.354053 -0.134684 0.217887
2.66007e-17 0.707554 -0.327467
0.0798522 0.615476 -0.317857
0.156846 0.509628 -0.289689
0.2293 0.392397 -0.254843
0.295557 0.266459 -0.227311
0.354053 0.134684 -0.217887
-0.0798522 0.615476 -0.317857
-3.00822e-17 0.512921 -0.28133
0.0771463 0.397012 -0.230513
0.149691 0.270716 -0.184534
0.215704 0.137256 -0.160935
-0.156846 0.509628 -0.289689
-0.0771463 0.397012 -0.230513
0 0.272187 -0.167915
0.0724531 0.138614 -0.126056
-0.2293 0.392397 -0.254843
-0.149691 0.270716 -0.184534
-0.0724531 0.138614 -0.126056
-0.295557 0.266459 -0.227311
-0.215704 0.137256 -0.160935
-0.354053 0.134684 -0.217887
2.66007e-17 -0.707554 -0.327467
-0.0798522 -0.615476 -0.317857
-0.156846 -0.509628 -0.289689
-0.2293 -0.392397 -0.254843
-0.295557 -0.266459 -0.227311
-0.354053 -0.134684 -0.217887
0.0798522 -0.615476 -0.317857
-3.00822e-17 -0.512921 -0.28133
-0.0771463 -0.397012 -0.230513
-0.149691 -0.270716 -0.184534
-0.215704 -0.137256 -0.160935
0.156846 -0.509628 -0.289689
0.0771463 -0.397012 -0.230513
0 -0.272187 -0.167915
-0.0724531 -0.138614 -0.126056
0.2293 -0.392397 -0.254843
0.149691 -0.270716 -0.184534
0.0724531 -0.138614 -0.126056
0.295557 -0.266459 -0.227311
0.215704 -0.137256 -0.160935
0.354053 -0.134684 -0.217887
POLYGONS 1280 5120
3 0 12 19
3 12 13 222
3 13 14 223
3 14 15 224
3 15 16 225
3 16 17 226
3 17 18 227
3 18 8 32
3 19 222 20
3 222 223 228
3 223 224 229
3 224 225 230
3 225 226 231
3 226 227 232
3 227 32 31
3 20 228 21
3 228 229 233
3 229 230 234
3 230 231 235
3 231 232 236
3 232 31 30
3 21 233 22
3 233 234 237
3 234 235 238
3 235 236 239
3 236 30 29
3 22 237 23
3 237 238 240
3 238 239 241
3 239 29 28
3 23 240 24
3 240 241 242
3 241 28 27
3 24 242 25
3 242 27 26
3 25 26 4
3 19 12 222
3 222 13 223
3 223 14 224
3 224 15 225
3 225 16 226
3 226 17 227
3 227 18 32
3 20 222 228
3 228 223 229
3 229 224 230
3 230 225 231
3 231 226 232
3 232 227 31
3 21 228 233
3 233 229 234
3 234 230 235
3 235 231 236
3 236 232 30
3 22 233 237
3 237 234 238
3 238 235 239
3 239 236 29
3 23 237 240
3 240 238 241
3 241 239 28
3 24 240 242
3 242 241 27
3 25 242 26
3 0 33 40
3 33 34 243
3 34 35 244
3 35 36 245
3 36 37 246
3 37 38 247
3 38 39 248
3 39 5 47
3 40 243 41
3 243 244 249
3 244 245 250
3 245 246 251
3 246 247 252
3 247 248 253
3 248 47 48
3 41 249 42
3 249 250 254
3 250 251 255
3 251 252 256
3 252 253 257
3 253 48 49
3 42 254 43
3 254 255 258
3 255 256 259
3 256 257 260
3 257 49 50
3 43 258 44
3 258 259 261
3 259 260 262
3 260 50 51
3 44 261 45
3 261 262 263
3 262 51 52
3 45 263 46
3 263 52 53
3 46 53 10
3 40 33 243
3 243 34 244
3 244 35 245
3 245 36 246
3 246 37 247
3 247 38 248
3 248 39 47
3 41 243 249
3 249 244 250
3 250 245 251
3 251 246 252
3 252 247 253
3 253 248 48
3 42 249 254
3 254 250 255
3 255 251 256
3 256 252 257
3 257 253 49
3 43 254 258
3 258 255 259
3 259 256 260
3 260 257 50
3 44 258 261
3 261 259 262
3 262 260 51
3 45 261 263
3 263 262 52
3 46 263 53
3 2 54 61
3 54 55 264
3 55 56 265
3 56 57 266
3 57 58 267
3 58 59 268
3 59 60 269
3 60 4 68
3 61 264 62
3 264 265 270
3 265 266 271
3 266 267 272
3 267 268 273
3 268 269 274
3 269 68 69
3 62 270 63
3 270 271 275
3 271 272 276
3 272 273 277
3 273 274 278
3 274 69 70
3 63 275 64
3 275 276 279
3 276 277 280
3 277 278 281
3 278 70 71
3 64 279 65
3 279 280 282
3 280 281 283
3 281 71 72
3 65 282 66
3 282 283 284
3 283 72 73
3 66 284 67
3 284 73 74
3 67 74 9
3 61 54 264
3 264 55 265
3 265 56 266
3 266 57 267
3 267 58 268
3 268 59 269
3 269 60 68
3 62 264 270
3 270 265 271
3 271 266 272
3 272 267 273
3 273 268 274
3 274 269 69
3 63 270 275
3 275 271 276
3 276 272 277
3 277 273 278
3 278 274 70
3 64 275 279
3 279 276 280
3 280 277 281
3 281 278 71
3 65 279 282
3 282 280 283
3 283 281 72
3 66 282 284
3 284 283 73
3 67 284 74
3 2 75 82
3 75 76 285
3 76 77 286
3 77 78 287
3 78 79 288
3 79 80 289
3 80 81 290
3 81 11 95
3 82 285 83
3 285 286 291
3 286 287 292
3 287 288 293
3 288 289 294
3 289 290 295
3 290 95 94
3 83 291 84
3 291 292 296
3 292 293 297
3 293 294 298
3 294 295 299
3 295 94 93
3 84 296 85
3 296 297 300
3 297 298 301
3 298 299 302
3 299 93 92
3 85 300 86
3 300 301 303
3 301 302 304
3 302 92 91
3 86 303 87
3 303 304 305
3 304 91 90
3 87 305 88
3 305 90 89
3 88 89 5
3 82 75 285
3 285 76 286
3 286 77 287
3 287 78 288
3 288 79 289
3 289 80 290
3 290 81 95
3 83 285 291
3 291 286 292
3 292 287 293
3 293 288 294
3 294 289 295
3 295 290 94
3 84 291 296
3 296 292 297
3 297 293 298
3 298 294 299
3 299 295 93
3 85 296 300
3 300 297 301
3 301 298 302
3 302 299 92
3 86 300 303
3 303 301 304
3 304 302 91
3 87 303 305
3 305 304 90
3 88 305 89
3 1 96 103
3 96 97 306
3 97 98 307
3 98 99 308
3 99 100 309
3 100 101 310
3 101 102 311
3 102 6 110
3 103 306 104
3 306 307 312
3 307 308 313
3 308 309 314
3 309 310 315
3 310 311 316
3 311 110 111
3 104 312 105
3 312 313 317
3 313 314 318
3 314 315 319
3 315 316 320
3 316 111 112
3 105 317 106
3 317 318 321
3 318 319 322
3 319 320 323
3 320 112 113
3 106 321 107
3 321 322 324
3 322 323 325
3 323 113 114
3 107 324 108
3 324 325 326
3 325 114 115
3 108 326 109
3 326 115 116
3 109 116 8
3 103 96 306
3 306 97 307
3 307 98 308
3 308 99 309
3 309 100 310
3 310 101 311
3 311 102 110
3 104 306 312
3 312 307 313
3 313 308 314
3 314 309 315
3 315 310 316
3 316 311 111
3 105 312 317
3 317 313 318
3 318 314 319
3 319 315 320
3 320 316 112
3 106 317 321
3 321 318 322
3 322 319 323
3 323 320 113
3 107 321 324
3 324 322 325
3 325 323 114
3 108 324 326
3 326 325 115
3 109 326 116
3 1 117 124
3 117 118 327
3 118 119 328
3 119 120 329
3 120 121 330
3 121 122 331
3 122 123 332
3 123 10 137
3 124 327 125
3 327 328 333
3 328 329 334
3 329 330 335
3 330 331 336
3 331 332 337
3 332 137 136
3 125 333 126
3 333 334 338
3 334 335 339
3 335 336 340
3 336 337 341
3 337 136 135
3 126 338 127
3 338 339 342
3 339 340 343
3 340 341 344
3 341 135 134
3 127 342 128
3 342 343 345
3 343 344 346
3 344 134 133
3 128 345 129
3 345 346 347
3 346 133 132
3 129 347 130
3 347 132 131
3 130 131 7
3 124 117 327
3 327 118 328
3 328 119 329
3 329 120 330
3 330 121 331
3 331 122 332
3 332 123 137
3 125 327 333
3 333 328 334
3 334 329 335
3 335 330 336
3 336 331 337
3 337 332 136
3 126 333 338
3 338 334 339
3 339 335 340
3 340 336 341
3 341 337 135
3 127 338 342
3 342 339 343
3 343 340 344
3 344 341 134
3 128 342 345
3 345 343 346
3 346 344 133
3 129 345 347
3 347 346 132
3 130 347 131
3 3 138 145
3 138 139 348
3 139 140 349
3 140 141 350
3 141 142 351
3 142 143 352
3 143 144 353
3 144 9 158
3 145 348 146
3 348 349 354
3 349 350 355
3 350 351 356
3 351 352 357
3 352 353 358
3 353 158 157
3 146 354 147
3 354 355 359
3 355 356 360
3 356 357 361
3 357 358 362
3 358 157 156
3 147 359 148
3 359 360 363
3 360 361 364
3 361 362 365
3 362 156 155
3 148 363 149
3 363 364 366
3 364 365 367
3 365 155 154
3 149 366 150
3 366 367 368
3 367 154 153
3 150 368 151
3 368 153 152
3 151 152 6
3 145 138 348
3 348 139 349
3 349 140 350
3 350 141 351
3 351 142 352
3 352 143 353
3 353 144 158
3 146 348 354
3 354 349 355
3 355 350 356
3 356 351 357
3 357 352 358
3 358 353 157
3 147 354 359
3 359 355 360
3 360 356 361
3 361 357 362
3 362 358 156
3 148 359 363
3 363 360 364
3 364 361 365
3 365 362 155
3 149 363 366
3 366 364 367
3 367 365 154
3 150 366 368
3 368 367 153
3 151 368 152
3 3 159 166
3 159 160 369
3 160 161 370
3 161 162 371
3 162 163 372
3 163 164 373
3 164 165 374
3 165 7 173
3 166 369 167
3 369 370 375
3 370 371 376
3 371 372 377
3 372 373 378
3 373 374 379
3 374 173 174
3 167 375 168
3 375 376 380
3 376 377 381
3 377 378 382
3 378 379 383
3 379 174 175
3 168 380 169
3 380 381 384
3 381 382 385
3 382 383 386
3 383 175 176
3 169 384 170
3 384 385 387
3 385 386 388
3 386 176 177
3 170 387 171
3 387 388 389
3 388 177 178
3 171 389 172
3 389 178 179
3 172 179 11
3 166 159 369
3 369 160 370
3 370 161 371
3 371 162 372
3 372 163 373
3 373 164 374
3 374 165 173
3 167 369 375
3 375 370 376
3 376 371 377
3 377 372 378
3 378 373 379
3 379 374 174
3 168 375 380
3 380 376 381
3 381 377 382
3 382 378 383
3 383 379 175
3 169 380 384
3 384 381 385
3 385 382 386
3 386 383 176
3 170 384 387
3 387 385 388
3 388 386 177
3 171 387 389
3 389 388 178
3 172 389 179
3 0 40 12
3 40 41 390
3 41 42 391
3 42 43 392
3 43 44 393
3 44 45 394
3 45 46 395
3 46 10 186
3 12 390 13
3 390 391 396
3 391 392 397
3 392 393 398
3 393 394 399
3 394 395 400
3 395 186 185
3 13 396 14
3 396 397 401
3 397 398 402
3 398 399 403
3 399 400 404
3 400 185 184
3 14 401 15
3 401 402 405
3 402 403 406
3 403 404 407
3 404 184 183
3 15 405 16
3 405 406 408
3 406 407 409
3 407 183 182
3 16 408 17
3 408 409 410
3 409 182 181
3 17 410 18
3 410 181 180
3 18 180 8
3 12 40 390
3 390 41 391
3 391 42 392
3 392 43 393
3 393 44 394
3 394 45 395
3 395 46 186
3 13 390 396
3 396 391 397
3 397 392 398
3 398 393 399
3 399 394 400
3 400 395 185
3 14 396 401
3 401 397 402
3 402 398 403
3 403 399 404
3 404 400 184
3 15 401 405
3 405 402 406
3 406 403 407
3 407 404 183
3 16 405 408
3 408 406 409
3 409 407 182
3 17 408 410
3 410 409 181
3 18 410 180
3 1 103 117
3 103 104 411
3 104 105 412
3 105 106 413
3 106 107 414
3 107 108 415
3 108 109 416
3 109 8 180
3 117 411 118
3 411 412 417
3 412 413 418
3 413 414 419
3 414 415 420
3 415 416 421
3 416 180 181
3 118 417 119
3 417 418 422
3 418 419 423
3 419 420 424
3 420 421 425
3 421 181 182
3 119 422 120
3 422 423 426
3 423 424 427
3 424 425 428
3 425 182 183
3 120 426 121
3 426 427 429
3 427 428 430
3 428 183 184
3 121 429 122
3 429 430 431
3 430 184 185
3 122 431 123
3 431 185 186
3 123 186 10
3 117 103 411
3 411 104 412
3 412 105 413
3 413 106 414
3 414 107 415
3 415 108 416
3 416 109 180
3 118 411 417
3 417 412 418
3 418 413 419
3 419 414 420
3 420 415 421
3 421 416 181
3 119 417 422
3 422 418 423
3 423 419 424
3 424 420 425
3 425 421 182
3 120 422 426
3 426 423 427
3 427 424 428
3 428 425 183
3 121 426 429
3 429 427 430
3 430 428 184
3 122 429 431
3 431 430 185
3 123 431 186
3 2 61 75
3 61 62 432
3 62 63 433
3 63 64 434
3 64 65 435
3 65 66 436
3 66 67 437
3 67 9 187
3 75 432 76
3 432 433 438
3 433 434 439
3 434 435 440
3 435 436 441
3 436 437 442
3 437 187 188
3 76 438 77
3 438 439 443
3 439 440 444
3 440 441 445
3 441 442 446
3 442 188 189
3 77 443 78
3 443 444 447
3 444 445 448
3 445 446 449
3 446 189 190
3 78 447 79
3 447 448 450
3 448 449 451
3 449 190 191
3 79 450 80
3 450 451 452
3 451 191 192
3 80 452 81
3 452 192 193
3 81 193 11
3 75 61 432
3 432 62 433
3 433 63 434
3 434 64 435
3 435 65 436
3 436 66 437
3 437 67 187
3 76 432 438
3 438 433 439
3 439 434 440
3 440 435 441
3 441 436 442
3 442 437 188
3 77 438 443
3 443 439 444
3 444 440 445
3 445 441 446
3 446 442 189
3 78 443 447
3 447 444 448
3 448 445 449
3 449 446 190
3 79 447 450
3 450 448 451
3 451 449 191
3 80 450 452
3 452 451 192
3 81 452 193
3 3 138 166
3 138 139 453
3 139 140 454
3 140 141 455
3 141 142 456
3 142 143 457
3 143 144 458
3 144 9 187
3 166 453 167
3 453 454 459
3 454 455 460
3 455 456 461
3 456 457 462
3 457 458 463
3 458 187 188
3 167 459 168
3 459 460 464
3 460 461 465
3 461 462 466
3 462 463 467
3 463 188 189
3 168 464 169
3 464 465 468
3 465 466 469
3 466 467 470
3 467 189 190
3 169 468 170
3 468 469 471
3 469 470 472
3 470 190 191
3 170 471 171
3 471 472 473
3 472 191 192
3 171 473 172
3 473 192 193
3 172 193 11
3 166 138 453
3 453 139 454
3 454 140 455
3 455 141 456
3 456 142 457
3 457 143 458
3 458 144 187
3 167 453 459
3 459 454 460
3 460 455 461
3 461 456 462
3 462 457 463
3 463 458 188
3 168 459 464
3 464 460 465
3 465 461 466
3 466 462 467
3 467 463 189
3 169 464 468
3 468 465 469
3 469 466 470
3 470 467 190
3 170 468 471
3 471 469 472
3 472 470 191
3 171 471 473
3 473 472 192
3 172 473 193
3 4 60 25
3 60 59 474
3 59 58 475
3 58 57 476
3 57 56 477
3 56 55 478
3 55 54 479
3 54 2 200
3 25 474 24
3 474 475 480
3 475 476 481
3 476 477 482
3 477 478 483
3 478 479 484
3 479 200 199
3 24 480 23
3 480 481 485
3 481 482 486
3 482 483 487
3 483 484 488
3 484 199 198
3 23 485 22
3 485 486 489
3 486 487 490
3 487 488 491
3 488 198 197
3 22 489 21
3 489 490 492
3 490 491 493
3 491 197 196
3 21 492 20
3 492 493 494
3 493 196 195
3 20 494 19
3 494 195 194
3 19 194 0
3 25 60 474
3 474 59 475
3 475 58 476
3 476 57 477
3 477 56 478
3 478 55 479
3 479 54 200
3 24 474 480
3 480 475 481
3 481 476 482
3 482 477 483
3 483 478 484
3 484 479 199
3 23 480 485
3 485 481 486
3 486 482 487
3 487 483 488
3 488 484 198
3 22 485 489
3 489 486 490
3 490 487 491
3 491 488 197
3 21 489 492
3 492 490 493
3 493 491 196
3 20 492 494
3 494 493 195
3 19 494 194
3 5 39 88
3 39 38 495
3 38 37 496
3 37 36 497
3 36 35 498
3 35 34 499
3 34 33 500
3 33 0 194
3 88 495 87
3 495 496 501
3 496 497 502
3 497 498 503
3 498 499 504
3 499 500 505
3 500 194 195
3 87 501 86
3 501 502 506
3 502 503 507
3 503 504 508
3 504 505 509
3 505 195 196
3 86 506 85
3 506 507 510
3 507 508 511
3 508 509 512
3 509 196 197
3 85 510 84
3 510 511 513
3 511 512 514
3 512 197 198
3 84 513 83
3 513 514 515
3 514 198 199
3 83 515 82
3 515 199 200
3 82 200 2
3 88 39 495
3 495 38 496
3 496 37 497
3 497 36 498
3 498 35 499
3 499 34 500
3 500 33 194
3 87 495 501
3 501 496 502
3 502 497 503
3 503 498 504
3 504 499 505
3 505 500 195
3 86 501 506
3 506 502 507
3 507 503 508
3 508 504 509
3 509 505 196
3 85 506 510
3 510 507 511
3 511 508 512
3 512 509 197
3 84 510 513
3 513 511 514
3 514 512 198
3 83 513 515
3 515 514 199
3 82 515 200
3 6 102 151
3 102 101 516
3 101 100 517
3 100 99 518
3 99 98 519
3 98 97 520
3 97 96 521
3 96 1 201
3 151 516 150
3 516 517 522
3 517 518 523
3 518 519 524
3 519 520 525
3 520 521 526
3 521 201 202
3 150 522 149
3 522 523 527
3 523 524 528
3 524 525 529
3 525 526 530
3 526 202 203
3 149 527 148
3 527 528 531
3 528 529 532
3 529 530 533
3 530 203 204
3 148 531 147
3 531 532 534
3 532 533 535
3 533 204 205
3 147 534 146
3 534 535 536
3 535 205 206
3 146 536 145
3 536 206 207
3 145 207 3
3 151 102 516
3 516 101 517
3 517 100 518
3 518 99 519
3 519 98 520
3 520 97 521
3 521 96 201
3 150 516 522
3 522 517 523
3 523 518 524
3 524 519 525
3 525 520 526
3 526 521 202
3 149 522 527
3 527 523 528
3 528 524 529
3 529 525 530
3 530 526 203
3 148 527 531
3 531 528 532
3 532 529 533
3 533 530 204
3 147 531 534
3 534 532 535
3 535 533 205
3 146 534 536
3 536 535 206
3 145 536 207
3 7 165 130
3 165 164 537
3 164 163 538
3 163 162 539
3 162 161 540
3 161 160 541
3 160 159 542
3 159 3 207
3 130 537 129
3 537 538 543
3 538 539 544
3 539 540 545
3 540 541 546
3 541 542 547
3 542 207 206
3 129 543 128
3 543 544 548
3 544 545 549
3 545 546 550
3 546 547 551
3 547 206 205
3 128 548 127
3 548 549 552
3 549 550 553
3 550 551 554
3 551 205 204
3 127 552 126
3 552 553 555
3 553 554 556
3 554 204 203
3 126 555 125
3 555 556 557
3 556 203 202
3 125 557 124
3 557 202 201
3 124 201 1
3 130 165 537
3 537 164 538
3 538 163 539
3 539 162 540
3 540 161 541
3 541 160 542
3 542 159 207
3 129 537 543
3 543 538 544
3 544 539 545
3 545 540 546
3 546 541 547
3 547 542 206
3 128 543 548
3 548 544 549
3 549 545 550
3 550 546 551
3 551 547 205
3 127 548 552
3 552 549 553
3 553 550 554
3 554 551 204
3 126 552 555
3 555 553 556
3 556 554 203
3 125 555 557
3 557 556 202
3 124 557 201
3 8 116 32
3 116 115 558
3 115 114 559
3 114 113 560
3 113 112 561
3 112 111 562
3 111 110 563
3 110 6 214
3 32 558 31
3 558 559 564
3 559 560 565
3 560 561 566
3 561 562 567
3 562 563 568
3 563 214 213
3 31 564 30
3 564 565 569
3 565 566 570
3 566 567 571
3 567 568 572
3 568 213 212
3 30 569 29
3 569 570 573
3 570 571 574
3 571 572 575
3 572 212 211
3 29 573 28
3 573 574 576
3 574 575 577
3 575 211 210
3 28 576 27
3 576 577 578
3 577 210 209
3 27 578 26
3 578 209 208
3 26 208 4
3 32 116 558
3 558 115 559
3 559 114 560
3 560 113 561
3 561 112 562
3 562 111 563
3 563 110 214
3 31 558 564
3 564 559 565
3 565 560 566
3 566 561 567
3 567 562 568
3 568 563 213
3 30 564 569
3 569 565 570
3 570 566 571
3 571 567 572
3 572 568 212
3 29 569 573
3 573 570 574
3 574 571 575
3 575 572 211
3 28 573 576
3 576 574 577
3 577 575 210
3 27 576 578
3 578 577 209
3 26 578 208
3 9 74 158
3 74 73 579
3 73 72 580
3 72 71 581
3 71 70 582
3 70 69 583
3 69 68 584
3 68 4 208
3 158 579 157
3 579 580 585
3 580 581 586
3 581 582 587
3 582 583 588
3 583 584 589
3 584 208 209
3 157 585 156
3 585 586 590
3 586 587 591
3 587 588 592
3 588 589 593
3 589 209 210
3 156 590 155
3 590 591 594
3 591 592 595
3 592 593 596
3 593 210 211
3 155 594 154
3 594 595 597
3 595 596 598
3 596 211 212
3 154 597 153
3 597 598 599
3 598 212 213
3 153 599 152
3 599 213 214
3 152 214 6
3 158 74 579
3 579 73 580
3 580 72 581
3 581 71 582
3 582 70 583
3 583 69 584
3 584 68 208
3 157 579 585
3 585 580 586
3 586 581 587
3 587 582 588
3 588 583 589
3 589 584 209
3 156 585 590
3 590 586 591
3 591 587 592
3 592 588 593
3 593 589 210
3 155 590 594
3 594 591 595
3 595 592 596
3 596 593 211
3 154 594 597
3 597 595 598
3 598 596 212
3 153 597 599
3 599 598 213
3 152 599 214
3 10 53 137
3 53 52 600
3 52 51 601
3 51 50 602
3 50 49 603
3 49 48 604
3 48 47 605
3 47 5 215
3 137 600 136
3 600 601 606
3 601 602 607
3 602 603 608
3 603 604 609
3 604 605 610
3 605 215 216
3 136 606 135
3 606 607 611
3 607 608 612
3 608 609 613
3 609 610 614
3 610 216 217
3 135 611 134
3 611 612 615
3 612 613 616
3 613 614 617
3 614 217 218
3 134 615 133
3 615 616 618
3 616 617 619
3 617 218 219
3 133 618 132
3 618 619 620
3 619 219 220
3 132 620 131
3 620 220 221
3 131 221 7
3 137 53 600
3 600 52 601
3 601 51 602
3 602 50 603
3 603 49 604
3 604 48 605
3 605 47 215
3 136 600 606
3 606 601 607
3 607 602 608
3 608 603 609
3 609 604 610
3 610 605 216
3 135 606 611
3 611 607 612
3 612 608 613
3 613 609 614
3 614 610 217
3 134 611 615
3 615 612 616
3 616 613 617
3 617 614 218
3 133 615 618
3 618 616 619
3 619 617 219
3 132 618 620
3 620 619 220
3 131 620 221
3 11 179 95
3 179 178 621
3 178 177 622
3 177 176 623
3 176 175 624
3 175 174 625
3 174 173 626
3 173 7 221
3 95 621 94
3 621 622 627
3 622 623 628
3 623 624 629
3 624 625 630
3 625 626 631
3 626 221 220
3 94 627 93
3 627 628 632
3 628 629 633
3 629 630 634
3 630 631 635
3 631 220 219
3 93 632 92
3 632 633 636
3 633 634 637
3 634 635 638
3 635 219 218
3 92 636 91
3 636 637 639
3 637 638 640
3 638 218 217
3 91 639 90
3 639 640 641
3 640 217 216
3 90 641 89
3 641 216 215
3 89 215 5
3 95 179 621
3 621 178 622
3 622 177 623
3 623 176 624
3 624 175 625
3 625 174 626
3 626 173 221
3 94 621 627
3 627 622 628
3 628 623 629
3 629 624 630
3 630 625 631
3 631 626 220
3 93 627 632
3 632 628 633
3 633 629 634
3 634 630 635
3 635 631 219
3 92 632 636
3 636 633 637
3 637 634 638
3 638 635 218
3 91 636 639
3 639 637 640
3 640 638 217
3 90 639 641
3 641 640 216
3 89 641 215
