# vtk DataFile Version 3.0
vtk output
ASCII
DATASET POLYDATA
POINTS 1002 float
0.850651 0.525731 0
-0.850651 0.525731 0
0.850651 -0.525731 0
-0.850651 -0.525731 0
0.525731 0 0.850651
0.525731 0 -0.850651
-0.525731 0 0.850651
-0.525731 0 -0.850651
0 0.850651 0.525731
0 -0.850651 0.525731
0 0.850651 -0.525731
0 -0.850651 -0.525731
0.798449 0.59855 0.0649437
0.73647 0.664039 0.129092
0.665472 0.721397 0.19166
0.586326 0.769921 0.251881
0.5 0.809017 0.309017
0.407551 0.838207 0.362369
0.310112 0.857132 0.411285
0.208875 0.865562 0.455163
0.105081 0.863393 0.493469
0.863393 0.493469 0.105081
0.865562 0.455163 0.208875
0.857132 0.411285 0.310112
0.838207 0.362369 0.407551
0.809017 0.309017 0.5
0.769921 0.251881 0.586326
0.721397 0.19166 0.665472
0.664039 0.129092 0.73647
0.59855 0.0649437 0.798449
0.493469 0.105081 0.863393
0.455163 0.208875 0.865562
0.411285 0.310112 0.857132
0.362369 0.407551 0.838207
0.309017 0.5 0.809017
0.251881 0.586326 0.769921
0.19166 0.665472 0.721397
0.129092 0.73647 0.664039
0.0649437 0.798449 0.59855
0.863393 0.493469 -0.105081
0.865562 0.455163 -0.208875
0.857132 0.411285 -0.310112
0.838207 0.362369 -0.407551
0.809017 0.309017 -0.5
0.769921 0.251881 -0.586326
0.721397 0.19166 -0.665472
0.664039 0.129092 -0.73647
0.59855 0.0649437 -0.798449
0.798449 0.59855 -0.0649437
0.73647 0.664039 -0.129092
0.665472 0.721397 -0.19166
0.586326 0.769921 -0.251881
0.5 0.809017 -0.309017
0.407551 0.838207 -0.362369
0.310112 0.857132 -0.411285
0.208875 0.865562 -0.455163
0.105081 0.863393 -0.493469
0.493469 0.105081 -0.863393
0.455163 0.208875 -0.865562
0.411285 0.310112 -0.857132
0.362369 0.407551 -0.838207
0.309017 0.5 -0.809017
0.251881 0.586326 -0.769921
0.19166 0.665472 -0.721397
0.129092 0.73647 -0.664039
0.0649437 0.798449 -0.59855
0.863393 -0.493469 0.105081
0.865562 -0.455163 0.208875
0.857132 -0.411285 0.310112
0.838207 -0.362369 0.407551
0.809017 -0.309017 0.5
0.769921 -0.251881 0.586326
0.721397 -0.19166 0.665472
0.664039 -0.129092 0.73647
0.59855 -0.0649437 0.798449
0.798449 -0.59855 0.0649437
0.73647 -0.664039 0.129092
0.665472 -0.721397 0.19166
0.586326 -0.769921 0.251881
0.5 -0.809017 0.309017
0.407551 -0.838207 0.362369
0.310112 -0.857132 0.411285
0.208875 -0.865562 0.455163
0.105081 -0.863393 0.493469
0.493469 -0.105081 0.863393
0.455163 -0.208875 0.865562
0.411285 -0.310112 0.857132
0.362369 -0.407551 0.838207
0.309017 -0.5 0.809017
0.251881 -0.586326 0.769921
0.19166 -0.665472 0.721397
0.129092 -0.73647 0.664039
0.0649437 -0.798449 0.59855
0.798449 -0.59855 -0.0649437
0.73647 -0.664039 -0.129092
0.665472 -0.721397 -0.19166
0.586326 -0.769921 -0.251881
0.5 -0.809017 -0.309017
0.407551 -0.838207 -0.362369
0.310112 -0.857132 -0.411285
0.208875 -0.865562 -0.455163
0.105081 -0.863393 -0.493469
0.863393 -0.493469 -0.105081
0.865562 -0.455163 -0.208875
0.857132 -0.411285 -0.310112
0.838207 -0.362369 -0.407551
0.809017 -0.309017 -0.5
0.769921 -0.251881 -0.586326
0.721397 -0.19166 -0.665472
0.664039 -0.129092 -0.73647
0.59855 -0.0649437 -0.798449
0.493469 -0.105081 -0.863393
0.455163 -0.208875 -0.865562
0.411285 -0.310112 -0.857132
0.362369 -0.407551 -0.838207
0.309017 -0.5 -0.809017
0.251881 -0.586326 -0.769921
0.19166 -0.665472 -0.721397
0.129092 -0.73647 -0.664039
0.0649437 -0.798449 -0.59855
-0.863393 0.493469 0.105081
-0.865562 0.455163 0.208875
-0.857132 0.411285 0.310112
-0.838207 0.362369 0.407551
-0.809017 0.309017 0.5
-0.769921 0.251881 0.586326
-0.721397 0.19166 0.665472
-0.664039 0.129092 0.73647
-0.59855 0.0649437 0.798449
-0.798449 0.59855 0.0649437
-0.73647 0.664039 0.129092
-0.665472 0.721397 0.19166
-0.586326 0.769921 0.251881
-0.5 0.809017 0.309017
-0.407551 0.838207 0.362369
-0.310112 0.857132 0.411285
-0.208875 0.865562 0.455163
-0.105081 0.863393 0.493469
-0.493469 0.105081 0.863393
-0.455163 0.208875 0.865562
-0.411285 0.310112 0.857132
-0.362369 0.407551 0.838207
-0.309017 0.5 0.809017
-0.251881 0.586326 0.769921
-0.19166 0.665472 0.721397
-0.129092 0.73647 0.664039
-0.0649437 0.798449 0.59855
-0.798449 0.59855 -0.0649437
-0.73647 0.664039 -0.129092
-0.665472 0.721397 -0.19166
-0.586326 0.769921 -0.251881
-0.5 0.809017 -0.309017
-0.407551 0.838207 -0.362369
-0.310112 0.857132 -0.411285
-0.208875 0.865562 -0.455163
-0.105081 0.863393 -0.493469
-0.863393 0.493469 -0.105081
-0.865562 0.455163 -0.208875
-0.857132 0.411285 -0.310112
-0.838207 0.362369 -0.407551
-0.809017 0.309017 -0.5
-0.769921 0.251881 -0.586326
-0.721397 0.19166 -0.665472
-0.664039 0.129092 -0.73647
-0.59855 0.0649437 -0.798449
-0.493469 0.105081 -0.863393
-0.455163 0.208875 -0.865562
-0.411285 0.310112 -0.857132
-0.362369 0.407551 -0.838207
-0.309017 0.5 -0.809017
-0.251881 0.586326 -0.769921
-0.19166 0.665472 -0.721397
-0.129092 0.73647 -0.664039
-0.0649437 0.798449 -0.59855
-0.798449 -0.59855 0.0649437
-0.73647 -0.664039 0.129092
-0.665472 -0.721397 0.19166
-0.586326 -0.769921 0.251881
-0.5 -0.809017 0.309017
-0.407551 -0.838207 0.362369
-0.310112 -0.857132 0.411285
-0.208875 -0.865562 0.455163
-0.105081 -0.863393 0.493469
-0.863393 -0.493469 0.105081
-0.865562 -0.455163 0.208875
-0.857132 -0.411285 0.310112
-0.838207 -0.362369 0.407551
-0.809017 -0.309017 0.5
-0.769921 -0.251881 0.586326
-0.721397 -0.19166 0.665472
-0.664039 -0.129092 0.73647
-0.59855 -0.0649437 0.798449
-0.493469 -0.105081 0.863393
-0.455163 -0.208875 0.865562
-0.411285 -0.310112 0.857132
-0.362369 -0.407551 0.838207
-0.309017 -0.5 0.809017
-0.251881 -0.586326 0.769921
-0.19166 -0.665472 0.721397
-0.129092 -0.73647 0.664039
-0.0649437 -0.798449 0.59855
-0.863393 -0.493469 -0.105081
-0.865562 -0.455163 -0.208875
-0.857132 -0.411285 -0.310112
-0.838207 -0.362369 -0.407551
-0.809017 -0.309017 -0.5
-0.769921 -0.251881 -0.586326
-0.721397 -0.19166 -0.665472
-0.664039 -0.129092 -0.73647
-0.59855 -0.0649437 -0.798449
-0.798449 -0.59855 -0.0649437
-0.73647 -0.664039 -0.129092
-0.665472 -0.721397 -0.19166
-0.586326 -0.769921 -0.251881
-0.5 -0.809017 -0.309017
-0.407551 -0.838207 -0.362369
-0.310112 -0.857132 -0.411285
-0.208875 -0.865562 -0.455163
-0.105081 -0.863393 -0.493469
-0.493469 -0.105081 -0.863393
-0.455163 -0.208875 -0.865562
-0.411285 -0.310112 -0.857132
-0.362369 -0.407551 -0.838207
-0.309017 -0.5 -0.809017
-0.251881 -0.586326 -0.769921
-0.19166 -0.665472 -0.721397
-0.129092 -0.73647 -0.664039
-0.0649437 -0.798449 -0.59855
0 0.90353 0.428525
0 0.945345 0.326071
0 0.975584 0.219625
0 0.993877 0.110489
0 1 0
0 0.993877 -0.110489
0 0.975584 -0.219625
0 0.945345 -0.326071
0 0.90353 -0.428525
0 -0.90353 0.428525
0 -0.945345 0.326071
0 -0.975584 0.219625
0 -0.993877 0.110489
0 -1 0
0 -0.993877 -0.110489
0 -0.975584 -0.219625
0 -0.945345 -0.326071
0 -0.90353 -0.428525
0.90353 0.428525 0
0.945345 0.326071 0
0.975584 0.219625 0
0.993877 0.110489 0
1 0 0
0.993877 -0.110489 0
0.975584 -0.219625 0
0.945345 -0.326071 0
0.90353 -0.428525 0
-0.90353 0.428525 0
-0.945345 0.326071 0
-0.975584 0.219625 0
-0.993877 0.110489 0
-1 0 0
-0.993877 -0.110489 0
-0.975584 -0.219625 0
-0.945345 -0.326071 0
-0.90353 -0.428525 0
0.428525 0 0.90353
0.326071 0 0.945345
0.219625 0 0.975584
0.110489 0 0.993877
0 0 1
-0.110489 0 0.993877
-0.219625 0 0.975584
-0.326071 0 0.945345
-0.428525 0 0.90353
0.428525 0 -0.90353
0.326071 0 -0.945345
0.219625 0 -0.975584
0.110489 0 -0.993877
0 0 -1
-0.110489 0 -0.993877
-0.219625 0 -0.975584
-0.326071 0 -0.945345
-0.428525 0 -0.90353
0.806662 0.564903 0.173729
0.739431 0.628581 0.241095
0.662528 0.683621 0.306135
0.576967 0.729237 0.367862
0.483932 0.764773 0.42536
0.384747 0.789724 0.477813
0.280844 0.803746 0.524518
0.173729 0.806662 0.564903
0.803746 0.524518 0.280844
0.73079 0.585615 0.350715
0.647688 0.637523 0.417209
0.555665 0.679434 0.479172
0.456145 0.710687 0.53559
0.350715 0.73079 0.585615
0.241095 0.739431 0.628581
0.789724 0.477813 0.384747
0.710687 0.53559 0.456145
0.621245 0.583667 0.522864
0.522864 0.621245 0.583667
0.417209 0.647688 0.637523
0.306135 0.662528 0.683621
0.764773 0.42536 0.483932
0.679434 0.479172 0.555665
0.583667 0.522864 0.621245
0.479172 0.555665 0.679434
0.367862 0.576967 0.729237
0.729237 0.367862 0.576967
0.637523 0.417209 0.647688
0.53559 0.456145 0.710687
0.42536 0.483932 0.764773
0.683621 0.306135 0.662528
0.585615 0.350715 0.73079
0.477813 0.384747 0.789724
0.628581 0.241095 0.739431
0.524518 0.280844 0.803746
0.564903 0.173729 0.806662
0.806662 0.564903 -0.173729
0.803746 0.524518 -0.280844
0.789724 0.477813 -0.384747
0.764773 0.42536 -0.483932
0.729237 0.367862 -0.576967
0.683621 0.306135 -0.662528
0.628581 0.241095 -0.739431
0.564903 0.173729 -0.806662
0.739431 0.628581 -0.241095
0.73079 0.585615 -0.350715
0.710687 0.53559 -0.456145
0.679434 0.479172 -0.555665
0.637523 0.417209 -0.647688
0.585615 0.350715 -0.73079
0.524518 0.280844 -0.803746
0.662528 0.683621 -0.306135
0.647688 0.637523 -0.417209
0.621245 0.583667 -0.522864
0.583667 0.522864 -0.621245
0.53559 0.456145 -0.710687
0.477813 0.384747 -0.789724
0.576967 0.729237 -0.367862
0.555665 0.679434 -0.479172
0.522864 0.621245 -0.583667
0.479172 0.555665 -0.679434
0.42536 0.483932 -0.764773
0.483932 0.764773 -0.42536
0.456145 0.710687 -0.53559
0.417209 0.647688 -0.637523
0.367862 0.576967 -0.729237
0.384747 0.789724 -0.477813
0.350715 0.73079 -0.585615
0.306135 0.662528 -0.683621
0.280844 0.803746 -0.524518
0.241095 0.739431 -0.628581
0.173729 0.806662 -0.564903
0.806662 -0.564903 0.173729
0.803746 -0.524518 0.280844
0.789724 -0.477813 0.384747
0.764773 -0.42536 0.483932
0.729237 -0.367862 0.576967
0.683621 -0.306135 0.662528
0.628581 -0.241095 0.739431
0.564903 -0.173729 0.806662
0.739431 -0.628581 0.241095
0.73079 -0.585615 0.350715
0.710687 -0.53559 0.456145
0.679434 -0.479172 0.555665
0.637523 -0.417209 0.647688
0.585615 -0.350715 0.73079
0.524518 -0.280844 0.803746
0.662528 -0.683621 0.306135
0.647688 -0.637523 0.417209
0.621245 -0.583667 0.522864
0.583667 -0.522864 0.621245
0.53559 -0.456145 0.710687
0.477813 -0.384747 0.789724
0.576967 -0.729237 0.367862
0.555665 -0.679434 0.479172
0.522864 -0.621245 0.583667
0.479172 -0.555665 0.679434
0.42536 -0.483932 0.764773
0.483932 -0.764773 0.42536
0.456145 -0.710687 0.53559
0.417209 -0.647688 0.637523
0.367862 -0.576967 0.729237
0.384747 -0.789724 0.477813
0.350715 -0.73079 0.585615
0.306135 -0.662528 0.683621
0.280844 -0.803746 0.524518
0.241095 -0.739431 0.628581
0.173729 -0.806662 0.564903
0.806662 -0.564903 -0.173729
0.739431 -0.628581 -0.241095
0.662528 -0.683621 -0.306135
0.576967 -0.729237 -0.367862
0.483932 -0.764773 -0.42536
0.384747 -0.789724 -0.477813
0.280844 -0.803746 -0.524518
0.173729 -0.806662 -0.564903
0.803746 -0.524518 -0.280844
0.73079 -0.585615 -0.350715
0.647688 -0.637523 -0.417209
0.555665 -0.679434 -0.479172
0.456145 -0.710687 -0.53559
0.350715 -0.73079 -0.585615
0.241095 -0.739431 -0.628581
0.789724 -0.477813 -0.384747
0.710687 -0.53559 -0.456145
0.621245 -0.583667 -0.522864
0.522864 -0.621245 -0.583667
0.417209 -0.647688 -0.637523
0.306135 -0.662528 -0.683621
0.764773 -0.42536 -0.483932
0.679434 -0.479172 -0.555665
0.583667 -0.522864 -0.621245
0.479172 -0.555665 -0.679434
0.367862 -0.576967 -0.729237
0.729237 -0.367862 -0.576967
0.637523 -0.417209 -0.647688
0.53559 -0.456145 -0.710687
0.42536 -0.483932 -0.764773
0.683621 -0.306135 -0.662528
0.585615 -0.350715 -0.73079
0.477813 -0.384747 -0.789724
0.628581 -0.241095 -0.739431
0.524518 -0.280844 -0.803746
0.564903 -0.173729 -0.806662
-0.806662 0.564903 0.173729
-0.803746 0.524518 0.280844
-0.789724 0.477813 0.384747
-0.764773 0.42536 0.483932
-0.729237 0.367862 0.576967
-0.683621 0.306135 0.662528
-0.628581 0.241095 0.739431
-0.564903 0.173729 0.806662
-0.739431 0.628581 0.241095
-0.73079 0.585615 0.350715
-0.710687 0.53559 0.456145
-0.679434 0.479172 0.555665
-0.637523 0.417209 0.647688
-0.585615 0.350715 0.73079
-0.524518 0.280844 0.803746
-0.662528 0.683621 0.306135
-0.647688 0.637523 0.417209
-0.621245 0.583667 0.522864
-0.583667 0.522864 0.621245
-0.53559 0.456145 0.710687
-0.477813 0.384747 0.789724
-0.576967 0.729237 0.367862
-0.555665 0.679434 0.479172
-0.522864 0.621245 0.583667
-0.479172 0.555665 0.679434
-0.42536 0.483932 0.764773
-0.483932 0.764773 0.42536
-0.456145 0.710687 0.53559
-0.417209 0.647688 0.637523
-0.367862 0.576967 0.729237
-0.384747 0.789724 0.477813
-0.350715 0.73079 0.585615
-0.306135 0.662528 0.683621
-0.280844 0.803746 0.524518
-0.241095 0.739431 0.628581
-0.173729 0.806662 0.564903
-0.806662 0.564903 -0.173729
-0.739431 0.628581 -0.241095
-0.662528 0.683621 -0.306135
-0.576967 0.729237 -0.367862
-0.483932 0.764773 -0.42536
-0.384747 0.789724 -0.477813
-0.280844 0.803746 -0.524518
-0.173729 0.806662 -0.564903
-0.803746 0.524518 -0.280844
-0.73079 0.585615 -0.350715
-0.647688 0.637523 -0.417209
-0.555665 0.679434 -0.479172
-0.456145 0.710687 -0.53559
-0.350715 0.73079 -0.585615
-0.241095 0.739431 -0.628581
-0.789724 0.477813 -0.384747
-0.710687 0.53559 -0.456145
-0.621245 0.583667 -0.522864
-0.522864 0.621245 -0.583667
-0.417209 0.647688 -0.637523
-0.306135 0.662528 -0.683621
-0.764773 0.42536 -0.483932
-0.679434 0.479172 -0.555665
-0.583667 0.522864 -0.621245
-0.479172 0.555665 -0.679434
-0.367862 0.576967 -0.729237
-0.729237 0.367862 -0.576967
-0.637523 0.417209 -0.647688
-0.53559 0.456145 -0.710687
-0.42536 0.483932 -0.764773
-0.683621 0.306135 -0.662528
-0.585615 0.350715 -0.73079
-0.477813 0.384747 -0.789724
-0.628581 0.241095 -0.739431
-0.524518 0.280844 -0.803746
-0.564903 0.173729 -0.806662
-0.806662 -0.564903 0.173729
-0.739431 -0.628581 0.241095
-0.662528 -0.683621 0.306135
-0.576967 -0.729237 0.367862
-0.483932 -0.764773 0.42536
-0.384747 -0.789724 0.477813
-0.280844 -0.803746 0.524518
-0.173729 -0.806662 0.564903
-0.803746 -0.524518 0.280844
-0.73079 -0.585615 0.350715
-0.647688 -0.637523 0.417209
-0.555665 -0.679434 0.479172
-0.456145 -0.710687 0.53559
-0.350715 -0.73079 0.585615
-0.241095 -0.739431 0.628581
-0.789724 -0.477813 0.384747
-0.710687 -0.53559 0.456145
-0.621245 -0.583667 0.522864
-0.522864 -0.621245 0.583667
-0.417209 -0.647688 0.637523
-0.306135 -0.662528 0.683621
-0.764773 -0.42536 0.483932
-0.679434 -0.479172 0.555665
-0.583667 -0.522864 0.621245
-0.479172 -0.555665 0.679434
-0.367862 -0.576967 0.729237
-0.729237 -0.367862 0.576967
-0.637523 -0.417209 0.647688
-0.53559 -0.456145 0.710687
-0.42536 -0.483932 0.764773
-0.683621 -0.306135 0.662528
-0.585615 -0.350715 0.73079
-0.477813 -0.384747 0.789724
-0.628581 -0.241095 0.739431
-0.524518 -0.280844 0.803746
-0.564903 -0.173729 0.806662
-0.806662 -0.564903 -0.173729
-0.803746 -0.524518 -0.280844
-0.789724 -0.477813 -0.384747
-0.764773 -0.42536 -0.483932
-0.729237 -0.367862 -0.576967
-0.683621 -0.306135 -0.662528
-0.628581 -0.241095 -0.739431
-0.564903 -0.173729 -0.806662
-0.739431 -0.628581 -0.241095
-0.73079 -0.585615 -0.350715
-0.710687 -0.53559 -0.456145
-0.679434 -0.479172 -0.555665
-0.637523 -0.417209 -0.647688
-0.585615 -0.350715 -0.73079
-0.524518 -0.280844 -0.803746
-0.662528 -0.683621 -0.306135
-0.647688 -0.637523 -0.417209
-0.621245 -0.583667 -0.522864
-0.583667 -0.522864 -0.621245
-0.53559 -0.456145 -0.710687
-0.477813 -0.384747 -0.789724
-0.576967 -0.729237 -0.367862
-0.555665 -0.679434 -0.479172
-0.522864 -0.621245 -0.583667
-0.479172 -0.555665 -0.679434
-0.42536 -0.483932 -0.764773
-0.483932 -0.764773 -0.42536
-0.456145 -0.710687 -0.53559
-0.417209 -0.647688 -0.637523
-0.367862 -0.576967 -0.729237
-0.384747 -0.789724 -0.477813
-0.350715 -0.73079 -0.585615
-0.306135 -0.662528 -0.683621
-0.280844 -0.803746 -0.524518
-0.241095 -0.739431 -0.628581
-0.173729 -0.806662 -0.564903
0.740303 0.672273 -2.89129e-19
0.671907 0.737837 -0.064315
0.594179 0.794212 -0.127196
0.508192 0.840518 -0.187806
0.415157 0.876054 -0.245305
0.316398 0.900315 -0.298874
0.21332 0.913002 -0.347738
0.10737 0.914032 -0.391174
0.671907 0.737837 0.064315
0.596829 0.802368 -1.15679e-18
0.512392 0.856438 -0.0629984
0.419913 0.899085 -0.123769
0.320848 0.929601 -0.181379
0.216754 0.947544 -0.2349
0.109256 0.952751 -0.283423
0.594179 0.794212 0.127196
0.512392 0.856438 0.0629984
0.421529 0.906815 0
0.323148 0.944393 -0.0608031
0.218914 0.968536 -0.11838
0.11059 0.978926 -0.171678
0.508192 0.840518 0.187806
0.419913 0.899085 0.123769
0.323148 0.944393 0.0608031
0.219651 0.975578 3.3554e-17
0.11128 0.992124 -0.0574986
0.415157 0.876054 0.245305
0.320848 0.929601 0.181379
0.218914 0.968536 0.11838
0.11128 0.992124 0.0574986
0.316398 0.900315 0.298874
0.216754 0.947544 0.2349
0.11059 0.978926 0.171678
0.21332 0.913002 0.347738
0.109256 0.952751 0.283423
0.10737 0.914032 0.391174
-0.740303 0.672273 -2.89129e-19
-0.671907 0.737837 0.064315
-0.594179 0.794212 0.127196
-0.508192 0.840518 0.187806
-0.415157 0.876054 0.245305
-0.316398 0.900315 0.298874
-0.21332 0.913002 0.347738
-0.10737 0.914032 0.391174
-0.671907 0.737837 -0.064315
-0.596829 0.802368 -1.15679e-18
-0.512392 0.856438 0.0629984
-0.419913 0.899085 0.123769
-0.320848 0.929601 0.181379
-0.216754 0.947544 0.2349
-0.109256 0.952751 0.283423
-0.594179 0.794212 -0.127196
-0.512392 0.856438 -0.0629984
-0.421529 0.906815 0
-0.323148 0.944393 0.0608031
-0.218914 0.968536 0.11838
-0.11059 0.978926 0.171678
-0.508192 0.840518 -0.187806
-0.419913 0.899085 -0.123769
-0.323148 0.944393 -0.0608031
-0.219651 0.975578 3.3554e-17
-0.11128 0.992124 0.0574986
-0.415157 0.876054 -0.245305
-0.320848 0.929601 -0.181379
-0.218914 0.968536 -0.11838
-0.11128 0.992124 -0.0574986
-0.316398 0.900315 -0.298874
-0.216754 0.947544 -0.2349
-0.11059 0.978926 -0.171678
-0.21332 0.913002 -0.347738
-0.109256 0.952751 -0.283423
-0.10737 0.914032 -0.391174
0.740303 -0.672273 -2.89129e-19
0.671907 -0.737837 0.064315
0.594179 -0.794212 0.127196
0.508192 -0.840518 0.187806
0.415157 -0.876054 0.245305
0.316398 -0.900315 0.298874
0.21332 -0.913002 0.347738
0.10737 -0.914032 0.391174
0.671907 -0.737837 -0.064315
0.596829 -0.802368 -1.15679e-18
0.512392 -0.856438 0.0629984
0.419913 -0.899085 0.123769
0.320848 -0.929601 0.181379
0.216754 -0.947544 0.2349
0.109256 -0.952751 0.283423
0.594179 -0.794212 -0.127196
0.512392 -0.856438 -0.0629984
0.421529 -0.906815 0
0.323148 -0.944393 0.0608031
0.218914 -0.968536 0.11838
0.11059 -0.978926 0.171678
0.508192 -0.840518 -0.187806
0.419913 -0.899085 -0.123769
0.323148 -0.944393 -0.0608031
0.219651 -0.975578 3.3554e-17
0.11128 -0.992124 0.0574986
0.415157 -0.876054 -0.245305
0.320848 -0.929601 -0.181379
0.218914 -0.968536 -0.11838
0.11128 -0.992124 -0.0574986
0.316398 -0.900315 -0.298874
0.216754 -0.947544 -0.2349
0.11059 -0.978926 -0.171678
0.21332 -0.913002 -0.347738
0.109256 -0.952751 -0.283423
0.10737 -0.914032 -0.391174
-0.740303 -0.672273 -2.89129e-19
-0.671907 -0.737837 0.064315
-0.594179 -0.794212 0.127196
-0.508192 -0.840518 0.187806
-0.415157 -0.876054 0.245305
-0.316398 -0.900315 0.298874
-0.21332 -0.913002 0.347738
-0.10737 -0.914032 0.391174
-0.671907 -0.737837 -0.064315
-0.596829 -0.802368 -1.15679e-18
-0.512392 -0.856438 0.0629984
-0.419913 -0.899085 0.123769
-0.320848 -0.929601 0.181379
-0.216754 -0.947544 0.2349
-0.109256 -0.952751 0.283423
-0.594179 -0.794212 -0.127196
-0.512392 -0.856438 -0.0629984
-0.421529 -0.906815 0
-0.323148 -0.944393 0.0608031
-0.218914 -0.968536 0.11838
-0.11059 -0.978926 0.171678
-0.508192 -0.840518 -0.187806
-0.419913 -0.899085 -0.123769
-0.323148 -0.944393 -0.0608031
-0.219651 -0.975578 3.3554e-17
-0.11128 -0.992124 0.0574986
-0.415157 -0.876054 -0.245305
-0.320848 -0.929601 -0.181379
-0.218914 -0.968536 -0.11838
-0.11128 -0.992124 -0.0574986
-0.316398 -0.900315 -0.298874
-0.216754 -0.947544 -0.2349
-0.11059 -0.978926 -0.171678
-0.21332 -0.913002 -0.347738
-0.109256 -0.952751 -0.283423
-0.10737 -0.914032 -0.391174
0.672273 -1.93716e-17 0.740303
0.737837 -0.064315 0.671907
0.794212 -0.127196 0.594179
0.840518 -0.187806 0.508192
0.876054 -0.245305 0.415157
0.900315 -0.298874 0.316398
0.913002 -0.347738 0.21332
0.914032 -0.391174 0.10737
0.737837 0.064315 0.671907
0.802368 9.2543e-18 0.596829
0.856438 -0.0629984 0.512392
0.899085 -0.123769 0.419913
0.929601 -0.181379 0.320848
0.947544 -0.2349 0.216754
0.952751 -0.283423 0.109256
0.794212 0.127196 0.594179
0.856438 0.0629984 0.512392
0.906815 -3.00868e-17 0.421529
0.944393 -0.0608031 0.323148
0.968536 -0.11838 0.218914
0.978926 -0.171678 0.11059
0.840518 0.187806 0.508192
0.899085 0.123769 0.419913
0.944393 0.0608031 0.323148
0.975578 2.19837e-17 0.219651
0.992124 -0.0574986 0.11128
0.876054 0.245305 0.415157
0.929601 0.181379 0.320848
0.968536 0.11838 0.218914
0.992124 0.0574986 0.11128
0.900315 0.298874 0.316398
0.947544 0.2349 0.216754
0.978926 0.171678 0.11059
0.913002 0.347738 0.21332
0.952751 0.283423 0.109256
0.914032 0.391174 0.10737
0.672273 -1.93716e-17 -0.740303
0.737837 0.064315 -0.671907
0.794212 0.127196 -0.594179
0.840518 0.187806 -0.508192
0.876054 0.245305 -0.415157
0.900315 0.298874 -0.316398
0.913002 0.347738 -0.21332
0.914032 0.391174 -0.10737
0.737837 -0.064315 -0.671907
0.802368 9.2543e-18 -0.596829
0.856438 0.0629984 -0.512392
0.899085 0.123769 -0.419913
0.929601 0.181379 -0.320848
0.947544 0.2349 -0.216754
0.952751 0.283423 -0.109256
0.794212 -0.127196 -0.594179
0.856438 -0.0629984 -0.512392
0.906815 -3.00868e-17 -0.421529
0.944393 0.0608031 -0.323148
0.968536 0.11838 -0.218914
0.978926 0.171678 -0.11059
0.840518 -0.187806 -0.508192
0.899085 -0.123769 -0.419913
0.944393 -0.0608031 -0.323148
0.975578 2.19837e-17 -0.219651
0.992124 0.0574986 -0.11128
0.876054 -0.245305 -0.415157
0.929601 -0.181379 -0.320848
0.968536 -0.11838 -0.218914
0.992124 -0.0574986 -0.11128
0.900315 -0.298874 -0.316398
0.947544 -0.2349 -0.216754
0.978926 -0.171678 -0.11059
0.913002 -0.347738 -0.21332
0.952751 -0.283423 -0.109256
0.914032 -0.391174 -0.10737
-0.672273 -1.93716e-17 0.740303
-0.737837 0.064315 0.671907
-0.794212 0.127196 0.594179
-0.840518 0.187806 0.508192
-0.876054 0.245305 0.415157
-0.900315 0.298874 0.316398
-0.913002 0.347738 0.21332
-0.914032 0.391174 0.10737
-0.737837 -0.064315 0.671907
-0.802368 9.2543e-18 0.596829
-0.856438 0.0629984 0.512392
-0.899085 0.123769 0.419913
-0.929601 0.181379 0.320848
-0.947544 0.2349 0.216754
-0.952751 0.283423 0.109256
-0.794212 -0.127196 0.594179
-0.856438 -0.0629984 0.512392
-0.906815 -3.00868e-17 0.421529
-0.944393 0.0608031 0.323148
-0.968536 0.11838 0.218914
-0.978926 0.171678 0.11059
-0.840518 -0.187806 0.508192
-0.899085 -0.123769 0.419913
-0.944393 -0.0608031 0.323148
-0.975578 2.19837e-17 0.219651
-0.992124 0.0574986 0.11128
-0.876054 -0.245305 0.415157
-0.929601 -0.181379 0.320848
-0.968536 -0.11838 0.218914
-0.992124 -0.0574986 0.11128
-0.900315 -0.298874 0.316398
-0.947544 -0.2349 0.216754
-0.978926 -0.171678 0.11059
-0.913002 -0.347738 0.21332
-0.952751 -0.283423 0.109256
-0.914032 -0.391174 0.10737
-0.672273 -1.93716e-17 -0.740303
-0.737837 -0.064315 -0.671907
-0.794212 -0.127196 -0.594179
-0.840518 -0.187806 -0.508192
-0.876054 -0.245305 -0.415157
-0.900315 -0.298874 -0.316398
-0.913002 -0.347738 -0.21332
-0.914032 -0.391174 -0.10737
-0.737837 0.064315 -0.671907
-0.802368 9.2543e-18 -0.596829
-0.856438 -0.0629984 -0.512392
-0.899085 -0.123769 -0.419913
-0.929601 -0.181379 -0.320848
-0.947544 -0.2349 -0.216754
-0.952751 -0.283423 -0.109256
-0.794212 0.127196 -0.594179
-0.856438 0.0629984 -0.512392
-0.906815 -3.00868e-17 -0.421529
-0.944393 -0.0608031 -0.323148
-0.968536 -0.11838 -0.218914
-0.978926 -0.171678 -0.11059
-0.840518 0.187806 -0.508192
-0.899085 0.123769 -0.419913
-0.944393 0.0608031 -0.323148
-0.975578 2.19837e-17 -0.219651
-0.992124 -0.0574986 -0.11128
-0.876054 0.245305 -0.415157
-0.929601 0.181379 -0.320848
-0.968536 0.11838 -0.218914
-0.992124 0.0574986 -0.11128
-0.900315 0.298874 -0.316398
-0.947544 0.2349 -0.216754
-0.978926 0.171678 -0.11059
-0.913002 0.347738 -0.21332
-0.952751 0.283423 -0.109256
-0.914032 0.391174 -0.10737
-1.93716e-17 0.740303 0.672273
-0.064315 0.671907 0.737837
-0.127196 0.594179 0.794212
-0.187806 0.508192 0.840518
-0.245305 0.415157 0.876054
-0.298874 0.316398 0.900315
-0.347738 0.21332 0.913002
-0.391174 0.10737 0.914032
0.064315 0.671907 0.737837
9.2543e-18 0.596829 0.802368
-0.0629984 0.512392 0.856438
-0.123769 0.419913 0.899085
-0.181379 0.320848 0.929601
-0.2349 0.216754 0.947544
-0.283423 0.109256 0.952751
0.127196 0.594179 0.794212
0.0629984 0.512392 0.856438
-3.00868e-17 0.421529 0.906815
-0.0608031 0.323148 0.944393
-0.11838 0.218914 0.968536
-0.171678 0.11059 0.978926
0.187806 0.508192 0.840518
0.123769 0.419913 0.899085
0.0608031 0.323148 0.944393
2.19837e-17 0.219651 0.975578
-0.0574986 0.11128 0.992124
0.245305 0.415157 0.876054
0.181379 0.320848 0.929601
0.11838 0.218914 0.968536
0.0574986 0.11128 0.992124
0.298874 0.316398 0.900315
0.2349 0.216754 0.947544
0.171678 0.11059 0.978926
0.347738 0.21332 0.913002
0.283423 0.109256 0.952751
0.391174 0.10737 0.914032
-1.93716e-17 -0.740303 0.672273
0.064315 -0.671907 0.737837
0.127196 -0.594179 0.794212
0.187806 -0.508192 0.840518
0.245305 -0.415157 0.876054
0.298874 -0.316398 0.900315
0.347738 -0.21332 0.913002
0.391174 -0.10737 0.914032
-0.064315 -0.671907 0.737837
9.2543e-18 -0.596829 0.802368
0.0629984 -0.512392 0.856438
0.123769 -0.419913 0.899085
0.181379 -0.320848 0.929601
0.2349 -0.216754 0.947544
0.283423 -0.109256 0.952751
-0.127196 -0.594179 0.794212
-0.0629984 -0.512392 0.856438
-3.00868e-17 -0.421529 0.906815
0.0608031 -0.323148 0.944393
0.11838 -0.218914 0.968536
0.171678 -0.11059 0.978926
-0.187806 -0.508192 0.840518
-0.123769 -0.419913 0.899085
-0.0608031 -0.323148 0.944393
2.19837e-17 -0.219651 0.975578
0.0574986 -0.11128 0.992124
-0.245305 -0.415157 0.876054
-0.181379 -0.320848 0.929601
-0.11838 -0.218914 0.968536
-0.0574986 -0.11128 0.992124
-0.298874 -0.316398 0.900315
-0.2349 -0.216754 0.947544
-0.171678 -0.11059 0.978926
-0.347738 -0.21332 0.913002
-0.283423 -0.109256 0.952751
-0.391174 -0.10737 0.914032
-1.93716e-17 0.740303 -0.672273
0.064315 0.671907 -0.737837
0.127196 0.594179 -0.794212
0.187806 0.508192 -0.840518
0.245305 0.415157 -0.876054
0.298874 0.316398 -0.900315
0.347738 0.21332 -0.913002
0.391174 0.10737 -0.914032
-0.064315 0.671907 -0.737837
9.2543e-18 0.596829 -0.802368
0.0629984 0.512392 -0.856438
0.123769 0.419913 -0.899085
0.181379 0.320848 -0.929601
0.2349 0.216754 -0.947544
0.283423 0.109256 -0.952751
-0.127196 0.594179 -0.794212
-0.0629984 0.512392 -0.856438
-3.00868e-17 0.421529 -0.906815
0.0608031 0.323148 -0.944393
0.11838 0.218914 -0.968536
0.171678 0.11059 -0.978926
-0.187806 0.508192 -0.840518
-0.123769 0.419913 -0.899085
-0.0608031 0.323148 -0.944393
2.19837e-17 0.219651 -0.975578
0.0574986 0.11128 -0.992124
-0.245305 0.415157 -0.876054
-0.181379 0.320848 -0.929601
-0.11838 0.218914 -0.968536
-0.0574986 0.11128 -0.992124
-0.298874 0.316398 -0.900315
-0.2349 0.216754 -0.947544
-0.171678 0.11059 -0.978926
-0.347738 0.21332 -0.913002
-0.283423 0.109256 -0.952751
-0.391174 0.10737 -0.914032
-1.93716e-17 -0.740303 -0.672273
-0.064315 -0.671907 -0.737837
-0.127196 -0.594179 -0.794212
-0.187806 -0.508192 -0.840518
-0.245305 -0.415157 -0.876054
-0.298874 -0.316398 -0.900315
-0.347738 -0.21332 -0.913002
-0.391174 -0.10737 -0.914032
0.064315 -0.671907 -0.737837
9.2543e-18 -0.596829 -0.802368
-0.0629984 -0.512392 -0.856438
-0.123769 -0.419913 -0.899085
-0.181379 -0.320848 -0.929601
-0.2349 -0.216754 -0.947544
-0.283423 -0.109256 -0.952751
0.127196 -0.594179 -0.794212
0.0629984 -0.512392 -0.856438
-3.00868e-17 -0.421529 -0.906815
-0.0608031 -0.323148 -0.944393
-0.11838 -0.218914 -0.968536
-0.171678 -0.11059 -0.978926
0.187806 -0.508192 -0.840518
0.123769 -0.419913 -0.899085
0.0608031 -0.323148 -0.944393
2.19837e-17 -0.219651 -0.975578
-0.0574986 -0.11128 -0.992124
0.245305 -0.415157 -0.876054
0.181379 -0.320848 -0.929601
0.11838 -0.218914 -0.968536
0.0574986 -0.11128 -0.992124
0.298874 -0.316398 -0.900315
0.2349 -0.216754 -0.947544
0.171678 -0.11059 -0.978926
0.347738 -0.21332 -0.913002
0.283423 -0.109256 -0.952751
0.391174 -0.10737 -0.914032
POLYGONS 2000 8000
3 0 12 21
3 12 13 282
3 13 14 283
3 14 15 284
3 15 16 285
3 16 17 286
3 17 18 287
3 18 19 288
3 19 20 289
3 20 8 38
3 21 282 22
3 282 283 290
3 283 284 291
3 284 285 292
3 285 286 293
3 286 287 294
3 287 288 295
3 288 289 296
3 289 38 37
3 22 290 23
3 290 291 297
3 291 292 298
3 292 293 299
3 293 294 300
3 294 295 301
3 295 296 302
3 296 37 36
3 23 297 24
3 297 298 303
3 298 299 304
3 299 300 305
3 300 301 306
3 301 302 307
3 302 36 35
3 24 303 25
3 303 304 308
3 304 305 309
3 305 306 310
3 306 307 311
3 307 35 34
3 25 308 26
3 308 309 312
3 309 310 313
3 310 311 314
3 311 34 33
3 26 312 27
3 312 313 315
3 313 314 316
3 314 33 32
3 27 315 28
3 315 316 317
3 316 32 31
3 28 317 29
3 317 31 30
3 29 30 4
3 21 12 282
3 282 13 283
3 283 14 284
3 284 15 285
3 285 16 286
3 286 17 287
3 287 18 288
3 288 19 289
3 289 20 38
3 22 282 290
3 290 283 291
3 291 284 292
3 292 285 293
3 293 286 294
3 294 287 295
3 295 288 296
3 296 289 37
3 23 290 297
3 297 291 298
3 298 292 299
3 299 293 300
3 300 294 301
3 301 295 302
3 302 296 36
3 24 297 303
3 303 298 304
3 304 299 305
3 305 300 306
3 306 301 307
3 307 302 35
3 25 303 308
3 308 304 309
3 309 305 310
3 310 306 311
3 311 307 34
3 26 308 312
3 312 309 313
3 313 310 314
3 314 311 33
3 27 312 315
3 315 313 316
3 316 314 32
3 28 315 317
3 317 316 31
3 29 317 30
3 0 39 48
3 39 40 318
3 40 41 319
3 41 42 320
3 42 43 321
3 43 44 322
3 44 45 323
3 45 46 324
3 46 47 325
3 47 5 57
3 48 318 49
3 318 319 326
3 319 320 327
3 320 321 328
3 321 322 329
3 322 323 330
3 323 324 331
3 324 325 332
3 325 57 58
3 49 326 50
3 326 327 333
3 327 328 334
3 328 329 335
3 329 330 336
3 330 331 337
3 331 332 338
3 332 58 59
3 50 333 51
3 333 334 339
3 334 335 340
3 335 336 341
3 336 337 342
3 337 338 343
3 338 59 60
3 51 339 52
3 339 340 344
3 340 341 345
3 341 342 346
3 342 343 347
3 343 60 61
3 52 344 53
3 344 345 348
3 345 346 349
3 346 347 350
3 347 61 62
3 53 348 54
3 348 349 351
3 349 350 352
3 350 62 63
3 54 351 55
3 351 352 353
3 352 63 64
3 55 353 56
3 353 64 65
3 56 65 10
3 48 39 318
3 318 40 319
3 319 41 320
3 320 42 321
3 321 43 322
3 322 44 323
3 323 45 324
3 324 46 325
3 325 47 57
3 49 318 326
3 326 319 327
3 327 320 328
3 328 321 329
3 329 322 330
3 330 323 331
3 331 324 332
3 332 325 58
3 50 326 333
3 333 327 334
3 334 328 335
3 335 329 336
3 336 330 337
3 337 331 338
3 338 332 59
3 51 333 339
3 339 334 340
3 340 335 341
3 341 336 342
3 342 337 343
3 343 338 60
3 52 339 344
3 344 340 345
3 345 341 346
3 346 342 347
3 347 343 61
3 53 344 348
3 348 345 349
3 349 346 350
3 350 347 62
3 54 348 351
3 351 349 352
3 352 350 63
3 55 351 353
3 353 352 64
3 56 353 65
3 2 66 75
3 66 67 354
3 67 68 355
3 68 69 356
3 69 70 357
3 70 71 358
3 71 72 359
3 72 73 360
3 73 74 361
3 74 4 84
3 75 354 76
3 354 355 362
3 355 356 363
3 356 357 364
3 357 358 365
3 358 359 366
3 359 360 367
3 360 361 368
3 361 84 85
3 76 362 77
3 362 363 369
3 363 364 370
3 364 365 371
3 365 366 372
3 366 367 373
3 367 368 374
3 368 85 86
3 77 369 78
3 369 370 375
3 370 371 376
3 371 372 377
3 372 373 378
3 373 374 379
3 374 86 87
3 78 375 79
3 375 376 380
3 376 377 381
3 377 378 382
3 378 379 383
3 379 87 88
3 79 380 80
3 380 381 384
3 381 382 385
3 382 383 386
3 383 88 89
3 80 384 81
3 384 385 387
3 385 386 388
3 386 89 90
3 81 387 82
3 387 388 389
3 388 90 91
3 82 389 83
3 389 91 92
3 83 92 9
3 75 66 354
3 354 67 355
3 355 68 356
3 356 69 357
3 357 70 358
3 358 71 359
3 359 72 360
3 360 73 361
3 361 74 84
3 76 354 362
3 362 355 363
3 363 356 364
3 364 357 365
3 365 358 366
3 366 359 367
3 367 360 368
3 368 361 85
3 77 362 369
3 369 363 370
3 370 364 371
3 371 365 372
3 372 366 373
3 373 367 374
3 374 368 86
3 78 369 375
3 375 370 376
3 376 371 377
3 377 372 378
3 378 373 379
3 379 374 87
3 79 375 380
3 380 376 381
3 381 377 382
3 382 378 383
3 383 379 88
3 80 380 384
3 384 381 385
3 385 382 386
3 386 383 89
3 81 384 387
3 387 385 388
3 388 386 90
3 82 387 389
3 389 388 91
3 83 389 92
3 2 93 102
3 93 94 390
3 94 95 391
3 95 96 392
3 96 97 393
3 97 98 394
3 98 99 395
3 99 100 396
3 100 101 397
3 101 11 119
3 102 390 103
3 390 391 398
3 391 392 399
3 392 393 400
3 393 394 401
3 394 395 402
3 395 396 403
3 396 397 404
3 397 119 118
3 103 398 104
3 398 399 405
3 399 400 406
3 400 401 407
3 401 402 408
3 402 403 409
3 403 404 410
3 404 118 117
3 104 405 105
3 405 406 411
3 406 407 412
3 407 408 413
3 408 409 414
3 409 410 415
3 410 117 116
3 105 411 106
3 411 412 416
3 412 413 417
3 413 414 418
3 414 415 419
3 415 116 115
3 106 416 107
3 416 417 420
3 417 418 421
3 418 419 422
3 419 115 114
3 107 420 108
3 420 421 423
3 421 422 424
3 422 114 113
3 108 423 109
3 423 424 425
3 424 113 112
3 109 425 110
3 425 112 111
3 110 111 5
3 102 93 390
3 390 94 391
3 391 95 392
3 392 96 393
3 393 97 394
3 394 98 395
3 395 99 396
3 396 100 397
3 397 101 119
3 103 390 398
3 398 391 399
3 399 392 400
3 400 393 401
3 401 394 402
3 402 395 403
3 403 396 404
3 404 397 118
3 104 398 405
3 405 399 406
3 406 400 407
3 407 401 408
3 408 402 409
3 409 403 410
3 410 404 117
3 105 405 411
3 411 406 412
3 412 407 413
3 413 408 414
3 414 409 415
3 415 410 116
3 106 411 416
3 416 412 417
3 417 413 418
3 418 414 419
3 419 415 115
3 107 416 420
3 420 417 421
3 421 418 422
3 422 419 114
3 108 420 423
3 423 421 424
3 424 422 113
3 109 423 425
3 425 424 112
3 110 425 111
3 1 120 129
3 120 121 426
3 121 122 427
3 122 123 428
3 123 124 429
3 124 125 430
3 125 126 431
3 126 127 432
3 127 128 433
3 128 6 138
3 129 426 130
3 426 427 434
3 427 428 435
3 428 429 436
3 429 430 437
3 430 431 438
3 431 432 439
3 432 433 440
3 433 138 139
3 130 434 131
3 434 435 441
3 435 436 442
3 436 437 443
3 437 438 444
3 438 439 445
3 439 440 446
3 440 139 140
3 131 441 132
3 441 442 447
3 442 443 448
3 443 444 449
3 444 445 450
3 445 446 451
3 446 140 141
3 132 447 133
3 447 448 452
3 448 449 453
3 449 450 454
3 450 451 455
3 451 141 142
3 133 452 134
3 452 453 456
3 453 454 457
3 454 455 458
3 455 142 143
3 134 456 135
3 456 457 459
3 457 458 460
3 458 143 144
3 135 459 136
3 459 460 461
3 460 144 145
3 136 461 137
3 461 145 146
3 137 146 8
3 129 120 426
3 426 121 427
3 427 122 428
3 428 123 429
3 429 124 430
3 430 125 431
3 431 126 432
3 432 127 433
3 433 128 138
3 130 426 434
3 434 427 435
3 435 428 436
3 436 429 437
3 437 430 438
3 438 431 439
3 439 432 440
3 440 433 139
3 131 434 441
3 441 435 442
3 442 436 443
3 443 437 444
3 444 438 445
3 445 439 446
3 446 440 140
3 132 441 447
3 447 442 448
3 448 443 449
3 449 444 450
3 450 445 451
3 451 446 141
3 133 447 452
3 452 448 453
3 453 449 454
3 454 450 455
3 455 451 142
3 134 452 456
3 456 453 457
3 457 454 458
3 458 455 143
3 135 456 459
3 459 457 460
3 460 458 144
3 136 459 461
3 461 460 145
3 137 461 146
3 1 147 156
3 147 148 462
3 148 149 463
3 149 150 464
3 150 151 465
3 151 152 466
3 152 153 467
3 153 154 468
3 154 155 469
3 155 10 173
3 156 462 157
3 462 463 470
3 463 464 471
3 464 465 472
3 465 466 473
3 466 467 474
3 467 468 475
3 468 469 476
3 469 173 172
3 157 470 158
3 470 471 477
3 471 472 478
3 472 473 479
3 473 474 480
3 474 475 481
3 475 476 482
3 476 172 171
3 158 477 159
3 477 478 483
3 478 479 484
3 479 480 485
3 480 481 486
3 481 482 487
3 482 171 170
3 159 483 160
3 483 484 488
3 484 485 489
3 485 486 490
3 486 487 491
3 487 170 169
3 160 488 161
3 488 489 492
3 489 490 493
3 490 491 494
3 491 169 168
3 161 492 162
3 492 493 495
3 493 494 496
3 494 168 167
3 162 495 163
3 495 496 497
3 496 167 166
3 163 497 164
3 497 166 165
3 164 165 7
3 156 147 462
3 462 148 463
3 463 149 464
3 464 150 465
3 465 151 466
3 466 152 467
3 467 153 468
3 468 154 469
3 469 155 173
3 157 462 470
3 470 463 471
3 471 464 472
3 472 465 473
3 473 466 474
3 474 467 475
3 475 468 476
3 476 469 172
3 158 470 477
3 477 471 478
3 478 472 479
3 479 473 480
3 480 474 481
3 481 475 482
3 482 476 171
3 159 477 483
3 483 478 484
3 484 479 485
3 485 480 486
3 486 481 487
3 487 482 170
3 160 483 488
3 488 484 489
3 489 485 490
3 490 486 491
3 491 487 169
3 161 488 492
3 492 489 493
3 493 490 494
3 494 491 168
3 162 492 495
3 495 493 496
3 496 494 167
3 163 495 497
3 497 496 166
3 164 497 165
3 3 174 183
3 174 175 498
3 175 176 499
3 176 177 500
3 177 178 501
3 178 179 502
3 179 180 503
3 180 181 504
3 181 182 505
3 182 9 200
3 183 498 184
3 498 499 506
3 499 500 507
3 500 501 508
3 501 502 509
3 502 503 510
3 503 504 511
3 504 505 512
3 505 200 199
3 184 506 185
3 506 507 513
3 507 508 514
3 508 509 515
3 509 510 516
3 510 511 517
3 511 512 518
3 512 199 198
3 185 513 186
3 513 514 519
3 514 515 520
3 515 516 521
3 516 517 522
3 517 518 523
3 518 198 197
3 186 519 187
3 519 520 524
3 520 521 525
3 521 522 526
3 522 523 527
3 523 197 196
3 187 524 188
3 524 525 528
3 525 526 529
3 526 527 530
3 527 196 195
3 188 528 189
3 528 529 531
3 529 530 532
3 530 195 194
3 189 531 190
3 531 532 533
3 532 194 193
3 190 533 191
3 533 193 192
3 191 192 6
3 183 174 498
3 498 175 499
3 499 176 500
3 500 177 501
3 501 178 502
3 502 179 503
3 503 180 504
3 504 181 505
3 505 182 200
3 184 498 506
3 506 499 507
3 507 500 508
3 508 501 509
3 509 502 510
3 510 503 511
3 511 504 512
3 512 505 199
3 185 506 513
3 513 507 514
3 514 508 515
3 515 509 516
3 516 510 517
3 517 511 518
3 518 512 198
3 186 513 519
3 519 514 520
3 520 515 521
3 521 516 522
3 522 517 523
3 523 518 197
3 187 519 524
3 524 520 525
3 525 521 526
3 526 522 527
3 527 523 196
3 188 524 528
3 528 525 529
3 529 526 530
3 530 527 195
3 189 528 531
3 531 529 532
3 532 530 194
3 190 531 533
3 533 532 193
3 191 533 192
3 3 201 210
3 201 202 534
3 202 203 535
3 203 204 536
3 204 205 537
3 205 206 538
3 206 207 539
3 207 208 540
3 208 209 541
3 209 7 219
3 210 534 211
3 534 535 542
3 535 536 543
3 536 537 544
3 537 538 545
3 538 539 546
3 539 540 547
3 540 541 548
3 541 219 220
3 211 542 212
3 542 543 549
3 543 544 550
3 544 545 551
3 545 546 552
3 546 547 553
3 547 548 554
3 548 220 221
3 212 549 213
3 549 550 555
3 550 551 556
3 551 552 557
3 552 553 558
3 553 554 559
3 554 221 222
3 213 555 214
3 555 556 560
3 556 557 561
3 557 558 562
3 558 559 563
3 559 222 223
3 214 560 215
3 560 561 564
3 561 562 565
3 562 563 566
3 563 223 224
3 215 564 216
3 564 565 567
3 565 566 568
3 566 224 225
3 216 567 217
3 567 568 569
3 568 225 226
3 217 569 218
3 569 226 227
3 218 227 11
3 210 201 534
3 534 202 535
3 535 203 536
3 536 204 537
3 537 205 538
3 538 206 539
3 539 207 540
3 540 208 541
3 541 209 219
3 211 534 542
3 542 535 543
3 543 536 544
3 544 537 545
3 545 538 546
3 546 539 547
3 547 540 548
3 548 541 220
3 212 542 549
3 549 543 550
3 550 544 551
3 551 545 552
3 552 546 553
3 553 547 554
3 554 548 221
3 213 549 555
3 555 550 556
3 556 551 557
3 557 552 558
3 558 553 559
3 559 554 222
3 214 555 560
3 560 556 561
3 561 557 562
3 562 558 563
3 563 559 223
3 215 560 564
3 564 561 565
3 565 562 566
3 566 563 224
3 216 564 567
3 567 565 568
3 568 566 225
3 217 567 569
3 569 568 226
3 218 569 227
3 0 48 12
3 48 49 570
3 49 50 571
3 50 51 572
3 51 52 573
3 52 53 574
3 53 54 575
3 54 55 576
3 55 56 577
3 56 10 236
3 12 570 13
3 570 571 578
3 571 572 579
3 572 573 580
3 573 574 581
3 574 575 582
3 575 576 583
3 576 577 584
3 577 236 235
3 13 578 14
3 578 579 585
3 579 580 586
3 580 581 587
3 581 582 588
3 582 583 589
3 583 584 590
3 584 235 234
3 14 585 15
3 585 586 591
3 586 587 592
3 587 588 593
3 588 589 594
3 589 590 595
3 590 234 233
3 15 591 16
3 591 592 596
3 592 593 597
3 593 594 598
3 594 595 599
3 595 233 232
3 16 596 17
3 596 597 600
3 597 598 601
3 598 599 602
3 599 232 231
3 17 600 18
3 600 601 603
3 601 602 604
3 602 231 230
3 18 603 19
3 603 604 605
3 604 230 229
3 19 605 20
3 605 229 228
3 20 228 8
3 12 48 570
3 570 49 571
3 571 50 572
3 572 51 573
3 573 52 574
3 574 53 575
3 575 54 576
3 576 55 577
3 577 56 236
3 13 570 578
3 578 571 579
3 579 572 580
3 580 573 581
3 581 574 582
3 582 575 583
3 583 576 584
3 584 577 235
3 14 578 585
3 585 579 586
3 586 580 587
3 587 581 588
3 588 582 589
3 589 583 590
3 590 584 234
3 15 585 591
3 591 586 592
3 592 587 593
3 593 588 594
3 594 589 595
3 595 590 233
3 16 591 596
3 596 592 597
3 597 593 598
3 598 594 599
3 599 595 232
3 17 596 600
3 600 597 601
3 601 598 602
3 602 599 231
3 18 600 603
3 603 601 604
3 604 602 230
3 19 603 605
3 605 604 229
3 20 605 228
3 1 129 147
3 129 130 606
3 130 131 607
3 131 132 608
3 132 133 609
3 133 134 610
3 134 135 611
3 135 136 612
3 136 137 613
3 137 8 228
3 147 606 148
3 606 607 614
3 607 608 615
3 608 609 616
3 609 610 617
3 610 611 618
3 611 612 619
3 612 613 620
3 613 228 229
3 148 614 149
3 614 615 621
3 615 616 622
3 616 617 623
3 617 618 624
3 618 619 625
3 619 620 626
3 620 229 230
3 149 621 150
3 621 622 627
3 622 623 628
3 623 624 629
3 624 625 630
3 625 626 631
3 626 230 231
3 150 627 151
3 627 628 632
3 628 629 633
3 629 630 634
3 630 631 635
3 631 231 232
3 151 632 152
3 632 633 636
3 633 634 637
3 634 635 638
3 635 232 233
3 152 636 153
3 636 637 639
3 637 638 640
3 638 233 234
3 153 639 154
3 639 640 641
3 640 234 235
3 154 641 155
3 641 235 236
3 155 236 10
3 147 129 606
3 606 130 607
3 607 131 608
3 608 132 609
3 609 133 610
3 610 134 611
3 611 135 612
3 612 136 613
3 613 137 228
3 148 606 614
3 614 607 615
3 615 608 616
3 616 609 617
3 617 610 618
3 618 611 619
3 619 612 620
3 620 613 229
3 149 614 621
3 621 615 622
3 622 616 623
3 623 617 624
3 624 618 625
3 625 619 626
3 626 620 230
3 150 621 627
3 627 622 628
3 628 623 629
3 629 624 630
3 630 625 631
3 631 626 231
3 151 627 632
3 632 628 633
3 633 629 634
3 634 630 635
3 635 631 232
3 152 632 636
3 636 633 637
3 637 634 638
3 638 635 233
3 153 636 639
3 639 637 640
3 640 638 234
3 154 639 641
3 641 640 235
3 155 641 236
3 2 75 93
3 75 76 642
3 76 77 643
3 77 78 644
3 78 79 645
3 79 80 646
3 80 81 647
3 81 82 648
3 82 83 649
3 83 9 237
3 93 642 94
3 642 643 650
3 643 644 651
3 644 645 652
3 645 646 653
3 646 647 654
3 647 648 655
3 648 649 656
3 649 237 238
3 94 650 95
3 650 651 657
3 651 652 658
3 652 653 659
3 653 654 660
3 654 655 661
3 655 656 662
3 656 238 239
3 95 657 96
3 657 658 663
3 658 659 664
3 659 660 665
3 660 661 666
3 661 662 667
3 662 239 240
3 96 663 97
3 663 664 668
3 664 665 669
3 665 666 670
3 666 667 671
3 667 240 241
3 97 668 98
3 668 669 672
3 669 670 673
3 670 671 674
3 671 241 242
3 98 672 99
3 672 673 675
3 673 674 676
3 674 242 243
3 99 675 100
3 675 676 677
3 676 243 244
3 100 677 101
3 677 244 245
3 101 245 11
3 93 75 642
3 642 76 643
3 643 77 644
3 644 78 645
3 645 79 646
3 646 80 647
3 647 81 648
3 648 82 649
3 649 83 237
3 94 642 650
3 650 643 651
3 651 644 652
3 652 645 653
3 653 646 654
3 654 647 655
3 655 648 656
3 656 649 238
3 95 650 657
3 657 651 658
3 658 652 659
3 659 653 660
3 660 654 661
3 661 655 662
3 662 656 239
3 96 657 663
3 663 658 664
3 664 659 665
3 665 660 666
3 666 661 667
3 667 662 240
3 97 663 668
3 668 664 669
3 669 665 670
3 670 666 671
3 671 667 241
3 98 668 672
3 672 669 673
3 673 670 674
3 674 671 242
3 99 672 675
3 675 673 676
3 676 674 243
3 100 675 677
3 677 676 244
3 101 677 245
3 3 174 210
3 174 175 678
3 175 176 679
3 176 177 680
3 177 178 681
3 178 179 682
3 179 180 683
3 180 181 684
3 181 182 685
3 182 9 237
3 210 678 211
3 678 679 686
3 679 680 687
3 680 681 688
3 681 682 689
3 682 683 690
3 683 684 691
3 684 685 692
3 685 237 238
3 211 686 212
3 686 687 693
3 687 688 694
3 688 689 695
3 689 690 696
3 690 691 697
3 691 692 698
3 692 238 239
3 212 693 213
3 693 694 699
3 694 695 700
3 695 696 701
3 696 697 702
3 697 698 703
3 698 239 240
3 213 699 214
3 699 700 704
3 700 701 705
3 701 702 706
3 702 703 707
3 703 240 241
3 214 704 215
3 704 705 708
3 705 706 709
3 706 707 710
3 707 241 242
3 215 708 216
3 708 709 711
3 709 710 712
3 710 242 243
3 216 711 217
3 711 712 713
3 712 243 244
3 217 713 218
3 713 244 245
3 218 245 11
3 210 174 678
3 678 175 679
3 679 176 680
3 680 177 681
3 681 178 682
3 682 179 683
3 683 180 684
3 684 181 685
3 685 182 237
3 211 678 686
3 686 679 687
3 687 680 688
3 688 681 689
3 689 682 690
3 690 683 691
3 691 684 692
3 692 685 238
3 212 686 693
3 693 687 694
3 694 688 695
3 695 689 696
3 696 690 697
3 697 691 698
3 698 692 239
3 213 693 699
3 699 694 700
3 700 695 701
3 701 696 702
3 702 697 703
3 703 698 240
3 214 699 704
3 704 700 705
3 705 701 706
3 706 702 707
3 707 703 241
3 215 704 708
3 708 705 709
3 709 706 710
3 710 707 242
3 216 708 711
3 711 709 712
3 712 710 243
3 217 711 713
3 713 712 244
3 218 713 245
3 4 74 29
3 74 73 714
3 73 72 715
3 72 71 716
3 71 70 717
3 70 69 718
3 69 68 719
3 68 67 720
3 67 66 721
3 66 2 254
3 29 714 28
3 714 715 722
3 715 716 723
3 716 717 724
3 717 718 725
3 718 719 726
3 719 720 727
3 720 721 728
3 721 254 253
3 28 722 27
3 722 723 729
3 723 724 730
3 724 725 731
3 725 726 732
3 726 727 733
3 727 728 734
3 728 253 252
3 27 729 26
3 729 730 735
3 730 731 736
3 731 732 737
3 732 733 738
3 733 734 739
3 734 252 251
3 26 735 25
3 735 736 740
3 736 737 741
3 737 738 742
3 738 739 743
3 739 251 250
3 25 740 24
3 740 741 744
3 741 742 745
3 742 743 746
3 743 250 249
3 24 744 23
3 744 745 747
3 745 746 748
3 746 249 248
3 23 747 22
3 747 748 749
3 748 248 247
3 22 749 21
3 749 247 246
3 21 246 0
3 29 74 714
3 714 73 715
3 715 72 716
3 716 71 717
3 717 70 718
3 718 69 719
3 719 68 720
3 720 67 721
3 721 66 254
3 28 714 722
3 722 715 723
3 723 716 724
3 724 717 725
3 725 718 726
3 726 719 727
3 727 720 728
3 728 721 253
3 27 722 729
3 729 723 730
3 730 724 731
3 731 725 732
3 732 726 733
3 733 727 734
3 734 728 252
3 26 729 735
3 735 730 736
3 736 731 737
3 737 732 738
3 738 733 739
3 739 734 251
3 25 735 740
3 740 736 741
3 741 737 742
3 742 738 743
3 743 739 250
3 24 740 744
3 744 741 745
3 745 742 746
3 746 743 249
3 23 744 747
3 747 745 748
3 748 746 248
3 22 747 749
3 749 748 247
3 21 749 246
3 5 47 110
3 47 46 750
3 46 45 751
3 45 44 752
3 44 43 753
3 43 42 754
3 42 41 755
3 41 40 756
3 40 39 757
3 39 0 246
3 110 750 109
3 750 751 758
3 751 752 759
3 752 753 760
3 753 754 761
3 754 755 762
3 755 756 763
3 756 757 764
3 757 246 247
3 109 758 108
3 758 759 765
3 759 760 766
3 760 761 767
3 761 762 768
3 762 763 769
3 763 764 770
3 764 247 248
3 108 765 107
3 765 766 771
3 766 767 772
3 767 768 773
3 768 769 774
3 769 770 775
3 770 248 249
3 107 771 106
3 771 772 776
3 772 773 777
3 773 774 778
3 774 775 779
3 775 249 250
3 106 776 105
3 776 777 780
3 777 778 781
3 778 779 782
3 779 250 251
3 105 780 104
3 780 781 783
3 781 782 784
3 782 251 252
3 104 783 103
3 783 784 785
3 784 252 253
3 103 785 102
3 785 253 254
3 102 254 2
3 110 47 750
3 750 46 751
3 751 45 752
3 752 44 753
3 753 43 754
3 754 42 755
3 755 41 756
3 756 40 757
3 757 39 246
3 109 750 758
3 758 751 759
3 759 752 760
3 760 753 761
3 761 754 762
3 762 755 763
3 763 756 764
3 764 757 247
3 108 758 765
3 765 759 766
3 766 760 767
3 767 761 768
3 768 762 769
3 769 763 770
3 770 764 248
3 107 765 771
3 771 766 772
3 772 767 773
3 773 768 774
3 774 769 775
3 775 770 249
3 106 771 776
3 776 772 777
3 777 773 778
3 778 774 779
3 779 775 250
3 105 776 780
3 780 777 781
3 781 778 782
3 782 779 251
3 104 780 783
3 783 781 784
3 784 782 252
3 103 783 785
3 785 784 253
3 102 785 254
3 6 128 191
3 128 127 786
3 127 126 787
3 126 125 788
3 125 124 789
3 124 123 790
3 123 122 791
3 122 121 792
3 121 120 793
3 120 1 255
3 191 786 190
3 786 787 794
3 787 788 795
3 788 789 796
3 789 790 797
3 790 791 798
3 791 792 799
3 792 793 800
3 793 255 256
3 190 794 189
3 794 795 801
3 795 796 802
3 796 797 803
3 797 798 804
3 798 799 805
3 799 800 806
3 800 256 257
3 189 801 188
3 801 802 807
3 802 803 808
3 803 804 809
3 804 805 810
3 805 806 811
3 806 257 258
3 188 807 187
3 807 808 812
3 808 809 813
3 809 810 814
3 810 811 815
3 811 258 259
3 187 812 186
3 812 813 816
3 813 814 817
3 814 815 818
3 815 259 260
3 186 816 185
3 816 817 819
3 817 818 820
3 818 260 261
3 185 819 184
3 819 820 821
3 820 261 262
3 184 821 183
3 821 262 263
3 183 263 3
3 191 128 786
3 786 127 787
3 787 126 788
3 788 125 789
3 789 124 790
3 790 123 791
3 791 122 792
3 792 121 793
3 793 120 255
3 190 786 794
3 794 787 795
3 795 788 796
3 796 789 797
3 797 790 798
3 798 791 799
3 799 792 800
3 800 793 256
3 189 794 801
3 801 795 802
3 802 796 803
3 803 797 804
3 804 798 805
3 805 799 806
3 806 800 257
3 188 801 807
3 807 802 808
3 808 803 809
3 809 804 810
3 810 805 811
3 811 806 258
3 187 807 812
3 812 808 813
3 813 809 814
3 814 810 815
3 815 811 259
3 186 812 816
3 816 813 817
3 817 814 818
3 818 815 260
3 185 816 819
3 819 817 820
3 820 818 261
3 184 819 821
3 821 820 262
3 183 821 263
3 7 209 164
3 209 208 822
3 208 207 823
3 207 206 824
3 206 205 825
3 205 204 826
3 204 203 827
3 203 202 828
3 202 201 829
3 201 3 263
3 164 822 163
3 822 823 830
3 823 824 831
3 824 825 832
3 825 826 833
3 826 827 834
3 827 828 835
3 828 829 836
3 829 263 262
3 163 830 162
3 830 831 837
3 831 832 838
3 832 833 839
3 833 834 840
3 834 835 841
3 835 836 842
3 836 262 261
3 162 837 161
3 837 838 843
3 838 839 844
3 839 840 845
3 840 841 846
3 841 842 847
3 842 261 260
3 161 843 160
3 843 844 848
3 844 845 849
3 845 846 850
3 846 847 851
3 847 260 259
3 160 848 159
3 848 849 852
3 849 850 853
3 850 851 854
3 851 259 258
3 159 852 158
3 852 853 855
3 853 854 856
3 854 258 257
3 158 855 157
3 855 856 857
3 856 257 256
3 157 857 156
3 857 256 255
3 156 255 1
3 164 209 822
3 822 208 823
3 823 207 824
3 824 206 825
3 825 205 826
3 826 204 827
3 827 203 828
3 828 202 829
3 829 201 263
3 163 822 830
3 830 823 831
3 831 824 832
3 832 825 833
3 833 826 834
3 834 827 835
3 835 828 836
3 836 829 262
3 162 830 837
3 837 831 838
3 838 832 839
3 839 833 840
3 840 834 841
3 841 835 842
3 842 836 261
3 161 837 843
3 843 838 844
3 844 839 845
3 845 840 846
3 846 841 847
3 847 842 260
3 160 843 848
3 848 844 849
3 849 845 850
3 850 846 851
3 851 847 259
3 159 848 852
3 852 849 853
3 853 850 854
3 854 851 258
3 158 852 855
3 855 853 856
3 856 854 257
3 157 855 857
3 857 856 256
3 156 857 255
3 8 146 38
3 146 145 858
3 145 144 859
3 144 143 860
3 143 142 861
3 142 141 862
3 141 140 863
3 140 139 864
3 139 138 865
3 138 6 272
3 38 858 37
3 858 859 866
3 859 860 867
3 860 861 868
3 861 862 869
3 862 863 870
3 863 864 871
3 864 865 872
3 865 272 271
3 37 866 36
3 866 867 873
3 867 868 874
3 868 869 875
3 869 870 876
3 870 871 877
3 871 872 878
3 872 271 270
3 36 873 35
3 873 874 879
3 874 875 880
3 875 876 881
3 876 877 882
3 877 878 883
3 878 270 269
3 35 879 34
3 879 880 884
3 880 881 885
3 881 882 886
3 882 883 887
3 883 269 268
3 34 884 33
3 884 885 888
3 885 886 889
3 886 887 890
3 887 268 267
3 33 888 32
3 888 889 891
3 889 890 892
3 890 267 266
3 32 891 31
3 891 892 893
3 892 266 265
3 31 893 30
3 893 265 264
3 30 264 4
3 38 146 858
3 858 145 859
3 859 144 860
3 860 143 861
3 861 142 862
3 862 141 863
3 863 140 864
3 864 139 865
3 865 138 272
3 37 858 866
3 866 859 867
3 867 860 868
3 868 861 869
3 869 862 870
3 870 863 871
3 871 864 872
3 872 865 271
3 36 866 873
3 873 867 874
3 874 868 875
3 875 869 876
3 876 870 877
3 877 871 878
3 878 872 270
3 35 873 879
3 879 874 880
3 880 875 881
3 881 876 882
3 882 877 883
3 883 878 269
3 34 879 884
3 884 880 885
3 885 881 886
3 886 882 887
3 887 883 268
3 33 884 888
3 888 885 889
3 889 886 890
3 890 887 267
3 32 888 891
3 891 889 892
3 892 890 266
3 31 891 893
3 893 892 265
3 30 893 264
3 9 92 200
3 92 91 894
3 91 90 895
3 90 89 896
3 89 88 897
3 88 87 898
3 87 86 899
3 86 85 900
3 85 84 901
3 84 4 264
3 200 894 199
3 894 895 902
3 895 896 903
3 896 897 904
3 897 898 905
3 898 899 906
3 899 900 907
3 900 901 908
3 901 264 265
3 199 902 198
3 902 903 909
3 903 904 910
3 904 905 911
3 905 906 912
3 906 907 913
3 907 908 914
3 908 265 266
3 198 909 197
3 909 910 915
3 910 911 916
3 911 912 917
3 912 913 918
3 913 914 919
3 914 266 267
3 197 915 196
3 915 916 920
3 916 917 921
3 917 918 922
3 918 919 923
3 919 267 268
3 196 920 195
3 920 921 924
3 921 922 925
3 922 923 926
3 923 268 269
3 195 924 194
3 924 925 927
3 925 926 928
3 926 269 270
3 194 927 193
3 927 928 929
3 928 270 271
3 193 929 192
3 929 271 272
3 192 272 6
3 200 92 894
3 894 91 895
3 895 90 896
3 896 89 897
3 897 88 898
3 898 87 899
3 899 86 900
3 900 85 901
3 901 84 264
3 199 894 902
3 902 895 903
3 903 896 904
3 904 897 905
3 905 898 906
3 906 899 907
3 907 900 908
3 908 901 265
3 198 902 909
3 909 903 910
3 910 904 911
3 911 905 912
3 912 906 913
3 913 907 914
3 914 908 266
3 197 909 915
3 915 910 916
3 916 911 917
3 917 912 918
3 918 913 919
3 919 914 267
3 196 915 920
3 920 916 921
3 921 917 922
3 922 918 923
3 923 919 268
3 195 920 924
3 924 921 925
3 925 922 926
3 926 923 269
3 194 924 927
3 927 925 928
3 928 926 270
3 193 927 929
3 929 928 271
3 192 929 272
3 10 65 173
3 65 64 930
3 64 63 931
3 63 62 932
3 62 61 933
3 61 60 934
3 60 59 935
3 59 58 936
3 58 57 937
3 57 5 273
3 173 930 172
3 930 931 938
3 931 932 939
3 932 933 940
3 933 934 941
3 934 935 942
3 935 936 943
3 936 937 944
3 937 273 274
3 172 938 171
3 938 939 945
3 939 940 946
3 940 941 947
3 941 942 948
3 942 943 949
3 943 944 950
3 944 274 275
3 171 945 170
3 945 946 951
3 946 947 952
3 947 948 953
3 948 949 954
3 949 950 955
3 950 275 276
3 170 951 169
3 951 952 956
3 952 953 957
3 953 954 958
3 954 955 959
3 955 276 277
3 169 956 168
3 956 957 960
3 957 958 961
3 958 959 962
3 959 277 278
3 168 960 167
3 960 961 963
3 961 962 964
3 962 278 279
3 167 963 166
3 963 964 965
3 964 279 280
3 166 965 165
3 965 280 281
3 165 281 7
3 173 65 930
3 930 64 931
3 931 63 932
3 932 62 933
3 933 61 934
3 934 60 935
3 935 59 936
3 936 58 937
3 937 57 273
3 172 930 938
3 938 931 939
3 939 932 940
3 940 933 941
3 941 934 942
3 942 935 943
3 943 936 944
3 944 937 274
3 171 938 945
3 945 939 946
3 946 940 947
3 947 941 948
3 948 942 949
3 949 943 950
3 950 944 275
3 170 945 951
3 951 946 952
3 952 947 953
3 953 948 954
3 954 949 955
3 955 950 276
3 169 951 956
3 956 952 957
3 957 953 958
3 958 954 959
3 959 955 277
3 168 956 960
3 960 957 961
3 961 958 962
3 962 959 278
3 167 960 963
3 963 961 964
3 964 962 279
3 166 963 965
3 965 964 280
3 165 965 281
3 11 227 119
3 227 226 966
3 226 225 967
3 225 224 968
3 224 223 969
3 223 222 970
3 222 221 971
3 221 220 972
3 220 219 973
3 219 7 281
3 119 966 118
3 966 967 974
3 967 968 975
3 968 969 976
3 969 970 977
3 970 971 978
3 971 972 979
3 972 973 980
3 973 281 280
3 118 974 117
3 974 975 981
3 975 976 982
3 976 977 983
3 977 978 984
3 978 979 985
3 979 980 986
3 980 280 279
3 117 981 116
3 981 982 987
3 982 983 988
3 983 984 989
3 984 985 990
3 985 986 991
3 986 279 278
3 116 987 115
3 987 988 992
3 988 989 993
3 989 990 994
3 990 991 995
3 991 278 277
3 115 992 114
3 992 993 996
3 993 994 997
3 994 995 998
3 995 277 276
3 114 996 113
3 996 997 999
3 997 998 1000
3 998 276 275
3 113 999 112
3 999 1000 1001
3 1000 275 274
3 112 1001 111
3 1001 274 273
3 111 273 5
3 119 227 966
3 966 226 967
3 967 225 968
3 968 224 969
3 969 223 970
3 970 222 971
3 971 221 972
3 972 220 973
3 973 219 281
3 118 966 974
3 974 967 975
3 975 968 976
3 976 969 977
3 977 970 978
3 978 971 979
3 979 972 980
3 980 973 280
3 117 974 981
3 981 975 982
3 982 976 983
3 983 977 984
3 984 978 985
3 985 979 986
3 986 980 279
3 116 981 987
3 987 982 988
3 988 983 989
3 989 984 990
3 990 985 991
3 991 986 278
3 115 987 992
3 992 988 993
3 993 989 994
3 994 990 995
3 995 991 277
3 114 992 996
3 996 993 997
3 997 994 998
3 998 995 276
3 113 996 999
3 999 997 1000
3 1000 998 275
3 112 999 1001
3 1001 1000 274
3 111 1001 273
