# vtk DataFile Version 3.0
vtk output
ASCII
DATASET POLYDATA
POINTS 162 float
0.850651 0.525731 0
-0.850651 0.525731 0
0.850651 -0.525731 0
-0.850651 -0.525731 0
0.525731 0 0.850651
0.525731 0 -0.850651
-0.525731 0 0.850651
-0.525731 0 -0.850651
0 0.850651 0.525731
0 -0.850651 0.525731
0 0.850651 -0.525731
0 -0.850651 -0.525731
0.702046 0.69378 0.160622
0.5 0.809017 0.309017
0.259892 0.862668 0.433889
0.862668 0.433889 0.259892
0.809017 0.309017 0.5
0.69378 0.160622 0.702046
0.433889 0.259892 0.862668
0.309017 0.5 0.809017
0.160622 0.702046 0.69378
0.862668 0.433889 -0.259892
0.809017 0.309017 -0.5
0.69378 0.160622 -0.702046
0.702046 0.69378 -0.160622
0.5 0.809017 -0.309017
0.259892 0.862668 -0.433889
0.433889 0.259892 -0.862668
0.309017 0.5 -0.809017
0.160622 0.702046 -0.69378
0.862668 -0.433889 0.259892
0.809017 -0.309017 0.5
0.69378 -0.160622 0.702046
0.702046 -0.69378 0.160622
0.5 -0.809017 0.309017
0.259892 -0.862668 0.433889
0.433889 -0.259892 0.862668
0.309017 -0.5 0.809017
0.160622 -0.702046 0.69378
0.702046 -0.69378 -0.160622
0.5 -0.809017 -0.309017
0.259892 -0.862668 -0.433889
0.862668 -0.433889 -0.259892
0.809017 -0.309017 -0.5
0.69378 -0.160622 -0.702046
0.433889 -0.259892 -0.862668
0.309017 -0.5 -0.809017
0.160622 -0.702046 -0.69378
-0.862668 0.433889 0.259892
-0.809017 0.309017 0.5
-0.69378 0.160622 0.702046
-0.702046 0.69378 0.160622
-0.5 0.809017 0.309017
-0.259892 0.862668 0.433889
-0.433889 0.259892 0.862668
-0.309017 0.5 0.809017
-0.160622 0.702046 0.69378
-0.702046 0.69378 -0.160622
-0.5 0.809017 -0.309017
-0.259892 0.862668 -0.433889
-0.862668 0.433889 -0.259892
-0.809017 0.309017 -0.5
-0.69378 0.160622 -0.702046
-0.433889 0.259892 -0.862668
-0.309017 0.5 -0.809017
-0.160622 0.702046 -0.69378
-0.702046 -0.69378 0.160622
-0.5 -0.809017 0.309017
-0.259892 -0.862668 0.433889
-0.862668 -0.433889 0.259892
-0.809017 -0.309017 0.5
-0.69378 -0.160622 0.702046
-0.433889 -0.259892 0.862668
-0.309017 -0.5 0.809017
-0.160622 -0.702046 0.69378
-0.862668 -0.433889 -0.259892
-0.809017 -0.309017 -0.5
-0.69378 -0.160622 -0.702046
-0.702046 -0.69378 -0.160622
-0.5 -0.809017 -0.309017
-0.259892 -0.862668 -0.433889
-0.433889 -0.259892 -0.862668
-0.309017 -0.5 -0.809017
-0.160622 -0.702046 -0.69378
0 0.961938 0.273267
0 1 0
0 0.961938 -0.273267
0 -0.961938 0.273267
0 -1 0
0 -0.961938 -0.273267
0.961938 0.273267 0
1 0 0
0.961938 -0.273267 0
-0.961938 0.273267 0
-1 0 0
-0.961938 -0.273267 0
0.273267 0 0.961938
0 0 1
-0.273267 0 0.961938
0.273267 0 -0.961938
0 0 -1
-0.273267 0 -0.961938
0.680233 0.587719 0.438028
0.438028 0.680233 0.587719
0.587719 0.438028 0.680233
0.680233 0.587719 -0.438028
0.587719 0.438028 -0.680233
0.438028 0.680233 -0.587719
0.680233 -0.587719 0.438028
0.587719 -0.438028 0.680233
0.438028 -0.680233 0.587719
0.680233 -0.587719 -0.438028
0.438028 -0.680233 -0.587719
0.587719 -0.438028 -0.680233
-0.680233 0.587719 0.438028
-0.587719 0.438028 0.680233
-0.438028 0.680233 0.587719
-0.680233 0.587719 -0.438028
-0.438028 0.680233 -0.587719
-0.587719 0.438028 -0.680233
-0.680233 -0.587719 0.438028
-0.438028 -0.680233 0.587719
-0.587719 -0.438028 0.680233
-0.680233 -0.587719 -0.438028
-0.587719 -0.438028 -0.680233
-0.438028 -0.680233 -0.587719
0.512921 0.858436 -1.04131e-17
0.270716 0.95095 -0.149691
0.270716 0.95095 0.149691
-0.512921 0.858436 -1.04131e-17
-0.270716 0.95095 0.149691
-0.270716 0.95095 -0.149691
0.512921 -0.858436 -1.04131e-17
0.270716 -0.95095 0.149691
0.270716 -0.95095 -0.149691
-0.512921 -0.858436 -1.04131e-17
-0.270716 -0.95095 0.149691
-0.270716 -0.95095 -0.149691
0.858436 -3.00822e-17 0.512921
0.95095 -0.149691 0.270716
0.95095 0.149691 0.270716
0.858436 -3.00822e-17 -0.512921
0.95095 0.149691 -0.270716
0.95095 -0.149691 -0.270716
-0.858436 -3.00822e-17 0.512921
-0.95095 0.149691 0.270716
-0.95095 -0.149691 0.270716
-0.858436 -3.00822e-17 -0.512921
-0.95095 -0.149691 -0.270716
-0.95095 0.149691 -0.270716
-3.00822e-17 0.512921 0.858436
-0.149691 0.270716 0.95095
0.149691 0.270716 0.95095
-3.00822e-17 -0.512921 0.858436
0.149691 -0.270716 0.95095
-0.149691 -0.270716 0.95095
-3.00822e-17 0.512921 -0.858436
0.149691 0.270716 -0.95095
-0.149691 0.270716 -0.95095
-3.00822e-17 -0.512921 -0.858436
-0.149691 -0.270716 -0.95095
0.149691 -0.270716 -0.95095
POLYGONS 320 1280
3 0 12 15
3 12 13 102
3 13 14 103
3 14 8 20
3 15 102 16
3 102 103 104
3 103 20 19
3 16 104 17
3 104 19 18
3 17 18 4
3 15 12 102
3 102 13 103
3 103 14 20
3 16 102 104
3 104 103 19
3 17 104 18
3 0 21 24
3 21 22 105
3 22 23 106
3 23 5 27
3 24 105 25
3 105 106 107
3 106 27 28
3 25 107 26
3 107 28 29
3 26 29 10
3 24 21 105
3 105 22 106
3 106 23 27
3 25 105 107
3 107 106 28
3 26 107 29
3 2 30 33
3 30 31 108
3 31 32 109
3 32 4 36
3 33 108 34
3 108 109 110
3 109 36 37
3 34 110 35
3 110 37 38
3 35 38 9
3 33 30 108
3 108 31 109
3 109 32 36
3 34 108 110
3 110 109 37
3 35 110 38
3 2 39 42
3 39 40 111
3 40 41 112
3 41 11 47
3 42 111 43
3 111 112 113
3 112 47 46
3 43 113 44
3 113 46 45
3 44 45 5
3 42 39 111
3 111 40 112
3 112 41 47
3 43 111 113
3 113 112 46
3 44 113 45
3 1 48 51
3 48 49 114
3 49 50 115
3 50 6 54
3 51 114 52
3 114 115 116
3 115 54 55
3 52 116 53
3 116 55 56
3 53 56 8
3 51 48 114
3 114 49 115
3 115 50 54
3 52 114 116
3 116 115 55
3 53 116 56
3 1 57 60
3 57 58 117
3 58 59 118
3 59 10 65
3 60 117 61
3 117 118 119
3 118 65 64
3 61 119 62
3 119 64 63
3 62 63 7
3 60 57 117
3 117 58 118
3 118 59 65
3 61 117 119
3 119 118 64
3 62 119 63
3 3 66 69
3 66 67 120
3 67 68 121
3 68 9 74
3 69 120 70
3 120 121 122
3 121 74 73
3 70 122 71
3 122 73 72
3 71 72 6
3 69 66 120
3 120 67 121
3 121 68 74
3 70 120 122
3 122 121 73
3 71 122 72
3 3 75 78
3 75 76 123
3 76 77 124
3 77 7 81
3 78 123 79
3 123 124 125
3 124 81 82
3 79 125 80
3 125 82 83
3 80 83 11
3 78 75 123
3 123 76 124
3 124 77 81
3 79 123 125
3 125 124 82
3 80 125 83
3 0 24 12
3 24 25 126
3 25 26 127
3 26 10 86
3 12 126 13
3 126 127 128
3 127 86 85
3 13 128 14
3 128 85 84
3 14 84 8
3 12 24 126
3 126 25 127
3 127 26 86
3 13 126 128
3 128 127 85
3 14 128 84
3 1 51 57
3 51 52 129
3 52 53 130
3 53 8 84
3 57 129 58
3 129 130 131
3 130 84 85
3 58 131 59
3 131 85 86
3 59 86 10
3 57 51 129
3 129 52 130
3 130 53 84
3 58 129 131
3 131 130 85
3 59 131 86
3 2 33 39
3 33 34 132
3 34 35 133
3 35 9 87
3 39 132 40
3 132 133 134
3 133 87 88
3 40 134 41
3 134 88 89
3 41 89 11
3 39 33 132
3 132 34 133
3 133 35 87
3 40 132 134
3 134 133 88
3 41 134 89
3 3 66 78
3 66 67 135
3 67 68 136
3 68 9 87
3 78 135 79
3 135 136 137
3 136 87 88
3 79 137 80
3 137 88 89
3 80 89 11
3 78 66 135
3 135 67 136
3 136 68 87
3 79 135 137
3 137 136 88
3 80 137 89
3 4 32 17
3 32 31 138
3 31 30 139
3 30 2 92
3 17 138 16
3 138 139 140
3 139 92 91
3 16 140 15
3 140 91 90
3 15 90 0
3 17 32 138
3 138 31 139
3 139 30 92
3 16 138 140
3 140 139 91
3 15 140 90
3 5 23 44
3 23 22 141
3 22 21 142
3 21 0 90
3 44 141 43
3 141 142 143
3 142 90 91
3 43 143 42
3 143 91 92
3 42 92 2
3 44 23 141
3 141 22 142
3 142 21 90
3 43 141 143
3 143 142 91
3 42 143 92
3 6 50 71
3 50 49 144
3 49 48 145
3 48 1 93
3 71 144 70
3 144 145 146
3 145 93 94
3 70 146 69
3 146 94 95
3 69 95 3
3 71 50 144
3 144 49 145
3 145 48 93
3 70 144 146
3 146 145 94
3 69 146 95
3 7 77 62
3 77 76 147
3 76 75 148
3 75 3 95
3 62 147 61
3 147 148 149
3 148 95 94
3 61 149 60
3 149 94 93
3 60 93 1
3 62 77 147
3 147 76 148
3 148 75 95
3 61 147 149
3 149 148 94
3 60 149 93
3 8 56 20
3 56 55 150
3 55 54 151
3 54 6 98
3 20 150 19
3 150 151 152
3 151 98 97
3 19 152 18
3 152 97 96
3 18 96 4
3 20 56 150
3 150 55 151
3 151 54 98
3 19 150 152
3 152 151 97
3 18 152 96
3 9 38 74
3 38 37 153
3 37 36 154
3 36 4 96
3 74 153 73
3 153 154 155
3 154 96 97
3 73 155 72
3 155 97 98
3 72 98 6
3 74 38 153
3 153 37 154
3 154 36 96
3 73 153 155
3 155 154 97
3 72 155 98
3 10 29 65
3 29 28 156
3 28 27 157
3 27 5 99
3 65 156 64
3 156 157 158
3 157 99 100
3 64 158 63
3 158 100 101
3 63 101 7
3 65 29 156
3 156 28 157
3 157 27 99
3 64 156 158
3 158 157 100
3 63 158 101
3 11 83 47
3 83 82 159
3 82 81 160
3 81 7 101
3 47 159 46
3 159 160 161
3 160 101 100
3 46 161 45
3 161 100 99
3 45 99 5
3 47 83 159
3 159 82 160
3 160 81 101
3 46 159 161
3 161 160 100
3 45 161 99
